^C:\USERS\GEANA\DOCUMENTS\VISUAL STUDIO 2017\PROJECTS\FTW\FOUR-THE-WORLD1\FTW\STDAFX.CPP
C:\WINDOWS\GLOBALIZATION\SORTING\SORTDEFAULT.NLS
C:\PROGRAM FILES (X86)\MICROSOFT VISUAL STUDIO\2017\COMMUNITY\VC\TOOLS\MSVC\14.10.25017\BIN\HOSTX86\X86\1033\CLUI.DLL
C:\WINDOWS\SYSTEM32\TZRES.DLL
C:\USERS\GEANA\DOCUMENTS\VISUAL STUDIO 2017\PROJECTS\FTW\FOUR-THE-WORLD1\FTW\STDAFX.H
C:\USERS\GEANA\DOCUMENTS\VISUAL STUDIO 2017\PROJECTS\FTW\FOUR-THE-WORLD1\FTW\TARGETVER.H
C:\PROGRAM FILES (X86)\WINDOWS KITS\10\INCLUDE\10.0.14393.0\SHARED\SDKDDKVER.H
C:\PROGRAM FILES (X86)\WINDOWS KITS\10\INCLUDE\10.0.14393.0\UCRT\STDIO.H
C:\PROGRAM FILES (X86)\WINDOWS KITS\10\INCLUDE\10.0.14393.0\UCRT\CORECRT.H
C:\PROGRAM FILES (X86)\MICROSOFT VISUAL STUDIO\2017\COMMUNITY\VC\TOOLS\MSVC\14.10.25017\INCLUDE\VCRUNTIME.H
C:\PROGRAM FILES (X86)\MICROSOFT VISUAL STUDIO\2017\COMMUNITY\VC\TOOLS\MSVC\14.10.25017\INCLUDE\SAL.H
C:\PROGRAM FILES (X86)\MICROSOFT VISUAL STUDIO\2017\COMMUNITY\VC\TOOLS\MSVC\14.10.25017\INCLUDE\CONCURRENCYSAL.H
C:\PROGRAM FILES (X86)\MICROSOFT VISUAL STUDIO\2017\COMMUNITY\VC\TOOLS\MSVC\14.10.25017\INCLUDE\VADEFS.H
C:\PROGRAM FILES (X86)\WINDOWS KITS\10\INCLUDE\10.0.14393.0\UCRT\CORECRT_WSTDIO.H
C:\PROGRAM FILES (X86)\WINDOWS KITS\10\INCLUDE\10.0.14393.0\UCRT\CORECRT_STDIO_CONFIG.H
C:\PROGRAM FILES (X86)\WINDOWS KITS\10\INCLUDE\10.0.14393.0\UCRT\TCHAR.H
C:\PROGRAM FILES (X86)\WINDOWS KITS\10\INCLUDE\10.0.14393.0\UCRT\WCHAR.H
C:\PROGRAM FILES (X86)\WINDOWS KITS\10\INCLUDE\10.0.14393.0\UCRT\CORECRT_MEMCPY_S.H
C:\PROGRAM FILES (X86)\WINDOWS KITS\10\INCLUDE\10.0.14393.0\UCRT\ERRNO.H
C:\PROGRAM FILES (X86)\MICROSOFT VISUAL STUDIO\2017\COMMUNITY\VC\TOOLS\MSVC\14.10.25017\INCLUDE\VCRUNTIME_STRING.H
C:\PROGRAM FILES (X86)\WINDOWS KITS\10\INCLUDE\10.0.14393.0\UCRT\CORECRT_WCONIO.H
C:\PROGRAM FILES (X86)\WINDOWS KITS\10\INCLUDE\10.0.14393.0\UCRT\CORECRT_WCTYPE.H
C:\PROGRAM FILES (X86)\WINDOWS KITS\10\INCLUDE\10.0.14393.0\UCRT\CORECRT_WDIRECT.H
C:\PROGRAM FILES (X86)\WINDOWS KITS\10\INCLUDE\10.0.14393.0\UCRT\CORECRT_WIO.H
C:\PROGRAM FILES (X86)\WINDOWS KITS\10\INCLUDE\10.0.14393.0\UCRT\CORECRT_SHARE.H
C:\PROGRAM FILES (X86)\WINDOWS KITS\10\INCLUDE\10.0.14393.0\UCRT\CORECRT_WPROCESS.H
C:\PROGRAM FILES (X86)\WINDOWS KITS\10\INCLUDE\10.0.14393.0\UCRT\CORECRT_WSTDLIB.H
C:\PROGRAM FILES (X86)\WINDOWS KITS\10\INCLUDE\10.0.14393.0\UCRT\CORECRT_WSTRING.H
C:\PROGRAM FILES (X86)\WINDOWS KITS\10\INCLUDE\10.0.14393.0\UCRT\CORECRT_WTIME.H
C:\PROGRAM FILES (X86)\WINDOWS KITS\10\INCLUDE\10.0.14393.0\UCRT\SYS\STAT.H
C:\PROGRAM FILES (X86)\WINDOWS KITS\10\INCLUDE\10.0.14393.0\UCRT\SYS\TYPES.H
C:\USERS\GEANA\DOCUMENTS\VISUAL STUDIO 2017\PROJECTS\FTW\FOUR-THE-WORLD1\LIBS\SDL2-2.0.9\INCLUDE\SDL.H
C:\USERS\GEANA\DOCUMENTS\VISUAL STUDIO 2017\PROJECTS\FTW\FOUR-THE-WORLD1\LIBS\SDL2-2.0.9\INCLUDE\SDL_MAIN.H
C:\USERS\GEANA\DOCUMENTS\VISUAL STUDIO 2017\PROJECTS\FTW\FOUR-THE-WORLD1\LIBS\SDL2-2.0.9\INCLUDE\SDL_STDINC.H
C:\USERS\GEANA\DOCUMENTS\VISUAL STUDIO 2017\PROJECTS\FTW\FOUR-THE-WORLD1\LIBS\SDL2-2.0.9\INCLUDE\SDL_CONFIG.H
C:\USERS\GEANA\DOCUMENTS\VISUAL STUDIO 2017\PROJECTS\FTW\FOUR-THE-WORLD1\LIBS\SDL2-2.0.9\INCLUDE\SDL_PLATFORM.H
C:\PROGRAM FILES (X86)\WINDOWS KITS\10\INCLUDE\10.0.14393.0\SHARED\WINAPIFAMILY.H
C:\PROGRAM FILES (X86)\WINDOWS KITS\10\INCLUDE\10.0.14393.0\SHARED\WINPACKAGEFAMILY.H
C:\USERS\GEANA\DOCUMENTS\VISUAL STUDIO 2017\PROJECTS\FTW\FOUR-THE-WORLD1\LIBS\SDL2-2.0.9\INCLUDE\BEGIN_CODE.H
C:\USERS\GEANA\DOCUMENTS\VISUAL STUDIO 2017\PROJECTS\FTW\FOUR-THE-WORLD1\LIBS\SDL2-2.0.9\INCLUDE\CLOSE_CODE.H
C:\PROGRAM FILES (X86)\WINDOWS KITS\10\INCLUDE\10.0.14393.0\UCRT\STDDEF.H
C:\PROGRAM FILES (X86)\MICROSOFT VISUAL STUDIO\2017\COMMUNITY\VC\TOOLS\MSVC\14.10.25017\INCLUDE\STDARG.H
C:\USERS\GEANA\DOCUMENTS\VISUAL STUDIO 2017\PROJECTS\FTW\FOUR-THE-WORLD1\LIBS\SDL2-2.0.9\INCLUDE\SDL_ASSERT.H
C:\USERS\GEANA\DOCUMENTS\VISUAL STUDIO 2017\PROJECTS\FTW\FOUR-THE-WORLD1\LIBS\SDL2-2.0.9\INCLUDE\SDL_ATOMIC.H
C:\USERS\GEANA\DOCUMENTS\VISUAL STUDIO 2017\PROJECTS\FTW\FOUR-THE-WORLD1\LIBS\SDL2-2.0.9\INCLUDE\SDL_AUDIO.H
C:\USERS\GEANA\DOCUMENTS\VISUAL STUDIO 2017\PROJECTS\FTW\FOUR-THE-WORLD1\LIBS\SDL2-2.0.9\INCLUDE\SDL_ERROR.H
C:\USERS\GEANA\DOCUMENTS\VISUAL STUDIO 2017\PROJECTS\FTW\FOUR-THE-WORLD1\LIBS\SDL2-2.0.9\INCLUDE\SDL_ENDIAN.H
C:\USERS\GEANA\DOCUMENTS\VISUAL STUDIO 2017\PROJECTS\FTW\FOUR-THE-WORLD1\LIBS\SDL2-2.0.9\INCLUDE\SDL_MUTEX.H
C:\USERS\GEANA\DOCUMENTS\VISUAL STUDIO 2017\PROJECTS\FTW\FOUR-THE-WORLD1\LIBS\SDL2-2.0.9\INCLUDE\SDL_THREAD.H
C:\PROGRAM FILES (X86)\WINDOWS KITS\10\INCLUDE\10.0.14393.0\UCRT\PROCESS.H
C:\PROGRAM FILES (X86)\WINDOWS KITS\10\INCLUDE\10.0.14393.0\UCRT\CORECRT_STARTUP.H
C:\PROGRAM FILES (X86)\WINDOWS KITS\10\INCLUDE\10.0.14393.0\UCRT\MATH.H
C:\PROGRAM FILES (X86)\MICROSOFT VISUAL STUDIO\2017\COMMUNITY\VC\TOOLS\MSVC\14.10.25017\INCLUDE\VCRUNTIME_STARTUP.H
C:\USERS\GEANA\DOCUMENTS\VISUAL STUDIO 2017\PROJECTS\FTW\FOUR-THE-WORLD1\LIBS\SDL2-2.0.9\INCLUDE\SDL_RWOPS.H
C:\USERS\GEANA\DOCUMENTS\VISUAL STUDIO 2017\PROJECTS\FTW\FOUR-THE-WORLD1\LIBS\SDL2-2.0.9\INCLUDE\SDL_CLIPBOARD.H
C:\USERS\GEANA\DOCUMENTS\VISUAL STUDIO 2017\PROJECTS\FTW\FOUR-THE-WORLD1\LIBS\SDL2-2.0.9\INCLUDE\SDL_CPUINFO.H
C:\PROGRAM FILES (X86)\MICROSOFT VISUAL STUDIO\2017\COMMUNITY\VC\TOOLS\MSVC\14.10.25017\INCLUDE\INTRIN.H
C:\PROGRAM FILES (X86)\MICROSOFT VISUAL STUDIO\2017\COMMUNITY\VC\TOOLS\MSVC\14.10.25017\INCLUDE\INTRIN0.H
C:\PROGRAM FILES (X86)\MICROSOFT VISUAL STUDIO\2017\COMMUNITY\VC\TOOLS\MSVC\14.10.25017\INCLUDE\SETJMP.H
C:\PROGRAM FILES (X86)\MICROSOFT VISUAL STUDIO\2017\COMMUNITY\VC\TOOLS\MSVC\14.10.25017\INCLUDE\IMMINTRIN.H
C:\PROGRAM FILES (X86)\MICROSOFT VISUAL STUDIO\2017\COMMUNITY\VC\TOOLS\MSVC\14.10.25017\INCLUDE\WMMINTRIN.H
C:\PROGRAM FILES (X86)\MICROSOFT VISUAL STUDIO\2017\COMMUNITY\VC\TOOLS\MSVC\14.10.25017\INCLUDE\NMMINTRIN.H
C:\PROGRAM FILES (X86)\MICROSOFT VISUAL STUDIO\2017\COMMUNITY\VC\TOOLS\MSVC\14.10.25017\INCLUDE\SMMINTRIN.H
C:\PROGRAM FILES (X86)\MICROSOFT VISUAL STUDIO\2017\COMMUNITY\VC\TOOLS\MSVC\14.10.25017\INCLUDE\TMMINTRIN.H
C:\PROGRAM FILES (X86)\MICROSOFT VISUAL STUDIO\2017\COMMUNITY\VC\TOOLS\MSVC\14.10.25017\INCLUDE\PMMINTRIN.H
C:\PROGRAM FILES (X86)\MICROSOFT VISUAL STUDIO\2017\COMMUNITY\VC\TOOLS\MSVC\14.10.25017\INCLUDE\EMMINTRIN.H
C:\PROGRAM FILES (X86)\MICROSOFT VISUAL STUDIO\2017\COMMUNITY\VC\TOOLS\MSVC\14.10.25017\INCLUDE\XMMINTRIN.H
C:\PROGRAM FILES (X86)\MICROSOFT VISUAL STUDIO\2017\COMMUNITY\VC\TOOLS\MSVC\14.10.25017\INCLUDE\MMINTRIN.H
C:\PROGRAM FILES (X86)\WINDOWS KITS\10\INCLUDE\10.0.14393.0\UCRT\MALLOC.H
C:\PROGRAM FILES (X86)\WINDOWS KITS\10\INCLUDE\10.0.14393.0\UCRT\CORECRT_MALLOC.H
C:\PROGRAM FILES (X86)\MICROSOFT VISUAL STUDIO\2017\COMMUNITY\VC\TOOLS\MSVC\14.10.25017\INCLUDE\ZMMINTRIN.H
C:\PROGRAM FILES (X86)\MICROSOFT VISUAL STUDIO\2017\COMMUNITY\VC\TOOLS\MSVC\14.10.25017\INCLUDE\AMMINTRIN.H
C:\PROGRAM FILES (X86)\MICROSOFT VISUAL STUDIO\2017\COMMUNITY\VC\TOOLS\MSVC\14.10.25017\INCLUDE\MM3DNOW.H
C:\USERS\GEANA\DOCUMENTS\VISUAL STUDIO 2017\PROJECTS\FTW\FOUR-THE-WORLD1\LIBS\SDL2-2.0.9\INCLUDE\SDL_EVENTS.H
C:\USERS\GEANA\DOCUMENTS\VISUAL STUDIO 2017\PROJECTS\FTW\FOUR-THE-WORLD1\LIBS\SDL2-2.0.9\INCLUDE\SDL_VIDEO.H
C:\USERS\GEANA\DOCUMENTS\VISUAL STUDIO 2017\PROJECTS\FTW\FOUR-THE-WORLD1\LIBS\SDL2-2.0.9\INCLUDE\SDL_PIXELS.H
C:\USERS\GEANA\DOCUMENTS\VISUAL STUDIO 2017\PROJECTS\FTW\FOUR-THE-WORLD1\LIBS\SDL2-2.0.9\INCLUDE\SDL_RECT.H
C:\USERS\GEANA\DOCUMENTS\VISUAL STUDIO 2017\PROJECTS\FTW\FOUR-THE-WORLD1\LIBS\SDL2-2.0.9\INCLUDE\SDL_SURFACE.H
C:\USERS\GEANA\DOCUMENTS\VISUAL STUDIO 2017\PROJECTS\FTW\FOUR-THE-WORLD1\LIBS\SDL2-2.0.9\INCLUDE\SDL_BLENDMODE.H
C:\USERS\GEANA\DOCUMENTS\VISUAL STUDIO 2017\PROJECTS\FTW\FOUR-THE-WORLD1\LIBS\SDL2-2.0.9\INCLUDE\SDL_KEYBOARD.H
C:\USERS\GEANA\DOCUMENTS\VISUAL STUDIO 2017\PROJECTS\FTW\FOUR-THE-WORLD1\LIBS\SDL2-2.0.9\INCLUDE\SDL_KEYCODE.H
C:\USERS\GEANA\DOCUMENTS\VISUAL STUDIO 2017\PROJECTS\FTW\FOUR-THE-WORLD1\LIBS\SDL2-2.0.9\INCLUDE\SDL_SCANCODE.H
C:\USERS\GEANA\DOCUMENTS\VISUAL STUDIO 2017\PROJECTS\FTW\FOUR-THE-WORLD1\LIBS\SDL2-2.0.9\INCLUDE\SDL_MOUSE.H
C:\USERS\GEANA\DOCUMENTS\VISUAL STUDIO 2017\PROJECTS\FTW\FOUR-THE-WORLD1\LIBS\SDL2-2.0.9\INCLUDE\SDL_JOYSTICK.H
C:\USERS\GEANA\DOCUMENTS\VISUAL STUDIO 2017\PROJECTS\FTW\FOUR-THE-WORLD1\LIBS\SDL2-2.0.9\INCLUDE\SDL_GAMECONTROLLER.H
C:\USERS\GEANA\DOCUMENTS\VISUAL STUDIO 2017\PROJECTS\FTW\FOUR-THE-WORLD1\LIBS\SDL2-2.0.9\INCLUDE\SDL_QUIT.H
C:\USERS\GEANA\DOCUMENTS\VISUAL STUDIO 2017\PROJECTS\FTW\FOUR-THE-WORLD1\LIBS\SDL2-2.0.9\INCLUDE\SDL_GESTURE.H
C:\USERS\GEANA\DOCUMENTS\VISUAL STUDIO 2017\PROJECTS\FTW\FOUR-THE-WORLD1\LIBS\SDL2-2.0.9\INCLUDE\SDL_TOUCH.H
C:\USERS\GEANA\DOCUMENTS\VISUAL STUDIO 2017\PROJECTS\FTW\FOUR-THE-WORLD1\LIBS\SDL2-2.0.9\INCLUDE\SDL_FILESYSTEM.H
C:\USERS\GEANA\DOCUMENTS\VISUAL STUDIO 2017\PROJECTS\FTW\FOUR-THE-WORLD1\LIBS\SDL2-2.0.9\INCLUDE\SDL_HAPTIC.H
C:\USERS\GEANA\DOCUMENTS\VISUAL STUDIO 2017\PROJECTS\FTW\FOUR-THE-WORLD1\LIBS\SDL2-2.0.9\INCLUDE\SDL_HINTS.H
C:\USERS\GEANA\DOCUMENTS\VISUAL STUDIO 2017\PROJECTS\FTW\FOUR-THE-WORLD1\LIBS\SDL2-2.0.9\INCLUDE\SDL_LOADSO.H
C:\USERS\GEANA\DOCUMENTS\VISUAL STUDIO 2017\PROJECTS\FTW\FOUR-THE-WORLD1\LIBS\SDL2-2.0.9\INCLUDE\SDL_LOG.H
C:\USERS\GEANA\DOCUMENTS\VISUAL STUDIO 2017\PROJECTS\FTW\FOUR-THE-WORLD1\LIBS\SDL2-2.0.9\INCLUDE\SDL_MESSAGEBOX.H
C:\USERS\GEANA\DOCUMENTS\VISUAL STUDIO 2017\PROJECTS\FTW\FOUR-THE-WORLD1\LIBS\SDL2-2.0.9\INCLUDE\SDL_POWER.H
C:\USERS\GEANA\DOCUMENTS\VISUAL STUDIO 2017\PROJECTS\FTW\FOUR-THE-WORLD1\LIBS\SDL2-2.0.9\INCLUDE\SDL_RENDER.H
C:\USERS\GEANA\DOCUMENTS\VISUAL STUDIO 2017\PROJECTS\FTW\FOUR-THE-WORLD1\LIBS\SDL2-2.0.9\INCLUDE\SDL_SENSOR.H
C:\USERS\GEANA\DOCUMENTS\VISUAL STUDIO 2017\PROJECTS\FTW\FOUR-THE-WORLD1\LIBS\SDL2-2.0.9\INCLUDE\SDL_SHAPE.H
C:\USERS\GEANA\DOCUMENTS\VISUAL STUDIO 2017\PROJECTS\FTW\FOUR-THE-WORLD1\LIBS\SDL2-2.0.9\INCLUDE\SDL_SYSTEM.H
C:\USERS\GEANA\DOCUMENTS\VISUAL STUDIO 2017\PROJECTS\FTW\FOUR-THE-WORLD1\LIBS\SDL2-2.0.9\INCLUDE\SDL_TIMER.H
C:\USERS\GEANA\DOCUMENTS\VISUAL STUDIO 2017\PROJECTS\FTW\FOUR-THE-WORLD1\LIBS\SDL2-2.0.9\INCLUDE\SDL_VERSION.H
C:\USERS\GEANA\DOCUMENTS\VISUAL STUDIO 2017\PROJECTS\FTW\FOUR-THE-WORLD1\LIBS\SDL2_IMAGE-2.0.4\INCLUDE\SDL_IMAGE.H
^C:\USERS\GEANA\DOCUMENTS\VISUAL STUDIO 2017\PROJECTS\FTW\FOUR-THE-WORLD1\FTW\SPRITE.CPP
C:\USERS\GEANA\DOCUMENTS\VISUAL STUDIO 2017\PROJECTS\FTW\FOUR-THE-WORLD1\FTW\STDAFX.H
C:\USERS\GEANA\DOCUMENTS\VISUAL STUDIO 2017\PROJECTS\FTW\FOUR-THE-WORLD1\FTW\TARGETVER.H
C:\PROGRAM FILES (X86)\WINDOWS KITS\10\INCLUDE\10.0.14393.0\SHARED\SDKDDKVER.H
C:\PROGRAM FILES (X86)\WINDOWS KITS\10\INCLUDE\10.0.14393.0\UCRT\STDIO.H
C:\PROGRAM FILES (X86)\WINDOWS KITS\10\INCLUDE\10.0.14393.0\UCRT\CORECRT.H
C:\PROGRAM FILES (X86)\MICROSOFT VISUAL STUDIO\2017\COMMUNITY\VC\TOOLS\MSVC\14.10.25017\INCLUDE\VCRUNTIME.H
C:\PROGRAM FILES (X86)\MICROSOFT VISUAL STUDIO\2017\COMMUNITY\VC\TOOLS\MSVC\14.10.25017\INCLUDE\SAL.H
C:\PROGRAM FILES (X86)\MICROSOFT VISUAL STUDIO\2017\COMMUNITY\VC\TOOLS\MSVC\14.10.25017\INCLUDE\CONCURRENCYSAL.H
C:\PROGRAM FILES (X86)\MICROSOFT VISUAL STUDIO\2017\COMMUNITY\VC\TOOLS\MSVC\14.10.25017\INCLUDE\VADEFS.H
C:\PROGRAM FILES (X86)\WINDOWS KITS\10\INCLUDE\10.0.14393.0\UCRT\CORECRT_WSTDIO.H
C:\PROGRAM FILES (X86)\WINDOWS KITS\10\INCLUDE\10.0.14393.0\UCRT\CORECRT_STDIO_CONFIG.H
C:\PROGRAM FILES (X86)\WINDOWS KITS\10\INCLUDE\10.0.14393.0\UCRT\TCHAR.H
C:\PROGRAM FILES (X86)\WINDOWS KITS\10\INCLUDE\10.0.14393.0\UCRT\WCHAR.H
C:\PROGRAM FILES (X86)\WINDOWS KITS\10\INCLUDE\10.0.14393.0\UCRT\CORECRT_MEMCPY_S.H
C:\PROGRAM FILES (X86)\WINDOWS KITS\10\INCLUDE\10.0.14393.0\UCRT\ERRNO.H
C:\PROGRAM FILES (X86)\MICROSOFT VISUAL STUDIO\2017\COMMUNITY\VC\TOOLS\MSVC\14.10.25017\INCLUDE\VCRUNTIME_STRING.H
C:\PROGRAM FILES (X86)\WINDOWS KITS\10\INCLUDE\10.0.14393.0\UCRT\CORECRT_WCONIO.H
C:\PROGRAM FILES (X86)\WINDOWS KITS\10\INCLUDE\10.0.14393.0\UCRT\CORECRT_WCTYPE.H
C:\PROGRAM FILES (X86)\WINDOWS KITS\10\INCLUDE\10.0.14393.0\UCRT\CORECRT_WDIRECT.H
C:\PROGRAM FILES (X86)\WINDOWS KITS\10\INCLUDE\10.0.14393.0\UCRT\CORECRT_WIO.H
C:\PROGRAM FILES (X86)\WINDOWS KITS\10\INCLUDE\10.0.14393.0\UCRT\CORECRT_SHARE.H
C:\PROGRAM FILES (X86)\WINDOWS KITS\10\INCLUDE\10.0.14393.0\UCRT\CORECRT_WPROCESS.H
C:\PROGRAM FILES (X86)\WINDOWS KITS\10\INCLUDE\10.0.14393.0\UCRT\CORECRT_WSTDLIB.H
C:\PROGRAM FILES (X86)\WINDOWS KITS\10\INCLUDE\10.0.14393.0\UCRT\CORECRT_WSTRING.H
C:\PROGRAM FILES (X86)\WINDOWS KITS\10\INCLUDE\10.0.14393.0\UCRT\CORECRT_WTIME.H
C:\PROGRAM FILES (X86)\WINDOWS KITS\10\INCLUDE\10.0.14393.0\UCRT\SYS\STAT.H
C:\PROGRAM FILES (X86)\WINDOWS KITS\10\INCLUDE\10.0.14393.0\UCRT\SYS\TYPES.H
C:\USERS\GEANA\DOCUMENTS\VISUAL STUDIO 2017\PROJECTS\FTW\FOUR-THE-WORLD1\LIBS\SDL2-2.0.9\INCLUDE\SDL.H
C:\USERS\GEANA\DOCUMENTS\VISUAL STUDIO 2017\PROJECTS\FTW\FOUR-THE-WORLD1\LIBS\SDL2-2.0.9\INCLUDE\SDL_MAIN.H
C:\USERS\GEANA\DOCUMENTS\VISUAL STUDIO 2017\PROJECTS\FTW\FOUR-THE-WORLD1\LIBS\SDL2-2.0.9\INCLUDE\SDL_STDINC.H
C:\USERS\GEANA\DOCUMENTS\VISUAL STUDIO 2017\PROJECTS\FTW\FOUR-THE-WORLD1\LIBS\SDL2-2.0.9\INCLUDE\SDL_CONFIG.H
C:\USERS\GEANA\DOCUMENTS\VISUAL STUDIO 2017\PROJECTS\FTW\FOUR-THE-WORLD1\LIBS\SDL2-2.0.9\INCLUDE\SDL_PLATFORM.H
C:\PROGRAM FILES (X86)\WINDOWS KITS\10\INCLUDE\10.0.14393.0\SHARED\WINAPIFAMILY.H
C:\PROGRAM FILES (X86)\WINDOWS KITS\10\INCLUDE\10.0.14393.0\SHARED\WINPACKAGEFAMILY.H
C:\USERS\GEANA\DOCUMENTS\VISUAL STUDIO 2017\PROJECTS\FTW\FOUR-THE-WORLD1\LIBS\SDL2-2.0.9\INCLUDE\BEGIN_CODE.H
C:\USERS\GEANA\DOCUMENTS\VISUAL STUDIO 2017\PROJECTS\FTW\FOUR-THE-WORLD1\LIBS\SDL2-2.0.9\INCLUDE\CLOSE_CODE.H
C:\PROGRAM FILES (X86)\WINDOWS KITS\10\INCLUDE\10.0.14393.0\UCRT\STDDEF.H
C:\PROGRAM FILES (X86)\MICROSOFT VISUAL STUDIO\2017\COMMUNITY\VC\TOOLS\MSVC\14.10.25017\INCLUDE\STDARG.H
C:\USERS\GEANA\DOCUMENTS\VISUAL STUDIO 2017\PROJECTS\FTW\FOUR-THE-WORLD1\LIBS\SDL2-2.0.9\INCLUDE\SDL_ASSERT.H
C:\USERS\GEANA\DOCUMENTS\VISUAL STUDIO 2017\PROJECTS\FTW\FOUR-THE-WORLD1\LIBS\SDL2-2.0.9\INCLUDE\SDL_ATOMIC.H
C:\USERS\GEANA\DOCUMENTS\VISUAL STUDIO 2017\PROJECTS\FTW\FOUR-THE-WORLD1\LIBS\SDL2-2.0.9\INCLUDE\SDL_AUDIO.H
C:\USERS\GEANA\DOCUMENTS\VISUAL STUDIO 2017\PROJECTS\FTW\FOUR-THE-WORLD1\LIBS\SDL2-2.0.9\INCLUDE\SDL_ERROR.H
C:\USERS\GEANA\DOCUMENTS\VISUAL STUDIO 2017\PROJECTS\FTW\FOUR-THE-WORLD1\LIBS\SDL2-2.0.9\INCLUDE\SDL_ENDIAN.H
C:\USERS\GEANA\DOCUMENTS\VISUAL STUDIO 2017\PROJECTS\FTW\FOUR-THE-WORLD1\LIBS\SDL2-2.0.9\INCLUDE\SDL_MUTEX.H
C:\USERS\GEANA\DOCUMENTS\VISUAL STUDIO 2017\PROJECTS\FTW\FOUR-THE-WORLD1\LIBS\SDL2-2.0.9\INCLUDE\SDL_THREAD.H
C:\PROGRAM FILES (X86)\WINDOWS KITS\10\INCLUDE\10.0.14393.0\UCRT\PROCESS.H
C:\PROGRAM FILES (X86)\WINDOWS KITS\10\INCLUDE\10.0.14393.0\UCRT\CORECRT_STARTUP.H
C:\PROGRAM FILES (X86)\WINDOWS KITS\10\INCLUDE\10.0.14393.0\UCRT\MATH.H
C:\PROGRAM FILES (X86)\MICROSOFT VISUAL STUDIO\2017\COMMUNITY\VC\TOOLS\MSVC\14.10.25017\INCLUDE\VCRUNTIME_STARTUP.H
C:\USERS\GEANA\DOCUMENTS\VISUAL STUDIO 2017\PROJECTS\FTW\FOUR-THE-WORLD1\LIBS\SDL2-2.0.9\INCLUDE\SDL_RWOPS.H
C:\USERS\GEANA\DOCUMENTS\VISUAL STUDIO 2017\PROJECTS\FTW\FOUR-THE-WORLD1\LIBS\SDL2-2.0.9\INCLUDE\SDL_CLIPBOARD.H
C:\USERS\GEANA\DOCUMENTS\VISUAL STUDIO 2017\PROJECTS\FTW\FOUR-THE-WORLD1\LIBS\SDL2-2.0.9\INCLUDE\SDL_CPUINFO.H
C:\PROGRAM FILES (X86)\MICROSOFT VISUAL STUDIO\2017\COMMUNITY\VC\TOOLS\MSVC\14.10.25017\INCLUDE\INTRIN.H
C:\PROGRAM FILES (X86)\MICROSOFT VISUAL STUDIO\2017\COMMUNITY\VC\TOOLS\MSVC\14.10.25017\INCLUDE\INTRIN0.H
C:\PROGRAM FILES (X86)\MICROSOFT VISUAL STUDIO\2017\COMMUNITY\VC\TOOLS\MSVC\14.10.25017\INCLUDE\SETJMP.H
C:\PROGRAM FILES (X86)\MICROSOFT VISUAL STUDIO\2017\COMMUNITY\VC\TOOLS\MSVC\14.10.25017\INCLUDE\IMMINTRIN.H
C:\PROGRAM FILES (X86)\MICROSOFT VISUAL STUDIO\2017\COMMUNITY\VC\TOOLS\MSVC\14.10.25017\INCLUDE\WMMINTRIN.H
C:\PROGRAM FILES (X86)\MICROSOFT VISUAL STUDIO\2017\COMMUNITY\VC\TOOLS\MSVC\14.10.25017\INCLUDE\NMMINTRIN.H
C:\PROGRAM FILES (X86)\MICROSOFT VISUAL STUDIO\2017\COMMUNITY\VC\TOOLS\MSVC\14.10.25017\INCLUDE\SMMINTRIN.H
C:\PROGRAM FILES (X86)\MICROSOFT VISUAL STUDIO\2017\COMMUNITY\VC\TOOLS\MSVC\14.10.25017\INCLUDE\TMMINTRIN.H
C:\PROGRAM FILES (X86)\MICROSOFT VISUAL STUDIO\2017\COMMUNITY\VC\TOOLS\MSVC\14.10.25017\INCLUDE\PMMINTRIN.H
C:\PROGRAM FILES (X86)\MICROSOFT VISUAL STUDIO\2017\COMMUNITY\VC\TOOLS\MSVC\14.10.25017\INCLUDE\EMMINTRIN.H
C:\PROGRAM FILES (X86)\MICROSOFT VISUAL STUDIO\2017\COMMUNITY\VC\TOOLS\MSVC\14.10.25017\INCLUDE\XMMINTRIN.H
C:\PROGRAM FILES (X86)\MICROSOFT VISUAL STUDIO\2017\COMMUNITY\VC\TOOLS\MSVC\14.10.25017\INCLUDE\MMINTRIN.H
C:\PROGRAM FILES (X86)\WINDOWS KITS\10\INCLUDE\10.0.14393.0\UCRT\MALLOC.H
C:\PROGRAM FILES (X86)\WINDOWS KITS\10\INCLUDE\10.0.14393.0\UCRT\CORECRT_MALLOC.H
C:\PROGRAM FILES (X86)\MICROSOFT VISUAL STUDIO\2017\COMMUNITY\VC\TOOLS\MSVC\14.10.25017\INCLUDE\ZMMINTRIN.H
C:\PROGRAM FILES (X86)\MICROSOFT VISUAL STUDIO\2017\COMMUNITY\VC\TOOLS\MSVC\14.10.25017\INCLUDE\AMMINTRIN.H
C:\PROGRAM FILES (X86)\MICROSOFT VISUAL STUDIO\2017\COMMUNITY\VC\TOOLS\MSVC\14.10.25017\INCLUDE\MM3DNOW.H
C:\USERS\GEANA\DOCUMENTS\VISUAL STUDIO 2017\PROJECTS\FTW\FOUR-THE-WORLD1\LIBS\SDL2-2.0.9\INCLUDE\SDL_EVENTS.H
C:\USERS\GEANA\DOCUMENTS\VISUAL STUDIO 2017\PROJECTS\FTW\FOUR-THE-WORLD1\LIBS\SDL2-2.0.9\INCLUDE\SDL_VIDEO.H
C:\USERS\GEANA\DOCUMENTS\VISUAL STUDIO 2017\PROJECTS\FTW\FOUR-THE-WORLD1\LIBS\SDL2-2.0.9\INCLUDE\SDL_PIXELS.H
C:\USERS\GEANA\DOCUMENTS\VISUAL STUDIO 2017\PROJECTS\FTW\FOUR-THE-WORLD1\LIBS\SDL2-2.0.9\INCLUDE\SDL_RECT.H
C:\USERS\GEANA\DOCUMENTS\VISUAL STUDIO 2017\PROJECTS\FTW\FOUR-THE-WORLD1\LIBS\SDL2-2.0.9\INCLUDE\SDL_SURFACE.H
C:\USERS\GEANA\DOCUMENTS\VISUAL STUDIO 2017\PROJECTS\FTW\FOUR-THE-WORLD1\LIBS\SDL2-2.0.9\INCLUDE\SDL_BLENDMODE.H
C:\USERS\GEANA\DOCUMENTS\VISUAL STUDIO 2017\PROJECTS\FTW\FOUR-THE-WORLD1\LIBS\SDL2-2.0.9\INCLUDE\SDL_KEYBOARD.H
C:\USERS\GEANA\DOCUMENTS\VISUAL STUDIO 2017\PROJECTS\FTW\FOUR-THE-WORLD1\LIBS\SDL2-2.0.9\INCLUDE\SDL_KEYCODE.H
C:\USERS\GEANA\DOCUMENTS\VISUAL STUDIO 2017\PROJECTS\FTW\FOUR-THE-WORLD1\LIBS\SDL2-2.0.9\INCLUDE\SDL_SCANCODE.H
C:\USERS\GEANA\DOCUMENTS\VISUAL STUDIO 2017\PROJECTS\FTW\FOUR-THE-WORLD1\LIBS\SDL2-2.0.9\INCLUDE\SDL_MOUSE.H
C:\USERS\GEANA\DOCUMENTS\VISUAL STUDIO 2017\PROJECTS\FTW\FOUR-THE-WORLD1\LIBS\SDL2-2.0.9\INCLUDE\SDL_JOYSTICK.H
C:\USERS\GEANA\DOCUMENTS\VISUAL STUDIO 2017\PROJECTS\FTW\FOUR-THE-WORLD1\LIBS\SDL2-2.0.9\INCLUDE\SDL_GAMECONTROLLER.H
C:\USERS\GEANA\DOCUMENTS\VISUAL STUDIO 2017\PROJECTS\FTW\FOUR-THE-WORLD1\LIBS\SDL2-2.0.9\INCLUDE\SDL_QUIT.H
C:\USERS\GEANA\DOCUMENTS\VISUAL STUDIO 2017\PROJECTS\FTW\FOUR-THE-WORLD1\LIBS\SDL2-2.0.9\INCLUDE\SDL_GESTURE.H
C:\USERS\GEANA\DOCUMENTS\VISUAL STUDIO 2017\PROJECTS\FTW\FOUR-THE-WORLD1\LIBS\SDL2-2.0.9\INCLUDE\SDL_TOUCH.H
C:\USERS\GEANA\DOCUMENTS\VISUAL STUDIO 2017\PROJECTS\FTW\FOUR-THE-WORLD1\LIBS\SDL2-2.0.9\INCLUDE\SDL_FILESYSTEM.H
C:\USERS\GEANA\DOCUMENTS\VISUAL STUDIO 2017\PROJECTS\FTW\FOUR-THE-WORLD1\LIBS\SDL2-2.0.9\INCLUDE\SDL_HAPTIC.H
C:\USERS\GEANA\DOCUMENTS\VISUAL STUDIO 2017\PROJECTS\FTW\FOUR-THE-WORLD1\LIBS\SDL2-2.0.9\INCLUDE\SDL_HINTS.H
C:\USERS\GEANA\DOCUMENTS\VISUAL STUDIO 2017\PROJECTS\FTW\FOUR-THE-WORLD1\LIBS\SDL2-2.0.9\INCLUDE\SDL_LOADSO.H
C:\USERS\GEANA\DOCUMENTS\VISUAL STUDIO 2017\PROJECTS\FTW\FOUR-THE-WORLD1\LIBS\SDL2-2.0.9\INCLUDE\SDL_LOG.H
C:\USERS\GEANA\DOCUMENTS\VISUAL STUDIO 2017\PROJECTS\FTW\FOUR-THE-WORLD1\LIBS\SDL2-2.0.9\INCLUDE\SDL_MESSAGEBOX.H
C:\USERS\GEANA\DOCUMENTS\VISUAL STUDIO 2017\PROJECTS\FTW\FOUR-THE-WORLD1\LIBS\SDL2-2.0.9\INCLUDE\SDL_POWER.H
C:\USERS\GEANA\DOCUMENTS\VISUAL STUDIO 2017\PROJECTS\FTW\FOUR-THE-WORLD1\LIBS\SDL2-2.0.9\INCLUDE\SDL_RENDER.H
C:\USERS\GEANA\DOCUMENTS\VISUAL STUDIO 2017\PROJECTS\FTW\FOUR-THE-WORLD1\LIBS\SDL2-2.0.9\INCLUDE\SDL_SENSOR.H
C:\USERS\GEANA\DOCUMENTS\VISUAL STUDIO 2017\PROJECTS\FTW\FOUR-THE-WORLD1\LIBS\SDL2-2.0.9\INCLUDE\SDL_SHAPE.H
C:\USERS\GEANA\DOCUMENTS\VISUAL STUDIO 2017\PROJECTS\FTW\FOUR-THE-WORLD1\LIBS\SDL2-2.0.9\INCLUDE\SDL_SYSTEM.H
C:\USERS\GEANA\DOCUMENTS\VISUAL STUDIO 2017\PROJECTS\FTW\FOUR-THE-WORLD1\LIBS\SDL2-2.0.9\INCLUDE\SDL_TIMER.H
C:\USERS\GEANA\DOCUMENTS\VISUAL STUDIO 2017\PROJECTS\FTW\FOUR-THE-WORLD1\LIBS\SDL2-2.0.9\INCLUDE\SDL_VERSION.H
C:\USERS\GEANA\DOCUMENTS\VISUAL STUDIO 2017\PROJECTS\FTW\FOUR-THE-WORLD1\LIBS\SDL2_IMAGE-2.0.4\INCLUDE\SDL_IMAGE.H
C:\USERS\GEANA\DOCUMENTS\VISUAL STUDIO 2017\PROJECTS\FTW\FOUR-THE-WORLD1\FTW\SPRITE.H
^C:\USERS\GEANA\DOCUMENTS\VISUAL STUDIO 2017\PROJECTS\FTW\FOUR-THE-WORLD1\FTW\PROJECTILETYPE.CPP
C:\USERS\GEANA\DOCUMENTS\VISUAL STUDIO 2017\PROJECTS\FTW\FOUR-THE-WORLD1\FTW\STDAFX.H
C:\USERS\GEANA\DOCUMENTS\VISUAL STUDIO 2017\PROJECTS\FTW\FOUR-THE-WORLD1\FTW\TARGETVER.H
C:\PROGRAM FILES (X86)\WINDOWS KITS\10\INCLUDE\10.0.14393.0\SHARED\SDKDDKVER.H
C:\PROGRAM FILES (X86)\WINDOWS KITS\10\INCLUDE\10.0.14393.0\UCRT\STDIO.H
C:\PROGRAM FILES (X86)\WINDOWS KITS\10\INCLUDE\10.0.14393.0\UCRT\CORECRT.H
C:\PROGRAM FILES (X86)\MICROSOFT VISUAL STUDIO\2017\COMMUNITY\VC\TOOLS\MSVC\14.10.25017\INCLUDE\VCRUNTIME.H
C:\PROGRAM FILES (X86)\MICROSOFT VISUAL STUDIO\2017\COMMUNITY\VC\TOOLS\MSVC\14.10.25017\INCLUDE\SAL.H
C:\PROGRAM FILES (X86)\MICROSOFT VISUAL STUDIO\2017\COMMUNITY\VC\TOOLS\MSVC\14.10.25017\INCLUDE\CONCURRENCYSAL.H
C:\PROGRAM FILES (X86)\MICROSOFT VISUAL STUDIO\2017\COMMUNITY\VC\TOOLS\MSVC\14.10.25017\INCLUDE\VADEFS.H
C:\PROGRAM FILES (X86)\WINDOWS KITS\10\INCLUDE\10.0.14393.0\UCRT\CORECRT_WSTDIO.H
C:\PROGRAM FILES (X86)\WINDOWS KITS\10\INCLUDE\10.0.14393.0\UCRT\CORECRT_STDIO_CONFIG.H
C:\PROGRAM FILES (X86)\WINDOWS KITS\10\INCLUDE\10.0.14393.0\UCRT\TCHAR.H
C:\PROGRAM FILES (X86)\WINDOWS KITS\10\INCLUDE\10.0.14393.0\UCRT\WCHAR.H
C:\PROGRAM FILES (X86)\WINDOWS KITS\10\INCLUDE\10.0.14393.0\UCRT\CORECRT_MEMCPY_S.H
C:\PROGRAM FILES (X86)\WINDOWS KITS\10\INCLUDE\10.0.14393.0\UCRT\ERRNO.H
C:\PROGRAM FILES (X86)\MICROSOFT VISUAL STUDIO\2017\COMMUNITY\VC\TOOLS\MSVC\14.10.25017\INCLUDE\VCRUNTIME_STRING.H
C:\PROGRAM FILES (X86)\WINDOWS KITS\10\INCLUDE\10.0.14393.0\UCRT\CORECRT_WCONIO.H
C:\PROGRAM FILES (X86)\WINDOWS KITS\10\INCLUDE\10.0.14393.0\UCRT\CORECRT_WCTYPE.H
C:\PROGRAM FILES (X86)\WINDOWS KITS\10\INCLUDE\10.0.14393.0\UCRT\CORECRT_WDIRECT.H
C:\PROGRAM FILES (X86)\WINDOWS KITS\10\INCLUDE\10.0.14393.0\UCRT\CORECRT_WIO.H
C:\PROGRAM FILES (X86)\WINDOWS KITS\10\INCLUDE\10.0.14393.0\UCRT\CORECRT_SHARE.H
C:\PROGRAM FILES (X86)\WINDOWS KITS\10\INCLUDE\10.0.14393.0\UCRT\CORECRT_WPROCESS.H
C:\PROGRAM FILES (X86)\WINDOWS KITS\10\INCLUDE\10.0.14393.0\UCRT\CORECRT_WSTDLIB.H
C:\PROGRAM FILES (X86)\WINDOWS KITS\10\INCLUDE\10.0.14393.0\UCRT\CORECRT_WSTRING.H
C:\PROGRAM FILES (X86)\WINDOWS KITS\10\INCLUDE\10.0.14393.0\UCRT\CORECRT_WTIME.H
C:\PROGRAM FILES (X86)\WINDOWS KITS\10\INCLUDE\10.0.14393.0\UCRT\SYS\STAT.H
C:\PROGRAM FILES (X86)\WINDOWS KITS\10\INCLUDE\10.0.14393.0\UCRT\SYS\TYPES.H
C:\USERS\GEANA\DOCUMENTS\VISUAL STUDIO 2017\PROJECTS\FTW\FOUR-THE-WORLD1\LIBS\SDL2-2.0.9\INCLUDE\SDL.H
C:\USERS\GEANA\DOCUMENTS\VISUAL STUDIO 2017\PROJECTS\FTW\FOUR-THE-WORLD1\LIBS\SDL2-2.0.9\INCLUDE\SDL_MAIN.H
C:\USERS\GEANA\DOCUMENTS\VISUAL STUDIO 2017\PROJECTS\FTW\FOUR-THE-WORLD1\LIBS\SDL2-2.0.9\INCLUDE\SDL_STDINC.H
C:\USERS\GEANA\DOCUMENTS\VISUAL STUDIO 2017\PROJECTS\FTW\FOUR-THE-WORLD1\LIBS\SDL2-2.0.9\INCLUDE\SDL_CONFIG.H
C:\USERS\GEANA\DOCUMENTS\VISUAL STUDIO 2017\PROJECTS\FTW\FOUR-THE-WORLD1\LIBS\SDL2-2.0.9\INCLUDE\SDL_PLATFORM.H
C:\PROGRAM FILES (X86)\WINDOWS KITS\10\INCLUDE\10.0.14393.0\SHARED\WINAPIFAMILY.H
C:\PROGRAM FILES (X86)\WINDOWS KITS\10\INCLUDE\10.0.14393.0\SHARED\WINPACKAGEFAMILY.H
C:\USERS\GEANA\DOCUMENTS\VISUAL STUDIO 2017\PROJECTS\FTW\FOUR-THE-WORLD1\LIBS\SDL2-2.0.9\INCLUDE\BEGIN_CODE.H
C:\USERS\GEANA\DOCUMENTS\VISUAL STUDIO 2017\PROJECTS\FTW\FOUR-THE-WORLD1\LIBS\SDL2-2.0.9\INCLUDE\CLOSE_CODE.H
C:\PROGRAM FILES (X86)\WINDOWS KITS\10\INCLUDE\10.0.14393.0\UCRT\STDDEF.H
C:\PROGRAM FILES (X86)\MICROSOFT VISUAL STUDIO\2017\COMMUNITY\VC\TOOLS\MSVC\14.10.25017\INCLUDE\STDARG.H
C:\USERS\GEANA\DOCUMENTS\VISUAL STUDIO 2017\PROJECTS\FTW\FOUR-THE-WORLD1\LIBS\SDL2-2.0.9\INCLUDE\SDL_ASSERT.H
C:\USERS\GEANA\DOCUMENTS\VISUAL STUDIO 2017\PROJECTS\FTW\FOUR-THE-WORLD1\LIBS\SDL2-2.0.9\INCLUDE\SDL_ATOMIC.H
C:\USERS\GEANA\DOCUMENTS\VISUAL STUDIO 2017\PROJECTS\FTW\FOUR-THE-WORLD1\LIBS\SDL2-2.0.9\INCLUDE\SDL_AUDIO.H
C:\USERS\GEANA\DOCUMENTS\VISUAL STUDIO 2017\PROJECTS\FTW\FOUR-THE-WORLD1\LIBS\SDL2-2.0.9\INCLUDE\SDL_ERROR.H
C:\USERS\GEANA\DOCUMENTS\VISUAL STUDIO 2017\PROJECTS\FTW\FOUR-THE-WORLD1\LIBS\SDL2-2.0.9\INCLUDE\SDL_ENDIAN.H
C:\USERS\GEANA\DOCUMENTS\VISUAL STUDIO 2017\PROJECTS\FTW\FOUR-THE-WORLD1\LIBS\SDL2-2.0.9\INCLUDE\SDL_MUTEX.H
C:\USERS\GEANA\DOCUMENTS\VISUAL STUDIO 2017\PROJECTS\FTW\FOUR-THE-WORLD1\LIBS\SDL2-2.0.9\INCLUDE\SDL_THREAD.H
C:\PROGRAM FILES (X86)\WINDOWS KITS\10\INCLUDE\10.0.14393.0\UCRT\PROCESS.H
C:\PROGRAM FILES (X86)\WINDOWS KITS\10\INCLUDE\10.0.14393.0\UCRT\CORECRT_STARTUP.H
C:\PROGRAM FILES (X86)\WINDOWS KITS\10\INCLUDE\10.0.14393.0\UCRT\MATH.H
C:\PROGRAM FILES (X86)\MICROSOFT VISUAL STUDIO\2017\COMMUNITY\VC\TOOLS\MSVC\14.10.25017\INCLUDE\VCRUNTIME_STARTUP.H
C:\USERS\GEANA\DOCUMENTS\VISUAL STUDIO 2017\PROJECTS\FTW\FOUR-THE-WORLD1\LIBS\SDL2-2.0.9\INCLUDE\SDL_RWOPS.H
C:\USERS\GEANA\DOCUMENTS\VISUAL STUDIO 2017\PROJECTS\FTW\FOUR-THE-WORLD1\LIBS\SDL2-2.0.9\INCLUDE\SDL_CLIPBOARD.H
C:\USERS\GEANA\DOCUMENTS\VISUAL STUDIO 2017\PROJECTS\FTW\FOUR-THE-WORLD1\LIBS\SDL2-2.0.9\INCLUDE\SDL_CPUINFO.H
C:\PROGRAM FILES (X86)\MICROSOFT VISUAL STUDIO\2017\COMMUNITY\VC\TOOLS\MSVC\14.10.25017\INCLUDE\INTRIN.H
C:\PROGRAM FILES (X86)\MICROSOFT VISUAL STUDIO\2017\COMMUNITY\VC\TOOLS\MSVC\14.10.25017\INCLUDE\INTRIN0.H
C:\PROGRAM FILES (X86)\MICROSOFT VISUAL STUDIO\2017\COMMUNITY\VC\TOOLS\MSVC\14.10.25017\INCLUDE\SETJMP.H
C:\PROGRAM FILES (X86)\MICROSOFT VISUAL STUDIO\2017\COMMUNITY\VC\TOOLS\MSVC\14.10.25017\INCLUDE\IMMINTRIN.H
C:\PROGRAM FILES (X86)\MICROSOFT VISUAL STUDIO\2017\COMMUNITY\VC\TOOLS\MSVC\14.10.25017\INCLUDE\WMMINTRIN.H
C:\PROGRAM FILES (X86)\MICROSOFT VISUAL STUDIO\2017\COMMUNITY\VC\TOOLS\MSVC\14.10.25017\INCLUDE\NMMINTRIN.H
C:\PROGRAM FILES (X86)\MICROSOFT VISUAL STUDIO\2017\COMMUNITY\VC\TOOLS\MSVC\14.10.25017\INCLUDE\SMMINTRIN.H
C:\PROGRAM FILES (X86)\MICROSOFT VISUAL STUDIO\2017\COMMUNITY\VC\TOOLS\MSVC\14.10.25017\INCLUDE\TMMINTRIN.H
C:\PROGRAM FILES (X86)\MICROSOFT VISUAL STUDIO\2017\COMMUNITY\VC\TOOLS\MSVC\14.10.25017\INCLUDE\PMMINTRIN.H
C:\PROGRAM FILES (X86)\MICROSOFT VISUAL STUDIO\2017\COMMUNITY\VC\TOOLS\MSVC\14.10.25017\INCLUDE\EMMINTRIN.H
C:\PROGRAM FILES (X86)\MICROSOFT VISUAL STUDIO\2017\COMMUNITY\VC\TOOLS\MSVC\14.10.25017\INCLUDE\XMMINTRIN.H
C:\PROGRAM FILES (X86)\MICROSOFT VISUAL STUDIO\2017\COMMUNITY\VC\TOOLS\MSVC\14.10.25017\INCLUDE\MMINTRIN.H
C:\PROGRAM FILES (X86)\WINDOWS KITS\10\INCLUDE\10.0.14393.0\UCRT\MALLOC.H
C:\PROGRAM FILES (X86)\WINDOWS KITS\10\INCLUDE\10.0.14393.0\UCRT\CORECRT_MALLOC.H
C:\PROGRAM FILES (X86)\MICROSOFT VISUAL STUDIO\2017\COMMUNITY\VC\TOOLS\MSVC\14.10.25017\INCLUDE\ZMMINTRIN.H
C:\PROGRAM FILES (X86)\MICROSOFT VISUAL STUDIO\2017\COMMUNITY\VC\TOOLS\MSVC\14.10.25017\INCLUDE\AMMINTRIN.H
C:\PROGRAM FILES (X86)\MICROSOFT VISUAL STUDIO\2017\COMMUNITY\VC\TOOLS\MSVC\14.10.25017\INCLUDE\MM3DNOW.H
C:\USERS\GEANA\DOCUMENTS\VISUAL STUDIO 2017\PROJECTS\FTW\FOUR-THE-WORLD1\LIBS\SDL2-2.0.9\INCLUDE\SDL_EVENTS.H
C:\USERS\GEANA\DOCUMENTS\VISUAL STUDIO 2017\PROJECTS\FTW\FOUR-THE-WORLD1\LIBS\SDL2-2.0.9\INCLUDE\SDL_VIDEO.H
C:\USERS\GEANA\DOCUMENTS\VISUAL STUDIO 2017\PROJECTS\FTW\FOUR-THE-WORLD1\LIBS\SDL2-2.0.9\INCLUDE\SDL_PIXELS.H
C:\USERS\GEANA\DOCUMENTS\VISUAL STUDIO 2017\PROJECTS\FTW\FOUR-THE-WORLD1\LIBS\SDL2-2.0.9\INCLUDE\SDL_RECT.H
C:\USERS\GEANA\DOCUMENTS\VISUAL STUDIO 2017\PROJECTS\FTW\FOUR-THE-WORLD1\LIBS\SDL2-2.0.9\INCLUDE\SDL_SURFACE.H
C:\USERS\GEANA\DOCUMENTS\VISUAL STUDIO 2017\PROJECTS\FTW\FOUR-THE-WORLD1\LIBS\SDL2-2.0.9\INCLUDE\SDL_BLENDMODE.H
C:\USERS\GEANA\DOCUMENTS\VISUAL STUDIO 2017\PROJECTS\FTW\FOUR-THE-WORLD1\LIBS\SDL2-2.0.9\INCLUDE\SDL_KEYBOARD.H
C:\USERS\GEANA\DOCUMENTS\VISUAL STUDIO 2017\PROJECTS\FTW\FOUR-THE-WORLD1\LIBS\SDL2-2.0.9\INCLUDE\SDL_KEYCODE.H
C:\USERS\GEANA\DOCUMENTS\VISUAL STUDIO 2017\PROJECTS\FTW\FOUR-THE-WORLD1\LIBS\SDL2-2.0.9\INCLUDE\SDL_SCANCODE.H
C:\USERS\GEANA\DOCUMENTS\VISUAL STUDIO 2017\PROJECTS\FTW\FOUR-THE-WORLD1\LIBS\SDL2-2.0.9\INCLUDE\SDL_MOUSE.H
C:\USERS\GEANA\DOCUMENTS\VISUAL STUDIO 2017\PROJECTS\FTW\FOUR-THE-WORLD1\LIBS\SDL2-2.0.9\INCLUDE\SDL_JOYSTICK.H
C:\USERS\GEANA\DOCUMENTS\VISUAL STUDIO 2017\PROJECTS\FTW\FOUR-THE-WORLD1\LIBS\SDL2-2.0.9\INCLUDE\SDL_GAMECONTROLLER.H
C:\USERS\GEANA\DOCUMENTS\VISUAL STUDIO 2017\PROJECTS\FTW\FOUR-THE-WORLD1\LIBS\SDL2-2.0.9\INCLUDE\SDL_QUIT.H
C:\USERS\GEANA\DOCUMENTS\VISUAL STUDIO 2017\PROJECTS\FTW\FOUR-THE-WORLD1\LIBS\SDL2-2.0.9\INCLUDE\SDL_GESTURE.H
C:\USERS\GEANA\DOCUMENTS\VISUAL STUDIO 2017\PROJECTS\FTW\FOUR-THE-WORLD1\LIBS\SDL2-2.0.9\INCLUDE\SDL_TOUCH.H
C:\USERS\GEANA\DOCUMENTS\VISUAL STUDIO 2017\PROJECTS\FTW\FOUR-THE-WORLD1\LIBS\SDL2-2.0.9\INCLUDE\SDL_FILESYSTEM.H
C:\USERS\GEANA\DOCUMENTS\VISUAL STUDIO 2017\PROJECTS\FTW\FOUR-THE-WORLD1\LIBS\SDL2-2.0.9\INCLUDE\SDL_HAPTIC.H
C:\USERS\GEANA\DOCUMENTS\VISUAL STUDIO 2017\PROJECTS\FTW\FOUR-THE-WORLD1\LIBS\SDL2-2.0.9\INCLUDE\SDL_HINTS.H
C:\USERS\GEANA\DOCUMENTS\VISUAL STUDIO 2017\PROJECTS\FTW\FOUR-THE-WORLD1\LIBS\SDL2-2.0.9\INCLUDE\SDL_LOADSO.H
C:\USERS\GEANA\DOCUMENTS\VISUAL STUDIO 2017\PROJECTS\FTW\FOUR-THE-WORLD1\LIBS\SDL2-2.0.9\INCLUDE\SDL_LOG.H
C:\USERS\GEANA\DOCUMENTS\VISUAL STUDIO 2017\PROJECTS\FTW\FOUR-THE-WORLD1\LIBS\SDL2-2.0.9\INCLUDE\SDL_MESSAGEBOX.H
C:\USERS\GEANA\DOCUMENTS\VISUAL STUDIO 2017\PROJECTS\FTW\FOUR-THE-WORLD1\LIBS\SDL2-2.0.9\INCLUDE\SDL_POWER.H
C:\USERS\GEANA\DOCUMENTS\VISUAL STUDIO 2017\PROJECTS\FTW\FOUR-THE-WORLD1\LIBS\SDL2-2.0.9\INCLUDE\SDL_RENDER.H
C:\USERS\GEANA\DOCUMENTS\VISUAL STUDIO 2017\PROJECTS\FTW\FOUR-THE-WORLD1\LIBS\SDL2-2.0.9\INCLUDE\SDL_SENSOR.H
C:\USERS\GEANA\DOCUMENTS\VISUAL STUDIO 2017\PROJECTS\FTW\FOUR-THE-WORLD1\LIBS\SDL2-2.0.9\INCLUDE\SDL_SHAPE.H
C:\USERS\GEANA\DOCUMENTS\VISUAL STUDIO 2017\PROJECTS\FTW\FOUR-THE-WORLD1\LIBS\SDL2-2.0.9\INCLUDE\SDL_SYSTEM.H
C:\USERS\GEANA\DOCUMENTS\VISUAL STUDIO 2017\PROJECTS\FTW\FOUR-THE-WORLD1\LIBS\SDL2-2.0.9\INCLUDE\SDL_TIMER.H
C:\USERS\GEANA\DOCUMENTS\VISUAL STUDIO 2017\PROJECTS\FTW\FOUR-THE-WORLD1\LIBS\SDL2-2.0.9\INCLUDE\SDL_VERSION.H
C:\USERS\GEANA\DOCUMENTS\VISUAL STUDIO 2017\PROJECTS\FTW\FOUR-THE-WORLD1\LIBS\SDL2_IMAGE-2.0.4\INCLUDE\SDL_IMAGE.H
C:\USERS\GEANA\DOCUMENTS\VISUAL STUDIO 2017\PROJECTS\FTW\FOUR-THE-WORLD1\FTW\PROJECTILETYPE.H
C:\USERS\GEANA\DOCUMENTS\VISUAL STUDIO 2017\PROJECTS\FTW\FOUR-THE-WORLD1\FTW\SPRITE.H
C:\USERS\GEANA\DOCUMENTS\VISUAL STUDIO 2017\PROJECTS\FTW\FOUR-THE-WORLD1\FTW\AABB.H
C:\USERS\GEANA\DOCUMENTS\VISUAL STUDIO 2017\PROJECTS\FTW\FOUR-THE-WORLD1\FTW\FLOAT2.H
C:\USERS\GEANA\DOCUMENTS\VISUAL STUDIO 2017\PROJECTS\FTW\FOUR-THE-WORLD1\FTW\ENEMY.H
^C:\USERS\GEANA\DOCUMENTS\VISUAL STUDIO 2017\PROJECTS\FTW\FOUR-THE-WORLD1\FTW\PLAYER.CPP
C:\USERS\GEANA\DOCUMENTS\VISUAL STUDIO 2017\PROJECTS\FTW\FOUR-THE-WORLD1\FTW\STDAFX.H
C:\USERS\GEANA\DOCUMENTS\VISUAL STUDIO 2017\PROJECTS\FTW\FOUR-THE-WORLD1\FTW\TARGETVER.H
C:\PROGRAM FILES (X86)\WINDOWS KITS\10\INCLUDE\10.0.14393.0\SHARED\SDKDDKVER.H
C:\PROGRAM FILES (X86)\WINDOWS KITS\10\INCLUDE\10.0.14393.0\UCRT\STDIO.H
C:\PROGRAM FILES (X86)\WINDOWS KITS\10\INCLUDE\10.0.14393.0\UCRT\CORECRT.H
C:\PROGRAM FILES (X86)\MICROSOFT VISUAL STUDIO\2017\COMMUNITY\VC\TOOLS\MSVC\14.10.25017\INCLUDE\VCRUNTIME.H
C:\PROGRAM FILES (X86)\MICROSOFT VISUAL STUDIO\2017\COMMUNITY\VC\TOOLS\MSVC\14.10.25017\INCLUDE\SAL.H
C:\PROGRAM FILES (X86)\MICROSOFT VISUAL STUDIO\2017\COMMUNITY\VC\TOOLS\MSVC\14.10.25017\INCLUDE\CONCURRENCYSAL.H
C:\PROGRAM FILES (X86)\MICROSOFT VISUAL STUDIO\2017\COMMUNITY\VC\TOOLS\MSVC\14.10.25017\INCLUDE\VADEFS.H
C:\PROGRAM FILES (X86)\WINDOWS KITS\10\INCLUDE\10.0.14393.0\UCRT\CORECRT_WSTDIO.H
C:\PROGRAM FILES (X86)\WINDOWS KITS\10\INCLUDE\10.0.14393.0\UCRT\CORECRT_STDIO_CONFIG.H
C:\PROGRAM FILES (X86)\WINDOWS KITS\10\INCLUDE\10.0.14393.0\UCRT\TCHAR.H
C:\PROGRAM FILES (X86)\WINDOWS KITS\10\INCLUDE\10.0.14393.0\UCRT\WCHAR.H
C:\PROGRAM FILES (X86)\WINDOWS KITS\10\INCLUDE\10.0.14393.0\UCRT\CORECRT_MEMCPY_S.H
C:\PROGRAM FILES (X86)\WINDOWS KITS\10\INCLUDE\10.0.14393.0\UCRT\ERRNO.H
C:\PROGRAM FILES (X86)\MICROSOFT VISUAL STUDIO\2017\COMMUNITY\VC\TOOLS\MSVC\14.10.25017\INCLUDE\VCRUNTIME_STRING.H
C:\PROGRAM FILES (X86)\WINDOWS KITS\10\INCLUDE\10.0.14393.0\UCRT\CORECRT_WCONIO.H
C:\PROGRAM FILES (X86)\WINDOWS KITS\10\INCLUDE\10.0.14393.0\UCRT\CORECRT_WCTYPE.H
C:\PROGRAM FILES (X86)\WINDOWS KITS\10\INCLUDE\10.0.14393.0\UCRT\CORECRT_WDIRECT.H
C:\PROGRAM FILES (X86)\WINDOWS KITS\10\INCLUDE\10.0.14393.0\UCRT\CORECRT_WIO.H
C:\PROGRAM FILES (X86)\WINDOWS KITS\10\INCLUDE\10.0.14393.0\UCRT\CORECRT_SHARE.H
C:\PROGRAM FILES (X86)\WINDOWS KITS\10\INCLUDE\10.0.14393.0\UCRT\CORECRT_WPROCESS.H
C:\PROGRAM FILES (X86)\WINDOWS KITS\10\INCLUDE\10.0.14393.0\UCRT\CORECRT_WSTDLIB.H
C:\PROGRAM FILES (X86)\WINDOWS KITS\10\INCLUDE\10.0.14393.0\UCRT\CORECRT_WSTRING.H
C:\PROGRAM FILES (X86)\WINDOWS KITS\10\INCLUDE\10.0.14393.0\UCRT\CORECRT_WTIME.H
C:\PROGRAM FILES (X86)\WINDOWS KITS\10\INCLUDE\10.0.14393.0\UCRT\SYS\STAT.H
C:\PROGRAM FILES (X86)\WINDOWS KITS\10\INCLUDE\10.0.14393.0\UCRT\SYS\TYPES.H
C:\USERS\GEANA\DOCUMENTS\VISUAL STUDIO 2017\PROJECTS\FTW\FOUR-THE-WORLD1\LIBS\SDL2-2.0.9\INCLUDE\SDL.H
C:\USERS\GEANA\DOCUMENTS\VISUAL STUDIO 2017\PROJECTS\FTW\FOUR-THE-WORLD1\LIBS\SDL2-2.0.9\INCLUDE\SDL_MAIN.H
C:\USERS\GEANA\DOCUMENTS\VISUAL STUDIO 2017\PROJECTS\FTW\FOUR-THE-WORLD1\LIBS\SDL2-2.0.9\INCLUDE\SDL_STDINC.H
C:\USERS\GEANA\DOCUMENTS\VISUAL STUDIO 2017\PROJECTS\FTW\FOUR-THE-WORLD1\LIBS\SDL2-2.0.9\INCLUDE\SDL_CONFIG.H
C:\USERS\GEANA\DOCUMENTS\VISUAL STUDIO 2017\PROJECTS\FTW\FOUR-THE-WORLD1\LIBS\SDL2-2.0.9\INCLUDE\SDL_PLATFORM.H
C:\PROGRAM FILES (X86)\WINDOWS KITS\10\INCLUDE\10.0.14393.0\SHARED\WINAPIFAMILY.H
C:\PROGRAM FILES (X86)\WINDOWS KITS\10\INCLUDE\10.0.14393.0\SHARED\WINPACKAGEFAMILY.H
C:\USERS\GEANA\DOCUMENTS\VISUAL STUDIO 2017\PROJECTS\FTW\FOUR-THE-WORLD1\LIBS\SDL2-2.0.9\INCLUDE\BEGIN_CODE.H
C:\USERS\GEANA\DOCUMENTS\VISUAL STUDIO 2017\PROJECTS\FTW\FOUR-THE-WORLD1\LIBS\SDL2-2.0.9\INCLUDE\CLOSE_CODE.H
C:\PROGRAM FILES (X86)\WINDOWS KITS\10\INCLUDE\10.0.14393.0\UCRT\STDDEF.H
C:\PROGRAM FILES (X86)\MICROSOFT VISUAL STUDIO\2017\COMMUNITY\VC\TOOLS\MSVC\14.10.25017\INCLUDE\STDARG.H
C:\USERS\GEANA\DOCUMENTS\VISUAL STUDIO 2017\PROJECTS\FTW\FOUR-THE-WORLD1\LIBS\SDL2-2.0.9\INCLUDE\SDL_ASSERT.H
C:\USERS\GEANA\DOCUMENTS\VISUAL STUDIO 2017\PROJECTS\FTW\FOUR-THE-WORLD1\LIBS\SDL2-2.0.9\INCLUDE\SDL_ATOMIC.H
C:\USERS\GEANA\DOCUMENTS\VISUAL STUDIO 2017\PROJECTS\FTW\FOUR-THE-WORLD1\LIBS\SDL2-2.0.9\INCLUDE\SDL_AUDIO.H
C:\USERS\GEANA\DOCUMENTS\VISUAL STUDIO 2017\PROJECTS\FTW\FOUR-THE-WORLD1\LIBS\SDL2-2.0.9\INCLUDE\SDL_ERROR.H
C:\USERS\GEANA\DOCUMENTS\VISUAL STUDIO 2017\PROJECTS\FTW\FOUR-THE-WORLD1\LIBS\SDL2-2.0.9\INCLUDE\SDL_ENDIAN.H
C:\USERS\GEANA\DOCUMENTS\VISUAL STUDIO 2017\PROJECTS\FTW\FOUR-THE-WORLD1\LIBS\SDL2-2.0.9\INCLUDE\SDL_MUTEX.H
C:\USERS\GEANA\DOCUMENTS\VISUAL STUDIO 2017\PROJECTS\FTW\FOUR-THE-WORLD1\LIBS\SDL2-2.0.9\INCLUDE\SDL_THREAD.H
C:\PROGRAM FILES (X86)\WINDOWS KITS\10\INCLUDE\10.0.14393.0\UCRT\PROCESS.H
C:\PROGRAM FILES (X86)\WINDOWS KITS\10\INCLUDE\10.0.14393.0\UCRT\CORECRT_STARTUP.H
C:\PROGRAM FILES (X86)\WINDOWS KITS\10\INCLUDE\10.0.14393.0\UCRT\MATH.H
C:\PROGRAM FILES (X86)\MICROSOFT VISUAL STUDIO\2017\COMMUNITY\VC\TOOLS\MSVC\14.10.25017\INCLUDE\VCRUNTIME_STARTUP.H
C:\USERS\GEANA\DOCUMENTS\VISUAL STUDIO 2017\PROJECTS\FTW\FOUR-THE-WORLD1\LIBS\SDL2-2.0.9\INCLUDE\SDL_RWOPS.H
C:\USERS\GEANA\DOCUMENTS\VISUAL STUDIO 2017\PROJECTS\FTW\FOUR-THE-WORLD1\LIBS\SDL2-2.0.9\INCLUDE\SDL_CLIPBOARD.H
C:\USERS\GEANA\DOCUMENTS\VISUAL STUDIO 2017\PROJECTS\FTW\FOUR-THE-WORLD1\LIBS\SDL2-2.0.9\INCLUDE\SDL_CPUINFO.H
C:\PROGRAM FILES (X86)\MICROSOFT VISUAL STUDIO\2017\COMMUNITY\VC\TOOLS\MSVC\14.10.25017\INCLUDE\INTRIN.H
C:\PROGRAM FILES (X86)\MICROSOFT VISUAL STUDIO\2017\COMMUNITY\VC\TOOLS\MSVC\14.10.25017\INCLUDE\INTRIN0.H
C:\PROGRAM FILES (X86)\MICROSOFT VISUAL STUDIO\2017\COMMUNITY\VC\TOOLS\MSVC\14.10.25017\INCLUDE\SETJMP.H
C:\PROGRAM FILES (X86)\MICROSOFT VISUAL STUDIO\2017\COMMUNITY\VC\TOOLS\MSVC\14.10.25017\INCLUDE\IMMINTRIN.H
C:\PROGRAM FILES (X86)\MICROSOFT VISUAL STUDIO\2017\COMMUNITY\VC\TOOLS\MSVC\14.10.25017\INCLUDE\WMMINTRIN.H
C:\PROGRAM FILES (X86)\MICROSOFT VISUAL STUDIO\2017\COMMUNITY\VC\TOOLS\MSVC\14.10.25017\INCLUDE\NMMINTRIN.H
C:\PROGRAM FILES (X86)\MICROSOFT VISUAL STUDIO\2017\COMMUNITY\VC\TOOLS\MSVC\14.10.25017\INCLUDE\SMMINTRIN.H
C:\PROGRAM FILES (X86)\MICROSOFT VISUAL STUDIO\2017\COMMUNITY\VC\TOOLS\MSVC\14.10.25017\INCLUDE\TMMINTRIN.H
C:\PROGRAM FILES (X86)\MICROSOFT VISUAL STUDIO\2017\COMMUNITY\VC\TOOLS\MSVC\14.10.25017\INCLUDE\PMMINTRIN.H
C:\PROGRAM FILES (X86)\MICROSOFT VISUAL STUDIO\2017\COMMUNITY\VC\TOOLS\MSVC\14.10.25017\INCLUDE\EMMINTRIN.H
C:\PROGRAM FILES (X86)\MICROSOFT VISUAL STUDIO\2017\COMMUNITY\VC\TOOLS\MSVC\14.10.25017\INCLUDE\XMMINTRIN.H
C:\PROGRAM FILES (X86)\MICROSOFT VISUAL STUDIO\2017\COMMUNITY\VC\TOOLS\MSVC\14.10.25017\INCLUDE\MMINTRIN.H
C:\PROGRAM FILES (X86)\WINDOWS KITS\10\INCLUDE\10.0.14393.0\UCRT\MALLOC.H
C:\PROGRAM FILES (X86)\WINDOWS KITS\10\INCLUDE\10.0.14393.0\UCRT\CORECRT_MALLOC.H
C:\PROGRAM FILES (X86)\MICROSOFT VISUAL STUDIO\2017\COMMUNITY\VC\TOOLS\MSVC\14.10.25017\INCLUDE\ZMMINTRIN.H
C:\PROGRAM FILES (X86)\MICROSOFT VISUAL STUDIO\2017\COMMUNITY\VC\TOOLS\MSVC\14.10.25017\INCLUDE\AMMINTRIN.H
C:\PROGRAM FILES (X86)\MICROSOFT VISUAL STUDIO\2017\COMMUNITY\VC\TOOLS\MSVC\14.10.25017\INCLUDE\MM3DNOW.H
C:\USERS\GEANA\DOCUMENTS\VISUAL STUDIO 2017\PROJECTS\FTW\FOUR-THE-WORLD1\LIBS\SDL2-2.0.9\INCLUDE\SDL_EVENTS.H
C:\USERS\GEANA\DOCUMENTS\VISUAL STUDIO 2017\PROJECTS\FTW\FOUR-THE-WORLD1\LIBS\SDL2-2.0.9\INCLUDE\SDL_VIDEO.H
C:\USERS\GEANA\DOCUMENTS\VISUAL STUDIO 2017\PROJECTS\FTW\FOUR-THE-WORLD1\LIBS\SDL2-2.0.9\INCLUDE\SDL_PIXELS.H
C:\USERS\GEANA\DOCUMENTS\VISUAL STUDIO 2017\PROJECTS\FTW\FOUR-THE-WORLD1\LIBS\SDL2-2.0.9\INCLUDE\SDL_RECT.H
C:\USERS\GEANA\DOCUMENTS\VISUAL STUDIO 2017\PROJECTS\FTW\FOUR-THE-WORLD1\LIBS\SDL2-2.0.9\INCLUDE\SDL_SURFACE.H
C:\USERS\GEANA\DOCUMENTS\VISUAL STUDIO 2017\PROJECTS\FTW\FOUR-THE-WORLD1\LIBS\SDL2-2.0.9\INCLUDE\SDL_BLENDMODE.H
C:\USERS\GEANA\DOCUMENTS\VISUAL STUDIO 2017\PROJECTS\FTW\FOUR-THE-WORLD1\LIBS\SDL2-2.0.9\INCLUDE\SDL_KEYBOARD.H
C:\USERS\GEANA\DOCUMENTS\VISUAL STUDIO 2017\PROJECTS\FTW\FOUR-THE-WORLD1\LIBS\SDL2-2.0.9\INCLUDE\SDL_KEYCODE.H
C:\USERS\GEANA\DOCUMENTS\VISUAL STUDIO 2017\PROJECTS\FTW\FOUR-THE-WORLD1\LIBS\SDL2-2.0.9\INCLUDE\SDL_SCANCODE.H
C:\USERS\GEANA\DOCUMENTS\VISUAL STUDIO 2017\PROJECTS\FTW\FOUR-THE-WORLD1\LIBS\SDL2-2.0.9\INCLUDE\SDL_MOUSE.H
C:\USERS\GEANA\DOCUMENTS\VISUAL STUDIO 2017\PROJECTS\FTW\FOUR-THE-WORLD1\LIBS\SDL2-2.0.9\INCLUDE\SDL_JOYSTICK.H
C:\USERS\GEANA\DOCUMENTS\VISUAL STUDIO 2017\PROJECTS\FTW\FOUR-THE-WORLD1\LIBS\SDL2-2.0.9\INCLUDE\SDL_GAMECONTROLLER.H
C:\USERS\GEANA\DOCUMENTS\VISUAL STUDIO 2017\PROJECTS\FTW\FOUR-THE-WORLD1\LIBS\SDL2-2.0.9\INCLUDE\SDL_QUIT.H
C:\USERS\GEANA\DOCUMENTS\VISUAL STUDIO 2017\PROJECTS\FTW\FOUR-THE-WORLD1\LIBS\SDL2-2.0.9\INCLUDE\SDL_GESTURE.H
C:\USERS\GEANA\DOCUMENTS\VISUAL STUDIO 2017\PROJECTS\FTW\FOUR-THE-WORLD1\LIBS\SDL2-2.0.9\INCLUDE\SDL_TOUCH.H
C:\USERS\GEANA\DOCUMENTS\VISUAL STUDIO 2017\PROJECTS\FTW\FOUR-THE-WORLD1\LIBS\SDL2-2.0.9\INCLUDE\SDL_FILESYSTEM.H
C:\USERS\GEANA\DOCUMENTS\VISUAL STUDIO 2017\PROJECTS\FTW\FOUR-THE-WORLD1\LIBS\SDL2-2.0.9\INCLUDE\SDL_HAPTIC.H
C:\USERS\GEANA\DOCUMENTS\VISUAL STUDIO 2017\PROJECTS\FTW\FOUR-THE-WORLD1\LIBS\SDL2-2.0.9\INCLUDE\SDL_HINTS.H
C:\USERS\GEANA\DOCUMENTS\VISUAL STUDIO 2017\PROJECTS\FTW\FOUR-THE-WORLD1\LIBS\SDL2-2.0.9\INCLUDE\SDL_LOADSO.H
C:\USERS\GEANA\DOCUMENTS\VISUAL STUDIO 2017\PROJECTS\FTW\FOUR-THE-WORLD1\LIBS\SDL2-2.0.9\INCLUDE\SDL_LOG.H
C:\USERS\GEANA\DOCUMENTS\VISUAL STUDIO 2017\PROJECTS\FTW\FOUR-THE-WORLD1\LIBS\SDL2-2.0.9\INCLUDE\SDL_MESSAGEBOX.H
C:\USERS\GEANA\DOCUMENTS\VISUAL STUDIO 2017\PROJECTS\FTW\FOUR-THE-WORLD1\LIBS\SDL2-2.0.9\INCLUDE\SDL_POWER.H
C:\USERS\GEANA\DOCUMENTS\VISUAL STUDIO 2017\PROJECTS\FTW\FOUR-THE-WORLD1\LIBS\SDL2-2.0.9\INCLUDE\SDL_RENDER.H
C:\USERS\GEANA\DOCUMENTS\VISUAL STUDIO 2017\PROJECTS\FTW\FOUR-THE-WORLD1\LIBS\SDL2-2.0.9\INCLUDE\SDL_SENSOR.H
C:\USERS\GEANA\DOCUMENTS\VISUAL STUDIO 2017\PROJECTS\FTW\FOUR-THE-WORLD1\LIBS\SDL2-2.0.9\INCLUDE\SDL_SHAPE.H
C:\USERS\GEANA\DOCUMENTS\VISUAL STUDIO 2017\PROJECTS\FTW\FOUR-THE-WORLD1\LIBS\SDL2-2.0.9\INCLUDE\SDL_SYSTEM.H
C:\USERS\GEANA\DOCUMENTS\VISUAL STUDIO 2017\PROJECTS\FTW\FOUR-THE-WORLD1\LIBS\SDL2-2.0.9\INCLUDE\SDL_TIMER.H
C:\USERS\GEANA\DOCUMENTS\VISUAL STUDIO 2017\PROJECTS\FTW\FOUR-THE-WORLD1\LIBS\SDL2-2.0.9\INCLUDE\SDL_VERSION.H
C:\USERS\GEANA\DOCUMENTS\VISUAL STUDIO 2017\PROJECTS\FTW\FOUR-THE-WORLD1\LIBS\SDL2_IMAGE-2.0.4\INCLUDE\SDL_IMAGE.H
C:\USERS\GEANA\DOCUMENTS\VISUAL STUDIO 2017\PROJECTS\FTW\FOUR-THE-WORLD1\FTW\PLAYER.H
C:\USERS\GEANA\DOCUMENTS\VISUAL STUDIO 2017\PROJECTS\FTW\FOUR-THE-WORLD1\FTW\SPRITE.H
C:\USERS\GEANA\DOCUMENTS\VISUAL STUDIO 2017\PROJECTS\FTW\FOUR-THE-WORLD1\FTW\FLOAT2.H
C:\USERS\GEANA\DOCUMENTS\VISUAL STUDIO 2017\PROJECTS\FTW\FOUR-THE-WORLD1\FTW\AABB.H
^C:\USERS\GEANA\DOCUMENTS\VISUAL STUDIO 2017\PROJECTS\FTW\FOUR-THE-WORLD1\FTW\MAIN.CPP
C:\USERS\GEANA\DOCUMENTS\VISUAL STUDIO 2017\PROJECTS\FTW\FOUR-THE-WORLD1\FTW\STDAFX.H
C:\USERS\GEANA\DOCUMENTS\VISUAL STUDIO 2017\PROJECTS\FTW\FOUR-THE-WORLD1\FTW\TARGETVER.H
C:\PROGRAM FILES (X86)\WINDOWS KITS\10\INCLUDE\10.0.14393.0\SHARED\SDKDDKVER.H
C:\PROGRAM FILES (X86)\WINDOWS KITS\10\INCLUDE\10.0.14393.0\UCRT\STDIO.H
C:\PROGRAM FILES (X86)\WINDOWS KITS\10\INCLUDE\10.0.14393.0\UCRT\CORECRT.H
C:\PROGRAM FILES (X86)\MICROSOFT VISUAL STUDIO\2017\COMMUNITY\VC\TOOLS\MSVC\14.10.25017\INCLUDE\VCRUNTIME.H
C:\PROGRAM FILES (X86)\MICROSOFT VISUAL STUDIO\2017\COMMUNITY\VC\TOOLS\MSVC\14.10.25017\INCLUDE\SAL.H
C:\PROGRAM FILES (X86)\MICROSOFT VISUAL STUDIO\2017\COMMUNITY\VC\TOOLS\MSVC\14.10.25017\INCLUDE\CONCURRENCYSAL.H
C:\PROGRAM FILES (X86)\MICROSOFT VISUAL STUDIO\2017\COMMUNITY\VC\TOOLS\MSVC\14.10.25017\INCLUDE\VADEFS.H
C:\PROGRAM FILES (X86)\WINDOWS KITS\10\INCLUDE\10.0.14393.0\UCRT\CORECRT_WSTDIO.H
C:\PROGRAM FILES (X86)\WINDOWS KITS\10\INCLUDE\10.0.14393.0\UCRT\CORECRT_STDIO_CONFIG.H
C:\PROGRAM FILES (X86)\WINDOWS KITS\10\INCLUDE\10.0.14393.0\UCRT\TCHAR.H
C:\PROGRAM FILES (X86)\WINDOWS KITS\10\INCLUDE\10.0.14393.0\UCRT\WCHAR.H
C:\PROGRAM FILES (X86)\WINDOWS KITS\10\INCLUDE\10.0.14393.0\UCRT\CORECRT_MEMCPY_S.H
C:\PROGRAM FILES (X86)\WINDOWS KITS\10\INCLUDE\10.0.14393.0\UCRT\ERRNO.H
C:\PROGRAM FILES (X86)\MICROSOFT VISUAL STUDIO\2017\COMMUNITY\VC\TOOLS\MSVC\14.10.25017\INCLUDE\VCRUNTIME_STRING.H
C:\PROGRAM FILES (X86)\WINDOWS KITS\10\INCLUDE\10.0.14393.0\UCRT\CORECRT_WCONIO.H
C:\PROGRAM FILES (X86)\WINDOWS KITS\10\INCLUDE\10.0.14393.0\UCRT\CORECRT_WCTYPE.H
C:\PROGRAM FILES (X86)\WINDOWS KITS\10\INCLUDE\10.0.14393.0\UCRT\CORECRT_WDIRECT.H
C:\PROGRAM FILES (X86)\WINDOWS KITS\10\INCLUDE\10.0.14393.0\UCRT\CORECRT_WIO.H
C:\PROGRAM FILES (X86)\WINDOWS KITS\10\INCLUDE\10.0.14393.0\UCRT\CORECRT_SHARE.H
C:\PROGRAM FILES (X86)\WINDOWS KITS\10\INCLUDE\10.0.14393.0\UCRT\CORECRT_WPROCESS.H
C:\PROGRAM FILES (X86)\WINDOWS KITS\10\INCLUDE\10.0.14393.0\UCRT\CORECRT_WSTDLIB.H
C:\PROGRAM FILES (X86)\WINDOWS KITS\10\INCLUDE\10.0.14393.0\UCRT\CORECRT_WSTRING.H
C:\PROGRAM FILES (X86)\WINDOWS KITS\10\INCLUDE\10.0.14393.0\UCRT\CORECRT_WTIME.H
C:\PROGRAM FILES (X86)\WINDOWS KITS\10\INCLUDE\10.0.14393.0\UCRT\SYS\STAT.H
C:\PROGRAM FILES (X86)\WINDOWS KITS\10\INCLUDE\10.0.14393.0\UCRT\SYS\TYPES.H
C:\USERS\GEANA\DOCUMENTS\VISUAL STUDIO 2017\PROJECTS\FTW\FOUR-THE-WORLD1\LIBS\SDL2-2.0.9\INCLUDE\SDL.H
C:\USERS\GEANA\DOCUMENTS\VISUAL STUDIO 2017\PROJECTS\FTW\FOUR-THE-WORLD1\LIBS\SDL2-2.0.9\INCLUDE\SDL_MAIN.H
C:\USERS\GEANA\DOCUMENTS\VISUAL STUDIO 2017\PROJECTS\FTW\FOUR-THE-WORLD1\LIBS\SDL2-2.0.9\INCLUDE\SDL_STDINC.H
C:\USERS\GEANA\DOCUMENTS\VISUAL STUDIO 2017\PROJECTS\FTW\FOUR-THE-WORLD1\LIBS\SDL2-2.0.9\INCLUDE\SDL_CONFIG.H
C:\USERS\GEANA\DOCUMENTS\VISUAL STUDIO 2017\PROJECTS\FTW\FOUR-THE-WORLD1\LIBS\SDL2-2.0.9\INCLUDE\SDL_PLATFORM.H
C:\PROGRAM FILES (X86)\WINDOWS KITS\10\INCLUDE\10.0.14393.0\SHARED\WINAPIFAMILY.H
C:\PROGRAM FILES (X86)\WINDOWS KITS\10\INCLUDE\10.0.14393.0\SHARED\WINPACKAGEFAMILY.H
C:\USERS\GEANA\DOCUMENTS\VISUAL STUDIO 2017\PROJECTS\FTW\FOUR-THE-WORLD1\LIBS\SDL2-2.0.9\INCLUDE\BEGIN_CODE.H
C:\USERS\GEANA\DOCUMENTS\VISUAL STUDIO 2017\PROJECTS\FTW\FOUR-THE-WORLD1\LIBS\SDL2-2.0.9\INCLUDE\CLOSE_CODE.H
C:\PROGRAM FILES (X86)\WINDOWS KITS\10\INCLUDE\10.0.14393.0\UCRT\STDDEF.H
C:\PROGRAM FILES (X86)\MICROSOFT VISUAL STUDIO\2017\COMMUNITY\VC\TOOLS\MSVC\14.10.25017\INCLUDE\STDARG.H
C:\USERS\GEANA\DOCUMENTS\VISUAL STUDIO 2017\PROJECTS\FTW\FOUR-THE-WORLD1\LIBS\SDL2-2.0.9\INCLUDE\SDL_ASSERT.H
C:\USERS\GEANA\DOCUMENTS\VISUAL STUDIO 2017\PROJECTS\FTW\FOUR-THE-WORLD1\LIBS\SDL2-2.0.9\INCLUDE\SDL_ATOMIC.H
C:\USERS\GEANA\DOCUMENTS\VISUAL STUDIO 2017\PROJECTS\FTW\FOUR-THE-WORLD1\LIBS\SDL2-2.0.9\INCLUDE\SDL_AUDIO.H
C:\USERS\GEANA\DOCUMENTS\VISUAL STUDIO 2017\PROJECTS\FTW\FOUR-THE-WORLD1\LIBS\SDL2-2.0.9\INCLUDE\SDL_ERROR.H
C:\USERS\GEANA\DOCUMENTS\VISUAL STUDIO 2017\PROJECTS\FTW\FOUR-THE-WORLD1\LIBS\SDL2-2.0.9\INCLUDE\SDL_ENDIAN.H
C:\USERS\GEANA\DOCUMENTS\VISUAL STUDIO 2017\PROJECTS\FTW\FOUR-THE-WORLD1\LIBS\SDL2-2.0.9\INCLUDE\SDL_MUTEX.H
C:\USERS\GEANA\DOCUMENTS\VISUAL STUDIO 2017\PROJECTS\FTW\FOUR-THE-WORLD1\LIBS\SDL2-2.0.9\INCLUDE\SDL_THREAD.H
C:\PROGRAM FILES (X86)\WINDOWS KITS\10\INCLUDE\10.0.14393.0\UCRT\PROCESS.H
C:\PROGRAM FILES (X86)\WINDOWS KITS\10\INCLUDE\10.0.14393.0\UCRT\CORECRT_STARTUP.H
C:\PROGRAM FILES (X86)\WINDOWS KITS\10\INCLUDE\10.0.14393.0\UCRT\MATH.H
C:\PROGRAM FILES (X86)\MICROSOFT VISUAL STUDIO\2017\COMMUNITY\VC\TOOLS\MSVC\14.10.25017\INCLUDE\VCRUNTIME_STARTUP.H
C:\USERS\GEANA\DOCUMENTS\VISUAL STUDIO 2017\PROJECTS\FTW\FOUR-THE-WORLD1\LIBS\SDL2-2.0.9\INCLUDE\SDL_RWOPS.H
C:\USERS\GEANA\DOCUMENTS\VISUAL STUDIO 2017\PROJECTS\FTW\FOUR-THE-WORLD1\LIBS\SDL2-2.0.9\INCLUDE\SDL_CLIPBOARD.H
C:\USERS\GEANA\DOCUMENTS\VISUAL STUDIO 2017\PROJECTS\FTW\FOUR-THE-WORLD1\LIBS\SDL2-2.0.9\INCLUDE\SDL_CPUINFO.H
C:\PROGRAM FILES (X86)\MICROSOFT VISUAL STUDIO\2017\COMMUNITY\VC\TOOLS\MSVC\14.10.25017\INCLUDE\INTRIN.H
C:\PROGRAM FILES (X86)\MICROSOFT VISUAL STUDIO\2017\COMMUNITY\VC\TOOLS\MSVC\14.10.25017\INCLUDE\INTRIN0.H
C:\PROGRAM FILES (X86)\MICROSOFT VISUAL STUDIO\2017\COMMUNITY\VC\TOOLS\MSVC\14.10.25017\INCLUDE\SETJMP.H
C:\PROGRAM FILES (X86)\MICROSOFT VISUAL STUDIO\2017\COMMUNITY\VC\TOOLS\MSVC\14.10.25017\INCLUDE\IMMINTRIN.H
C:\PROGRAM FILES (X86)\MICROSOFT VISUAL STUDIO\2017\COMMUNITY\VC\TOOLS\MSVC\14.10.25017\INCLUDE\WMMINTRIN.H
C:\PROGRAM FILES (X86)\MICROSOFT VISUAL STUDIO\2017\COMMUNITY\VC\TOOLS\MSVC\14.10.25017\INCLUDE\NMMINTRIN.H
C:\PROGRAM FILES (X86)\MICROSOFT VISUAL STUDIO\2017\COMMUNITY\VC\TOOLS\MSVC\14.10.25017\INCLUDE\SMMINTRIN.H
C:\PROGRAM FILES (X86)\MICROSOFT VISUAL STUDIO\2017\COMMUNITY\VC\TOOLS\MSVC\14.10.25017\INCLUDE\TMMINTRIN.H
C:\PROGRAM FILES (X86)\MICROSOFT VISUAL STUDIO\2017\COMMUNITY\VC\TOOLS\MSVC\14.10.25017\INCLUDE\PMMINTRIN.H
C:\PROGRAM FILES (X86)\MICROSOFT VISUAL STUDIO\2017\COMMUNITY\VC\TOOLS\MSVC\14.10.25017\INCLUDE\EMMINTRIN.H
C:\PROGRAM FILES (X86)\MICROSOFT VISUAL STUDIO\2017\COMMUNITY\VC\TOOLS\MSVC\14.10.25017\INCLUDE\XMMINTRIN.H
C:\PROGRAM FILES (X86)\MICROSOFT VISUAL STUDIO\2017\COMMUNITY\VC\TOOLS\MSVC\14.10.25017\INCLUDE\MMINTRIN.H
C:\PROGRAM FILES (X86)\WINDOWS KITS\10\INCLUDE\10.0.14393.0\UCRT\MALLOC.H
C:\PROGRAM FILES (X86)\WINDOWS KITS\10\INCLUDE\10.0.14393.0\UCRT\CORECRT_MALLOC.H
C:\PROGRAM FILES (X86)\MICROSOFT VISUAL STUDIO\2017\COMMUNITY\VC\TOOLS\MSVC\14.10.25017\INCLUDE\ZMMINTRIN.H
C:\PROGRAM FILES (X86)\MICROSOFT VISUAL STUDIO\2017\COMMUNITY\VC\TOOLS\MSVC\14.10.25017\INCLUDE\AMMINTRIN.H
C:\PROGRAM FILES (X86)\MICROSOFT VISUAL STUDIO\2017\COMMUNITY\VC\TOOLS\MSVC\14.10.25017\INCLUDE\MM3DNOW.H
C:\USERS\GEANA\DOCUMENTS\VISUAL STUDIO 2017\PROJECTS\FTW\FOUR-THE-WORLD1\LIBS\SDL2-2.0.9\INCLUDE\SDL_EVENTS.H
C:\USERS\GEANA\DOCUMENTS\VISUAL STUDIO 2017\PROJECTS\FTW\FOUR-THE-WORLD1\LIBS\SDL2-2.0.9\INCLUDE\SDL_VIDEO.H
C:\USERS\GEANA\DOCUMENTS\VISUAL STUDIO 2017\PROJECTS\FTW\FOUR-THE-WORLD1\LIBS\SDL2-2.0.9\INCLUDE\SDL_PIXELS.H
C:\USERS\GEANA\DOCUMENTS\VISUAL STUDIO 2017\PROJECTS\FTW\FOUR-THE-WORLD1\LIBS\SDL2-2.0.9\INCLUDE\SDL_RECT.H
C:\USERS\GEANA\DOCUMENTS\VISUAL STUDIO 2017\PROJECTS\FTW\FOUR-THE-WORLD1\LIBS\SDL2-2.0.9\INCLUDE\SDL_SURFACE.H
C:\USERS\GEANA\DOCUMENTS\VISUAL STUDIO 2017\PROJECTS\FTW\FOUR-THE-WORLD1\LIBS\SDL2-2.0.9\INCLUDE\SDL_BLENDMODE.H
C:\USERS\GEANA\DOCUMENTS\VISUAL STUDIO 2017\PROJECTS\FTW\FOUR-THE-WORLD1\LIBS\SDL2-2.0.9\INCLUDE\SDL_KEYBOARD.H
C:\USERS\GEANA\DOCUMENTS\VISUAL STUDIO 2017\PROJECTS\FTW\FOUR-THE-WORLD1\LIBS\SDL2-2.0.9\INCLUDE\SDL_KEYCODE.H
C:\USERS\GEANA\DOCUMENTS\VISUAL STUDIO 2017\PROJECTS\FTW\FOUR-THE-WORLD1\LIBS\SDL2-2.0.9\INCLUDE\SDL_SCANCODE.H
C:\USERS\GEANA\DOCUMENTS\VISUAL STUDIO 2017\PROJECTS\FTW\FOUR-THE-WORLD1\LIBS\SDL2-2.0.9\INCLUDE\SDL_MOUSE.H
C:\USERS\GEANA\DOCUMENTS\VISUAL STUDIO 2017\PROJECTS\FTW\FOUR-THE-WORLD1\LIBS\SDL2-2.0.9\INCLUDE\SDL_JOYSTICK.H
C:\USERS\GEANA\DOCUMENTS\VISUAL STUDIO 2017\PROJECTS\FTW\FOUR-THE-WORLD1\LIBS\SDL2-2.0.9\INCLUDE\SDL_GAMECONTROLLER.H
C:\USERS\GEANA\DOCUMENTS\VISUAL STUDIO 2017\PROJECTS\FTW\FOUR-THE-WORLD1\LIBS\SDL2-2.0.9\INCLUDE\SDL_QUIT.H
C:\USERS\GEANA\DOCUMENTS\VISUAL STUDIO 2017\PROJECTS\FTW\FOUR-THE-WORLD1\LIBS\SDL2-2.0.9\INCLUDE\SDL_GESTURE.H
C:\USERS\GEANA\DOCUMENTS\VISUAL STUDIO 2017\PROJECTS\FTW\FOUR-THE-WORLD1\LIBS\SDL2-2.0.9\INCLUDE\SDL_TOUCH.H
C:\USERS\GEANA\DOCUMENTS\VISUAL STUDIO 2017\PROJECTS\FTW\FOUR-THE-WORLD1\LIBS\SDL2-2.0.9\INCLUDE\SDL_FILESYSTEM.H
C:\USERS\GEANA\DOCUMENTS\VISUAL STUDIO 2017\PROJECTS\FTW\FOUR-THE-WORLD1\LIBS\SDL2-2.0.9\INCLUDE\SDL_HAPTIC.H
C:\USERS\GEANA\DOCUMENTS\VISUAL STUDIO 2017\PROJECTS\FTW\FOUR-THE-WORLD1\LIBS\SDL2-2.0.9\INCLUDE\SDL_HINTS.H
C:\USERS\GEANA\DOCUMENTS\VISUAL STUDIO 2017\PROJECTS\FTW\FOUR-THE-WORLD1\LIBS\SDL2-2.0.9\INCLUDE\SDL_LOADSO.H
C:\USERS\GEANA\DOCUMENTS\VISUAL STUDIO 2017\PROJECTS\FTW\FOUR-THE-WORLD1\LIBS\SDL2-2.0.9\INCLUDE\SDL_LOG.H
C:\USERS\GEANA\DOCUMENTS\VISUAL STUDIO 2017\PROJECTS\FTW\FOUR-THE-WORLD1\LIBS\SDL2-2.0.9\INCLUDE\SDL_MESSAGEBOX.H
C:\USERS\GEANA\DOCUMENTS\VISUAL STUDIO 2017\PROJECTS\FTW\FOUR-THE-WORLD1\LIBS\SDL2-2.0.9\INCLUDE\SDL_POWER.H
C:\USERS\GEANA\DOCUMENTS\VISUAL STUDIO 2017\PROJECTS\FTW\FOUR-THE-WORLD1\LIBS\SDL2-2.0.9\INCLUDE\SDL_RENDER.H
C:\USERS\GEANA\DOCUMENTS\VISUAL STUDIO 2017\PROJECTS\FTW\FOUR-THE-WORLD1\LIBS\SDL2-2.0.9\INCLUDE\SDL_SENSOR.H
C:\USERS\GEANA\DOCUMENTS\VISUAL STUDIO 2017\PROJECTS\FTW\FOUR-THE-WORLD1\LIBS\SDL2-2.0.9\INCLUDE\SDL_SHAPE.H
C:\USERS\GEANA\DOCUMENTS\VISUAL STUDIO 2017\PROJECTS\FTW\FOUR-THE-WORLD1\LIBS\SDL2-2.0.9\INCLUDE\SDL_SYSTEM.H
C:\USERS\GEANA\DOCUMENTS\VISUAL STUDIO 2017\PROJECTS\FTW\FOUR-THE-WORLD1\LIBS\SDL2-2.0.9\INCLUDE\SDL_TIMER.H
C:\USERS\GEANA\DOCUMENTS\VISUAL STUDIO 2017\PROJECTS\FTW\FOUR-THE-WORLD1\LIBS\SDL2-2.0.9\INCLUDE\SDL_VERSION.H
C:\USERS\GEANA\DOCUMENTS\VISUAL STUDIO 2017\PROJECTS\FTW\FOUR-THE-WORLD1\LIBS\SDL2_IMAGE-2.0.4\INCLUDE\SDL_IMAGE.H
C:\USERS\GEANA\DOCUMENTS\VISUAL STUDIO 2017\PROJECTS\FTW\FOUR-THE-WORLD1\FTW\FTWGAME.H
C:\USERS\GEANA\DOCUMENTS\VISUAL STUDIO 2017\PROJECTS\FTW\FOUR-THE-WORLD1\FTW\SPRITE.H
C:\USERS\GEANA\DOCUMENTS\VISUAL STUDIO 2017\PROJECTS\FTW\FOUR-THE-WORLD1\FTW\PLAYER.H
C:\USERS\GEANA\DOCUMENTS\VISUAL STUDIO 2017\PROJECTS\FTW\FOUR-THE-WORLD1\FTW\FLOAT2.H
C:\USERS\GEANA\DOCUMENTS\VISUAL STUDIO 2017\PROJECTS\FTW\FOUR-THE-WORLD1\FTW\AABB.H
C:\USERS\GEANA\DOCUMENTS\VISUAL STUDIO 2017\PROJECTS\FTW\FOUR-THE-WORLD1\FTW\ENEMY.H
C:\USERS\GEANA\DOCUMENTS\VISUAL STUDIO 2017\PROJECTS\FTW\FOUR-THE-WORLD1\FTW\KEYFLAGS.H
C:\PROGRAM FILES (X86)\MICROSOFT VISUAL STUDIO\2017\COMMUNITY\VC\TOOLS\MSVC\14.10.25017\INCLUDE\CSTDINT
C:\PROGRAM FILES (X86)\MICROSOFT VISUAL STUDIO\2017\COMMUNITY\VC\TOOLS\MSVC\14.10.25017\INCLUDE\YVALS.H
C:\PROGRAM FILES (X86)\MICROSOFT VISUAL STUDIO\2017\COMMUNITY\VC\TOOLS\MSVC\14.10.25017\INCLUDE\XKEYCHECK.H
C:\PROGRAM FILES (X86)\MICROSOFT VISUAL STUDIO\2017\COMMUNITY\VC\TOOLS\MSVC\14.10.25017\INCLUDE\CRTDEFS.H
C:\PROGRAM FILES (X86)\MICROSOFT VISUAL STUDIO\2017\COMMUNITY\VC\TOOLS\MSVC\14.10.25017\INCLUDE\USE_ANSI.H
C:\PROGRAM FILES (X86)\MICROSOFT VISUAL STUDIO\2017\COMMUNITY\VC\TOOLS\MSVC\14.10.25017\INCLUDE\STDINT.H
C:\USERS\GEANA\DOCUMENTS\VISUAL STUDIO 2017\PROJECTS\FTW\FOUR-THE-WORLD1\FTW\PROJECTILETYPE.H
C:\USERS\GEANA\DOCUMENTS\VISUAL STUDIO 2017\PROJECTS\FTW\FOUR-THE-WORLD1\FTW\BULLETINSTANCE.H
^C:\USERS\GEANA\DOCUMENTS\VISUAL STUDIO 2017\PROJECTS\FTW\FOUR-THE-WORLD1\FTW\FTWGAME.CPP
C:\USERS\GEANA\DOCUMENTS\VISUAL STUDIO 2017\PROJECTS\FTW\FOUR-THE-WORLD1\LIBS\SDL2-2.0.9\INCLUDE\SDL.H
C:\USERS\GEANA\DOCUMENTS\VISUAL STUDIO 2017\PROJECTS\FTW\FOUR-THE-WORLD1\LIBS\SDL2-2.0.9\INCLUDE\SDL_MAIN.H
C:\USERS\GEANA\DOCUMENTS\VISUAL STUDIO 2017\PROJECTS\FTW\FOUR-THE-WORLD1\LIBS\SDL2-2.0.9\INCLUDE\SDL_STDINC.H
C:\USERS\GEANA\DOCUMENTS\VISUAL STUDIO 2017\PROJECTS\FTW\FOUR-THE-WORLD1\LIBS\SDL2-2.0.9\INCLUDE\SDL_CONFIG.H
C:\USERS\GEANA\DOCUMENTS\VISUAL STUDIO 2017\PROJECTS\FTW\FOUR-THE-WORLD1\LIBS\SDL2-2.0.9\INCLUDE\SDL_PLATFORM.H
C:\PROGRAM FILES (X86)\WINDOWS KITS\10\INCLUDE\10.0.14393.0\SHARED\WINAPIFAMILY.H
C:\PROGRAM FILES (X86)\WINDOWS KITS\10\INCLUDE\10.0.14393.0\SHARED\WINPACKAGEFAMILY.H
C:\USERS\GEANA\DOCUMENTS\VISUAL STUDIO 2017\PROJECTS\FTW\FOUR-THE-WORLD1\LIBS\SDL2-2.0.9\INCLUDE\BEGIN_CODE.H
C:\USERS\GEANA\DOCUMENTS\VISUAL STUDIO 2017\PROJECTS\FTW\FOUR-THE-WORLD1\LIBS\SDL2-2.0.9\INCLUDE\CLOSE_CODE.H
C:\PROGRAM FILES (X86)\WINDOWS KITS\10\INCLUDE\10.0.14393.0\UCRT\STDDEF.H
C:\PROGRAM FILES (X86)\WINDOWS KITS\10\INCLUDE\10.0.14393.0\UCRT\CORECRT.H
C:\PROGRAM FILES (X86)\MICROSOFT VISUAL STUDIO\2017\COMMUNITY\VC\TOOLS\MSVC\14.10.25017\INCLUDE\VCRUNTIME.H
C:\PROGRAM FILES (X86)\MICROSOFT VISUAL STUDIO\2017\COMMUNITY\VC\TOOLS\MSVC\14.10.25017\INCLUDE\SAL.H
C:\PROGRAM FILES (X86)\MICROSOFT VISUAL STUDIO\2017\COMMUNITY\VC\TOOLS\MSVC\14.10.25017\INCLUDE\CONCURRENCYSAL.H
C:\PROGRAM FILES (X86)\MICROSOFT VISUAL STUDIO\2017\COMMUNITY\VC\TOOLS\MSVC\14.10.25017\INCLUDE\VADEFS.H
C:\PROGRAM FILES (X86)\MICROSOFT VISUAL STUDIO\2017\COMMUNITY\VC\TOOLS\MSVC\14.10.25017\INCLUDE\STDARG.H
C:\USERS\GEANA\DOCUMENTS\VISUAL STUDIO 2017\PROJECTS\FTW\FOUR-THE-WORLD1\LIBS\SDL2-2.0.9\INCLUDE\SDL_ASSERT.H
C:\USERS\GEANA\DOCUMENTS\VISUAL STUDIO 2017\PROJECTS\FTW\FOUR-THE-WORLD1\LIBS\SDL2-2.0.9\INCLUDE\SDL_ATOMIC.H
C:\USERS\GEANA\DOCUMENTS\VISUAL STUDIO 2017\PROJECTS\FTW\FOUR-THE-WORLD1\LIBS\SDL2-2.0.9\INCLUDE\SDL_AUDIO.H
C:\USERS\GEANA\DOCUMENTS\VISUAL STUDIO 2017\PROJECTS\FTW\FOUR-THE-WORLD1\LIBS\SDL2-2.0.9\INCLUDE\SDL_ERROR.H
C:\USERS\GEANA\DOCUMENTS\VISUAL STUDIO 2017\PROJECTS\FTW\FOUR-THE-WORLD1\LIBS\SDL2-2.0.9\INCLUDE\SDL_ENDIAN.H
C:\USERS\GEANA\DOCUMENTS\VISUAL STUDIO 2017\PROJECTS\FTW\FOUR-THE-WORLD1\LIBS\SDL2-2.0.9\INCLUDE\SDL_MUTEX.H
C:\USERS\GEANA\DOCUMENTS\VISUAL STUDIO 2017\PROJECTS\FTW\FOUR-THE-WORLD1\LIBS\SDL2-2.0.9\INCLUDE\SDL_THREAD.H
C:\PROGRAM FILES (X86)\WINDOWS KITS\10\INCLUDE\10.0.14393.0\UCRT\PROCESS.H
C:\PROGRAM FILES (X86)\WINDOWS KITS\10\INCLUDE\10.0.14393.0\UCRT\CORECRT_STARTUP.H
C:\PROGRAM FILES (X86)\WINDOWS KITS\10\INCLUDE\10.0.14393.0\UCRT\MATH.H
C:\PROGRAM FILES (X86)\MICROSOFT VISUAL STUDIO\2017\COMMUNITY\VC\TOOLS\MSVC\14.10.25017\INCLUDE\VCRUNTIME_STARTUP.H
C:\PROGRAM FILES (X86)\WINDOWS KITS\10\INCLUDE\10.0.14393.0\UCRT\CORECRT_WPROCESS.H
C:\USERS\GEANA\DOCUMENTS\VISUAL STUDIO 2017\PROJECTS\FTW\FOUR-THE-WORLD1\LIBS\SDL2-2.0.9\INCLUDE\SDL_RWOPS.H
C:\USERS\GEANA\DOCUMENTS\VISUAL STUDIO 2017\PROJECTS\FTW\FOUR-THE-WORLD1\LIBS\SDL2-2.0.9\INCLUDE\SDL_CLIPBOARD.H
C:\USERS\GEANA\DOCUMENTS\VISUAL STUDIO 2017\PROJECTS\FTW\FOUR-THE-WORLD1\LIBS\SDL2-2.0.9\INCLUDE\SDL_CPUINFO.H
C:\PROGRAM FILES (X86)\MICROSOFT VISUAL STUDIO\2017\COMMUNITY\VC\TOOLS\MSVC\14.10.25017\INCLUDE\INTRIN.H
C:\PROGRAM FILES (X86)\MICROSOFT VISUAL STUDIO\2017\COMMUNITY\VC\TOOLS\MSVC\14.10.25017\INCLUDE\INTRIN0.H
C:\PROGRAM FILES (X86)\MICROSOFT VISUAL STUDIO\2017\COMMUNITY\VC\TOOLS\MSVC\14.10.25017\INCLUDE\SETJMP.H
C:\PROGRAM FILES (X86)\MICROSOFT VISUAL STUDIO\2017\COMMUNITY\VC\TOOLS\MSVC\14.10.25017\INCLUDE\IMMINTRIN.H
C:\PROGRAM FILES (X86)\MICROSOFT VISUAL STUDIO\2017\COMMUNITY\VC\TOOLS\MSVC\14.10.25017\INCLUDE\WMMINTRIN.H
C:\PROGRAM FILES (X86)\MICROSOFT VISUAL STUDIO\2017\COMMUNITY\VC\TOOLS\MSVC\14.10.25017\INCLUDE\NMMINTRIN.H
C:\PROGRAM FILES (X86)\MICROSOFT VISUAL STUDIO\2017\COMMUNITY\VC\TOOLS\MSVC\14.10.25017\INCLUDE\SMMINTRIN.H
C:\PROGRAM FILES (X86)\MICROSOFT VISUAL STUDIO\2017\COMMUNITY\VC\TOOLS\MSVC\14.10.25017\INCLUDE\TMMINTRIN.H
C:\PROGRAM FILES (X86)\MICROSOFT VISUAL STUDIO\2017\COMMUNITY\VC\TOOLS\MSVC\14.10.25017\INCLUDE\PMMINTRIN.H
C:\PROGRAM FILES (X86)\MICROSOFT VISUAL STUDIO\2017\COMMUNITY\VC\TOOLS\MSVC\14.10.25017\INCLUDE\EMMINTRIN.H
C:\PROGRAM FILES (X86)\MICROSOFT VISUAL STUDIO\2017\COMMUNITY\VC\TOOLS\MSVC\14.10.25017\INCLUDE\XMMINTRIN.H
C:\PROGRAM FILES (X86)\MICROSOFT VISUAL STUDIO\2017\COMMUNITY\VC\TOOLS\MSVC\14.10.25017\INCLUDE\MMINTRIN.H
C:\PROGRAM FILES (X86)\WINDOWS KITS\10\INCLUDE\10.0.14393.0\UCRT\MALLOC.H
C:\PROGRAM FILES (X86)\WINDOWS KITS\10\INCLUDE\10.0.14393.0\UCRT\CORECRT_MALLOC.H
C:\PROGRAM FILES (X86)\MICROSOFT VISUAL STUDIO\2017\COMMUNITY\VC\TOOLS\MSVC\14.10.25017\INCLUDE\ZMMINTRIN.H
C:\PROGRAM FILES (X86)\MICROSOFT VISUAL STUDIO\2017\COMMUNITY\VC\TOOLS\MSVC\14.10.25017\INCLUDE\AMMINTRIN.H
C:\PROGRAM FILES (X86)\MICROSOFT VISUAL STUDIO\2017\COMMUNITY\VC\TOOLS\MSVC\14.10.25017\INCLUDE\MM3DNOW.H
C:\USERS\GEANA\DOCUMENTS\VISUAL STUDIO 2017\PROJECTS\FTW\FOUR-THE-WORLD1\LIBS\SDL2-2.0.9\INCLUDE\SDL_EVENTS.H
C:\USERS\GEANA\DOCUMENTS\VISUAL STUDIO 2017\PROJECTS\FTW\FOUR-THE-WORLD1\LIBS\SDL2-2.0.9\INCLUDE\SDL_VIDEO.H
C:\USERS\GEANA\DOCUMENTS\VISUAL STUDIO 2017\PROJECTS\FTW\FOUR-THE-WORLD1\LIBS\SDL2-2.0.9\INCLUDE\SDL_PIXELS.H
C:\USERS\GEANA\DOCUMENTS\VISUAL STUDIO 2017\PROJECTS\FTW\FOUR-THE-WORLD1\LIBS\SDL2-2.0.9\INCLUDE\SDL_RECT.H
C:\USERS\GEANA\DOCUMENTS\VISUAL STUDIO 2017\PROJECTS\FTW\FOUR-THE-WORLD1\LIBS\SDL2-2.0.9\INCLUDE\SDL_SURFACE.H
C:\USERS\GEANA\DOCUMENTS\VISUAL STUDIO 2017\PROJECTS\FTW\FOUR-THE-WORLD1\LIBS\SDL2-2.0.9\INCLUDE\SDL_BLENDMODE.H
C:\USERS\GEANA\DOCUMENTS\VISUAL STUDIO 2017\PROJECTS\FTW\FOUR-THE-WORLD1\LIBS\SDL2-2.0.9\INCLUDE\SDL_KEYBOARD.H
C:\USERS\GEANA\DOCUMENTS\VISUAL STUDIO 2017\PROJECTS\FTW\FOUR-THE-WORLD1\LIBS\SDL2-2.0.9\INCLUDE\SDL_KEYCODE.H
C:\USERS\GEANA\DOCUMENTS\VISUAL STUDIO 2017\PROJECTS\FTW\FOUR-THE-WORLD1\LIBS\SDL2-2.0.9\INCLUDE\SDL_SCANCODE.H
C:\USERS\GEANA\DOCUMENTS\VISUAL STUDIO 2017\PROJECTS\FTW\FOUR-THE-WORLD1\LIBS\SDL2-2.0.9\INCLUDE\SDL_MOUSE.H
C:\USERS\GEANA\DOCUMENTS\VISUAL STUDIO 2017\PROJECTS\FTW\FOUR-THE-WORLD1\LIBS\SDL2-2.0.9\INCLUDE\SDL_JOYSTICK.H
C:\USERS\GEANA\DOCUMENTS\VISUAL STUDIO 2017\PROJECTS\FTW\FOUR-THE-WORLD1\LIBS\SDL2-2.0.9\INCLUDE\SDL_GAMECONTROLLER.H
C:\USERS\GEANA\DOCUMENTS\VISUAL STUDIO 2017\PROJECTS\FTW\FOUR-THE-WORLD1\LIBS\SDL2-2.0.9\INCLUDE\SDL_QUIT.H
C:\USERS\GEANA\DOCUMENTS\VISUAL STUDIO 2017\PROJECTS\FTW\FOUR-THE-WORLD1\LIBS\SDL2-2.0.9\INCLUDE\SDL_GESTURE.H
C:\USERS\GEANA\DOCUMENTS\VISUAL STUDIO 2017\PROJECTS\FTW\FOUR-THE-WORLD1\LIBS\SDL2-2.0.9\INCLUDE\SDL_TOUCH.H
C:\USERS\GEANA\DOCUMENTS\VISUAL STUDIO 2017\PROJECTS\FTW\FOUR-THE-WORLD1\LIBS\SDL2-2.0.9\INCLUDE\SDL_FILESYSTEM.H
C:\USERS\GEANA\DOCUMENTS\VISUAL STUDIO 2017\PROJECTS\FTW\FOUR-THE-WORLD1\LIBS\SDL2-2.0.9\INCLUDE\SDL_HAPTIC.H
C:\USERS\GEANA\DOCUMENTS\VISUAL STUDIO 2017\PROJECTS\FTW\FOUR-THE-WORLD1\LIBS\SDL2-2.0.9\INCLUDE\SDL_HINTS.H
C:\USERS\GEANA\DOCUMENTS\VISUAL STUDIO 2017\PROJECTS\FTW\FOUR-THE-WORLD1\LIBS\SDL2-2.0.9\INCLUDE\SDL_LOADSO.H
C:\USERS\GEANA\DOCUMENTS\VISUAL STUDIO 2017\PROJECTS\FTW\FOUR-THE-WORLD1\LIBS\SDL2-2.0.9\INCLUDE\SDL_LOG.H
C:\USERS\GEANA\DOCUMENTS\VISUAL STUDIO 2017\PROJECTS\FTW\FOUR-THE-WORLD1\LIBS\SDL2-2.0.9\INCLUDE\SDL_MESSAGEBOX.H
C:\USERS\GEANA\DOCUMENTS\VISUAL STUDIO 2017\PROJECTS\FTW\FOUR-THE-WORLD1\LIBS\SDL2-2.0.9\INCLUDE\SDL_POWER.H
C:\USERS\GEANA\DOCUMENTS\VISUAL STUDIO 2017\PROJECTS\FTW\FOUR-THE-WORLD1\LIBS\SDL2-2.0.9\INCLUDE\SDL_RENDER.H
C:\USERS\GEANA\DOCUMENTS\VISUAL STUDIO 2017\PROJECTS\FTW\FOUR-THE-WORLD1\LIBS\SDL2-2.0.9\INCLUDE\SDL_SENSOR.H
C:\USERS\GEANA\DOCUMENTS\VISUAL STUDIO 2017\PROJECTS\FTW\FOUR-THE-WORLD1\LIBS\SDL2-2.0.9\INCLUDE\SDL_SHAPE.H
C:\USERS\GEANA\DOCUMENTS\VISUAL STUDIO 2017\PROJECTS\FTW\FOUR-THE-WORLD1\LIBS\SDL2-2.0.9\INCLUDE\SDL_SYSTEM.H
C:\USERS\GEANA\DOCUMENTS\VISUAL STUDIO 2017\PROJECTS\FTW\FOUR-THE-WORLD1\LIBS\SDL2-2.0.9\INCLUDE\SDL_TIMER.H
C:\USERS\GEANA\DOCUMENTS\VISUAL STUDIO 2017\PROJECTS\FTW\FOUR-THE-WORLD1\LIBS\SDL2-2.0.9\INCLUDE\SDL_VERSION.H
C:\USERS\GEANA\DOCUMENTS\VISUAL STUDIO 2017\PROJECTS\FTW\FOUR-THE-WORLD1\FTW\STDAFX.H
C:\USERS\GEANA\DOCUMENTS\VISUAL STUDIO 2017\PROJECTS\FTW\FOUR-THE-WORLD1\FTW\TARGETVER.H
C:\PROGRAM FILES (X86)\WINDOWS KITS\10\INCLUDE\10.0.14393.0\SHARED\SDKDDKVER.H
C:\PROGRAM FILES (X86)\WINDOWS KITS\10\INCLUDE\10.0.14393.0\UCRT\STDIO.H
C:\PROGRAM FILES (X86)\WINDOWS KITS\10\INCLUDE\10.0.14393.0\UCRT\CORECRT_WSTDIO.H
C:\PROGRAM FILES (X86)\WINDOWS KITS\10\INCLUDE\10.0.14393.0\UCRT\CORECRT_STDIO_CONFIG.H
C:\PROGRAM FILES (X86)\WINDOWS KITS\10\INCLUDE\10.0.14393.0\UCRT\TCHAR.H
C:\PROGRAM FILES (X86)\WINDOWS KITS\10\INCLUDE\10.0.14393.0\UCRT\WCHAR.H
C:\PROGRAM FILES (X86)\WINDOWS KITS\10\INCLUDE\10.0.14393.0\UCRT\CORECRT_MEMCPY_S.H
C:\PROGRAM FILES (X86)\WINDOWS KITS\10\INCLUDE\10.0.14393.0\UCRT\ERRNO.H
C:\PROGRAM FILES (X86)\MICROSOFT VISUAL STUDIO\2017\COMMUNITY\VC\TOOLS\MSVC\14.10.25017\INCLUDE\VCRUNTIME_STRING.H
C:\PROGRAM FILES (X86)\WINDOWS KITS\10\INCLUDE\10.0.14393.0\UCRT\CORECRT_WCONIO.H
C:\PROGRAM FILES (X86)\WINDOWS KITS\10\INCLUDE\10.0.14393.0\UCRT\CORECRT_WCTYPE.H
C:\PROGRAM FILES (X86)\WINDOWS KITS\10\INCLUDE\10.0.14393.0\UCRT\CORECRT_WDIRECT.H
C:\PROGRAM FILES (X86)\WINDOWS KITS\10\INCLUDE\10.0.14393.0\UCRT\CORECRT_WIO.H
C:\PROGRAM FILES (X86)\WINDOWS KITS\10\INCLUDE\10.0.14393.0\UCRT\CORECRT_SHARE.H
C:\PROGRAM FILES (X86)\WINDOWS KITS\10\INCLUDE\10.0.14393.0\UCRT\CORECRT_WSTDLIB.H
C:\PROGRAM FILES (X86)\WINDOWS KITS\10\INCLUDE\10.0.14393.0\UCRT\CORECRT_WSTRING.H
C:\PROGRAM FILES (X86)\WINDOWS KITS\10\INCLUDE\10.0.14393.0\UCRT\CORECRT_WTIME.H
C:\PROGRAM FILES (X86)\WINDOWS KITS\10\INCLUDE\10.0.14393.0\UCRT\SYS\STAT.H
C:\PROGRAM FILES (X86)\WINDOWS KITS\10\INCLUDE\10.0.14393.0\UCRT\SYS\TYPES.H
C:\USERS\GEANA\DOCUMENTS\VISUAL STUDIO 2017\PROJECTS\FTW\FOUR-THE-WORLD1\LIBS\SDL2_IMAGE-2.0.4\INCLUDE\SDL_IMAGE.H
C:\USERS\GEANA\DOCUMENTS\VISUAL STUDIO 2017\PROJECTS\FTW\FOUR-THE-WORLD1\FTW\FTWGAME.H
C:\USERS\GEANA\DOCUMENTS\VISUAL STUDIO 2017\PROJECTS\FTW\FOUR-THE-WORLD1\FTW\SPRITE.H
C:\USERS\GEANA\DOCUMENTS\VISUAL STUDIO 2017\PROJECTS\FTW\FOUR-THE-WORLD1\FTW\PLAYER.H
C:\USERS\GEANA\DOCUMENTS\VISUAL STUDIO 2017\PROJECTS\FTW\FOUR-THE-WORLD1\FTW\FLOAT2.H
C:\USERS\GEANA\DOCUMENTS\VISUAL STUDIO 2017\PROJECTS\FTW\FOUR-THE-WORLD1\FTW\AABB.H
C:\USERS\GEANA\DOCUMENTS\VISUAL STUDIO 2017\PROJECTS\FTW\FOUR-THE-WORLD1\FTW\ENEMY.H
C:\USERS\GEANA\DOCUMENTS\VISUAL STUDIO 2017\PROJECTS\FTW\FOUR-THE-WORLD1\FTW\KEYFLAGS.H
C:\PROGRAM FILES (X86)\MICROSOFT VISUAL STUDIO\2017\COMMUNITY\VC\TOOLS\MSVC\14.10.25017\INCLUDE\CSTDINT
C:\PROGRAM FILES (X86)\MICROSOFT VISUAL STUDIO\2017\COMMUNITY\VC\TOOLS\MSVC\14.10.25017\INCLUDE\YVALS.H
C:\PROGRAM FILES (X86)\MICROSOFT VISUAL STUDIO\2017\COMMUNITY\VC\TOOLS\MSVC\14.10.25017\INCLUDE\XKEYCHECK.H
C:\PROGRAM FILES (X86)\MICROSOFT VISUAL STUDIO\2017\COMMUNITY\VC\TOOLS\MSVC\14.10.25017\INCLUDE\CRTDEFS.H
C:\PROGRAM FILES (X86)\MICROSOFT VISUAL STUDIO\2017\COMMUNITY\VC\TOOLS\MSVC\14.10.25017\INCLUDE\USE_ANSI.H
C:\PROGRAM FILES (X86)\MICROSOFT VISUAL STUDIO\2017\COMMUNITY\VC\TOOLS\MSVC\14.10.25017\INCLUDE\STDINT.H
C:\USERS\GEANA\DOCUMENTS\VISUAL STUDIO 2017\PROJECTS\FTW\FOUR-THE-WORLD1\FTW\PROJECTILETYPE.H
C:\USERS\GEANA\DOCUMENTS\VISUAL STUDIO 2017\PROJECTS\FTW\FOUR-THE-WORLD1\FTW\BULLETINSTANCE.H
^C:\USERS\GEANA\DOCUMENTS\VISUAL STUDIO 2017\PROJECTS\FTW\FOUR-THE-WORLD1\FTW\ENEMY.CPP
C:\USERS\GEANA\DOCUMENTS\VISUAL STUDIO 2017\PROJECTS\FTW\FOUR-THE-WORLD1\FTW\STDAFX.H
C:\USERS\GEANA\DOCUMENTS\VISUAL STUDIO 2017\PROJECTS\FTW\FOUR-THE-WORLD1\FTW\TARGETVER.H
C:\PROGRAM FILES (X86)\WINDOWS KITS\10\INCLUDE\10.0.14393.0\SHARED\SDKDDKVER.H
C:\PROGRAM FILES (X86)\WINDOWS KITS\10\INCLUDE\10.0.14393.0\UCRT\STDIO.H
C:\PROGRAM FILES (X86)\WINDOWS KITS\10\INCLUDE\10.0.14393.0\UCRT\CORECRT.H
C:\PROGRAM FILES (X86)\MICROSOFT VISUAL STUDIO\2017\COMMUNITY\VC\TOOLS\MSVC\14.10.25017\INCLUDE\VCRUNTIME.H
C:\PROGRAM FILES (X86)\MICROSOFT VISUAL STUDIO\2017\COMMUNITY\VC\TOOLS\MSVC\14.10.25017\INCLUDE\SAL.H
C:\PROGRAM FILES (X86)\MICROSOFT VISUAL STUDIO\2017\COMMUNITY\VC\TOOLS\MSVC\14.10.25017\INCLUDE\CONCURRENCYSAL.H
C:\PROGRAM FILES (X86)\MICROSOFT VISUAL STUDIO\2017\COMMUNITY\VC\TOOLS\MSVC\14.10.25017\INCLUDE\VADEFS.H
C:\PROGRAM FILES (X86)\WINDOWS KITS\10\INCLUDE\10.0.14393.0\UCRT\CORECRT_WSTDIO.H
C:\PROGRAM FILES (X86)\WINDOWS KITS\10\INCLUDE\10.0.14393.0\UCRT\CORECRT_STDIO_CONFIG.H
C:\PROGRAM FILES (X86)\WINDOWS KITS\10\INCLUDE\10.0.14393.0\UCRT\TCHAR.H
C:\PROGRAM FILES (X86)\WINDOWS KITS\10\INCLUDE\10.0.14393.0\UCRT\WCHAR.H
C:\PROGRAM FILES (X86)\WINDOWS KITS\10\INCLUDE\10.0.14393.0\UCRT\CORECRT_MEMCPY_S.H
C:\PROGRAM FILES (X86)\WINDOWS KITS\10\INCLUDE\10.0.14393.0\UCRT\ERRNO.H
C:\PROGRAM FILES (X86)\MICROSOFT VISUAL STUDIO\2017\COMMUNITY\VC\TOOLS\MSVC\14.10.25017\INCLUDE\VCRUNTIME_STRING.H
C:\PROGRAM FILES (X86)\WINDOWS KITS\10\INCLUDE\10.0.14393.0\UCRT\CORECRT_WCONIO.H
C:\PROGRAM FILES (X86)\WINDOWS KITS\10\INCLUDE\10.0.14393.0\UCRT\CORECRT_WCTYPE.H
C:\PROGRAM FILES (X86)\WINDOWS KITS\10\INCLUDE\10.0.14393.0\UCRT\CORECRT_WDIRECT.H
C:\PROGRAM FILES (X86)\WINDOWS KITS\10\INCLUDE\10.0.14393.0\UCRT\CORECRT_WIO.H
C:\PROGRAM FILES (X86)\WINDOWS KITS\10\INCLUDE\10.0.14393.0\UCRT\CORECRT_SHARE.H
C:\PROGRAM FILES (X86)\WINDOWS KITS\10\INCLUDE\10.0.14393.0\UCRT\CORECRT_WPROCESS.H
C:\PROGRAM FILES (X86)\WINDOWS KITS\10\INCLUDE\10.0.14393.0\UCRT\CORECRT_WSTDLIB.H
C:\PROGRAM FILES (X86)\WINDOWS KITS\10\INCLUDE\10.0.14393.0\UCRT\CORECRT_WSTRING.H
C:\PROGRAM FILES (X86)\WINDOWS KITS\10\INCLUDE\10.0.14393.0\UCRT\CORECRT_WTIME.H
C:\PROGRAM FILES (X86)\WINDOWS KITS\10\INCLUDE\10.0.14393.0\UCRT\SYS\STAT.H
C:\PROGRAM FILES (X86)\WINDOWS KITS\10\INCLUDE\10.0.14393.0\UCRT\SYS\TYPES.H
C:\USERS\GEANA\DOCUMENTS\VISUAL STUDIO 2017\PROJECTS\FTW\FOUR-THE-WORLD1\LIBS\SDL2-2.0.9\INCLUDE\SDL.H
C:\USERS\GEANA\DOCUMENTS\VISUAL STUDIO 2017\PROJECTS\FTW\FOUR-THE-WORLD1\LIBS\SDL2-2.0.9\INCLUDE\SDL_MAIN.H
C:\USERS\GEANA\DOCUMENTS\VISUAL STUDIO 2017\PROJECTS\FTW\FOUR-THE-WORLD1\LIBS\SDL2-2.0.9\INCLUDE\SDL_STDINC.H
C:\USERS\GEANA\DOCUMENTS\VISUAL STUDIO 2017\PROJECTS\FTW\FOUR-THE-WORLD1\LIBS\SDL2-2.0.9\INCLUDE\SDL_CONFIG.H
C:\USERS\GEANA\DOCUMENTS\VISUAL STUDIO 2017\PROJECTS\FTW\FOUR-THE-WORLD1\LIBS\SDL2-2.0.9\INCLUDE\SDL_PLATFORM.H
C:\PROGRAM FILES (X86)\WINDOWS KITS\10\INCLUDE\10.0.14393.0\SHARED\WINAPIFAMILY.H
C:\PROGRAM FILES (X86)\WINDOWS KITS\10\INCLUDE\10.0.14393.0\SHARED\WINPACKAGEFAMILY.H
C:\USERS\GEANA\DOCUMENTS\VISUAL STUDIO 2017\PROJECTS\FTW\FOUR-THE-WORLD1\LIBS\SDL2-2.0.9\INCLUDE\BEGIN_CODE.H
C:\USERS\GEANA\DOCUMENTS\VISUAL STUDIO 2017\PROJECTS\FTW\FOUR-THE-WORLD1\LIBS\SDL2-2.0.9\INCLUDE\CLOSE_CODE.H
C:\PROGRAM FILES (X86)\WINDOWS KITS\10\INCLUDE\10.0.14393.0\UCRT\STDDEF.H
C:\PROGRAM FILES (X86)\MICROSOFT VISUAL STUDIO\2017\COMMUNITY\VC\TOOLS\MSVC\14.10.25017\INCLUDE\STDARG.H
C:\USERS\GEANA\DOCUMENTS\VISUAL STUDIO 2017\PROJECTS\FTW\FOUR-THE-WORLD1\LIBS\SDL2-2.0.9\INCLUDE\SDL_ASSERT.H
C:\USERS\GEANA\DOCUMENTS\VISUAL STUDIO 2017\PROJECTS\FTW\FOUR-THE-WORLD1\LIBS\SDL2-2.0.9\INCLUDE\SDL_ATOMIC.H
C:\USERS\GEANA\DOCUMENTS\VISUAL STUDIO 2017\PROJECTS\FTW\FOUR-THE-WORLD1\LIBS\SDL2-2.0.9\INCLUDE\SDL_AUDIO.H
C:\USERS\GEANA\DOCUMENTS\VISUAL STUDIO 2017\PROJECTS\FTW\FOUR-THE-WORLD1\LIBS\SDL2-2.0.9\INCLUDE\SDL_ERROR.H
C:\USERS\GEANA\DOCUMENTS\VISUAL STUDIO 2017\PROJECTS\FTW\FOUR-THE-WORLD1\LIBS\SDL2-2.0.9\INCLUDE\SDL_ENDIAN.H
C:\USERS\GEANA\DOCUMENTS\VISUAL STUDIO 2017\PROJECTS\FTW\FOUR-THE-WORLD1\LIBS\SDL2-2.0.9\INCLUDE\SDL_MUTEX.H
C:\USERS\GEANA\DOCUMENTS\VISUAL STUDIO 2017\PROJECTS\FTW\FOUR-THE-WORLD1\LIBS\SDL2-2.0.9\INCLUDE\SDL_THREAD.H
C:\PROGRAM FILES (X86)\WINDOWS KITS\10\INCLUDE\10.0.14393.0\UCRT\PROCESS.H
C:\PROGRAM FILES (X86)\WINDOWS KITS\10\INCLUDE\10.0.14393.0\UCRT\CORECRT_STARTUP.H
C:\PROGRAM FILES (X86)\WINDOWS KITS\10\INCLUDE\10.0.14393.0\UCRT\MATH.H
C:\PROGRAM FILES (X86)\MICROSOFT VISUAL STUDIO\2017\COMMUNITY\VC\TOOLS\MSVC\14.10.25017\INCLUDE\VCRUNTIME_STARTUP.H
C:\USERS\GEANA\DOCUMENTS\VISUAL STUDIO 2017\PROJECTS\FTW\FOUR-THE-WORLD1\LIBS\SDL2-2.0.9\INCLUDE\SDL_RWOPS.H
C:\USERS\GEANA\DOCUMENTS\VISUAL STUDIO 2017\PROJECTS\FTW\FOUR-THE-WORLD1\LIBS\SDL2-2.0.9\INCLUDE\SDL_CLIPBOARD.H
C:\USERS\GEANA\DOCUMENTS\VISUAL STUDIO 2017\PROJECTS\FTW\FOUR-THE-WORLD1\LIBS\SDL2-2.0.9\INCLUDE\SDL_CPUINFO.H
C:\PROGRAM FILES (X86)\MICROSOFT VISUAL STUDIO\2017\COMMUNITY\VC\TOOLS\MSVC\14.10.25017\INCLUDE\INTRIN.H
C:\PROGRAM FILES (X86)\MICROSOFT VISUAL STUDIO\2017\COMMUNITY\VC\TOOLS\MSVC\14.10.25017\INCLUDE\INTRIN0.H
C:\PROGRAM FILES (X86)\MICROSOFT VISUAL STUDIO\2017\COMMUNITY\VC\TOOLS\MSVC\14.10.25017\INCLUDE\SETJMP.H
C:\PROGRAM FILES (X86)\MICROSOFT VISUAL STUDIO\2017\COMMUNITY\VC\TOOLS\MSVC\14.10.25017\INCLUDE\IMMINTRIN.H
C:\PROGRAM FILES (X86)\MICROSOFT VISUAL STUDIO\2017\COMMUNITY\VC\TOOLS\MSVC\14.10.25017\INCLUDE\WMMINTRIN.H
C:\PROGRAM FILES (X86)\MICROSOFT VISUAL STUDIO\2017\COMMUNITY\VC\TOOLS\MSVC\14.10.25017\INCLUDE\NMMINTRIN.H
C:\PROGRAM FILES (X86)\MICROSOFT VISUAL STUDIO\2017\COMMUNITY\VC\TOOLS\MSVC\14.10.25017\INCLUDE\SMMINTRIN.H
C:\PROGRAM FILES (X86)\MICROSOFT VISUAL STUDIO\2017\COMMUNITY\VC\TOOLS\MSVC\14.10.25017\INCLUDE\TMMINTRIN.H
C:\PROGRAM FILES (X86)\MICROSOFT VISUAL STUDIO\2017\COMMUNITY\VC\TOOLS\MSVC\14.10.25017\INCLUDE\PMMINTRIN.H
C:\PROGRAM FILES (X86)\MICROSOFT VISUAL STUDIO\2017\COMMUNITY\VC\TOOLS\MSVC\14.10.25017\INCLUDE\EMMINTRIN.H
C:\PROGRAM FILES (X86)\MICROSOFT VISUAL STUDIO\2017\COMMUNITY\VC\TOOLS\MSVC\14.10.25017\INCLUDE\XMMINTRIN.H
C:\PROGRAM FILES (X86)\MICROSOFT VISUAL STUDIO\2017\COMMUNITY\VC\TOOLS\MSVC\14.10.25017\INCLUDE\MMINTRIN.H
C:\PROGRAM FILES (X86)\WINDOWS KITS\10\INCLUDE\10.0.14393.0\UCRT\MALLOC.H
C:\PROGRAM FILES (X86)\WINDOWS KITS\10\INCLUDE\10.0.14393.0\UCRT\CORECRT_MALLOC.H
C:\PROGRAM FILES (X86)\MICROSOFT VISUAL STUDIO\2017\COMMUNITY\VC\TOOLS\MSVC\14.10.25017\INCLUDE\ZMMINTRIN.H
C:\PROGRAM FILES (X86)\MICROSOFT VISUAL STUDIO\2017\COMMUNITY\VC\TOOLS\MSVC\14.10.25017\INCLUDE\AMMINTRIN.H
C:\PROGRAM FILES (X86)\MICROSOFT VISUAL STUDIO\2017\COMMUNITY\VC\TOOLS\MSVC\14.10.25017\INCLUDE\MM3DNOW.H
C:\USERS\GEANA\DOCUMENTS\VISUAL STUDIO 2017\PROJECTS\FTW\FOUR-THE-WORLD1\LIBS\SDL2-2.0.9\INCLUDE\SDL_EVENTS.H
C:\USERS\GEANA\DOCUMENTS\VISUAL STUDIO 2017\PROJECTS\FTW\FOUR-THE-WORLD1\LIBS\SDL2-2.0.9\INCLUDE\SDL_VIDEO.H
C:\USERS\GEANA\DOCUMENTS\VISUAL STUDIO 2017\PROJECTS\FTW\FOUR-THE-WORLD1\LIBS\SDL2-2.0.9\INCLUDE\SDL_PIXELS.H
C:\USERS\GEANA\DOCUMENTS\VISUAL STUDIO 2017\PROJECTS\FTW\FOUR-THE-WORLD1\LIBS\SDL2-2.0.9\INCLUDE\SDL_RECT.H
C:\USERS\GEANA\DOCUMENTS\VISUAL STUDIO 2017\PROJECTS\FTW\FOUR-THE-WORLD1\LIBS\SDL2-2.0.9\INCLUDE\SDL_SURFACE.H
C:\USERS\GEANA\DOCUMENTS\VISUAL STUDIO 2017\PROJECTS\FTW\FOUR-THE-WORLD1\LIBS\SDL2-2.0.9\INCLUDE\SDL_BLENDMODE.H
C:\USERS\GEANA\DOCUMENTS\VISUAL STUDIO 2017\PROJECTS\FTW\FOUR-THE-WORLD1\LIBS\SDL2-2.0.9\INCLUDE\SDL_KEYBOARD.H
C:\USERS\GEANA\DOCUMENTS\VISUAL STUDIO 2017\PROJECTS\FTW\FOUR-THE-WORLD1\LIBS\SDL2-2.0.9\INCLUDE\SDL_KEYCODE.H
C:\USERS\GEANA\DOCUMENTS\VISUAL STUDIO 2017\PROJECTS\FTW\FOUR-THE-WORLD1\LIBS\SDL2-2.0.9\INCLUDE\SDL_SCANCODE.H
C:\USERS\GEANA\DOCUMENTS\VISUAL STUDIO 2017\PROJECTS\FTW\FOUR-THE-WORLD1\LIBS\SDL2-2.0.9\INCLUDE\SDL_MOUSE.H
C:\USERS\GEANA\DOCUMENTS\VISUAL STUDIO 2017\PROJECTS\FTW\FOUR-THE-WORLD1\LIBS\SDL2-2.0.9\INCLUDE\SDL_JOYSTICK.H
C:\USERS\GEANA\DOCUMENTS\VISUAL STUDIO 2017\PROJECTS\FTW\FOUR-THE-WORLD1\LIBS\SDL2-2.0.9\INCLUDE\SDL_GAMECONTROLLER.H
C:\USERS\GEANA\DOCUMENTS\VISUAL STUDIO 2017\PROJECTS\FTW\FOUR-THE-WORLD1\LIBS\SDL2-2.0.9\INCLUDE\SDL_QUIT.H
C:\USERS\GEANA\DOCUMENTS\VISUAL STUDIO 2017\PROJECTS\FTW\FOUR-THE-WORLD1\LIBS\SDL2-2.0.9\INCLUDE\SDL_GESTURE.H
C:\USERS\GEANA\DOCUMENTS\VISUAL STUDIO 2017\PROJECTS\FTW\FOUR-THE-WORLD1\LIBS\SDL2-2.0.9\INCLUDE\SDL_TOUCH.H
C:\USERS\GEANA\DOCUMENTS\VISUAL STUDIO 2017\PROJECTS\FTW\FOUR-THE-WORLD1\LIBS\SDL2-2.0.9\INCLUDE\SDL_FILESYSTEM.H
C:\USERS\GEANA\DOCUMENTS\VISUAL STUDIO 2017\PROJECTS\FTW\FOUR-THE-WORLD1\LIBS\SDL2-2.0.9\INCLUDE\SDL_HAPTIC.H
C:\USERS\GEANA\DOCUMENTS\VISUAL STUDIO 2017\PROJECTS\FTW\FOUR-THE-WORLD1\LIBS\SDL2-2.0.9\INCLUDE\SDL_HINTS.H
C:\USERS\GEANA\DOCUMENTS\VISUAL STUDIO 2017\PROJECTS\FTW\FOUR-THE-WORLD1\LIBS\SDL2-2.0.9\INCLUDE\SDL_LOADSO.H
C:\USERS\GEANA\DOCUMENTS\VISUAL STUDIO 2017\PROJECTS\FTW\FOUR-THE-WORLD1\LIBS\SDL2-2.0.9\INCLUDE\SDL_LOG.H
C:\USERS\GEANA\DOCUMENTS\VISUAL STUDIO 2017\PROJECTS\FTW\FOUR-THE-WORLD1\LIBS\SDL2-2.0.9\INCLUDE\SDL_MESSAGEBOX.H
C:\USERS\GEANA\DOCUMENTS\VISUAL STUDIO 2017\PROJECTS\FTW\FOUR-THE-WORLD1\LIBS\SDL2-2.0.9\INCLUDE\SDL_POWER.H
C:\USERS\GEANA\DOCUMENTS\VISUAL STUDIO 2017\PROJECTS\FTW\FOUR-THE-WORLD1\LIBS\SDL2-2.0.9\INCLUDE\SDL_RENDER.H
C:\USERS\GEANA\DOCUMENTS\VISUAL STUDIO 2017\PROJECTS\FTW\FOUR-THE-WORLD1\LIBS\SDL2-2.0.9\INCLUDE\SDL_SENSOR.H
C:\USERS\GEANA\DOCUMENTS\VISUAL STUDIO 2017\PROJECTS\FTW\FOUR-THE-WORLD1\LIBS\SDL2-2.0.9\INCLUDE\SDL_SHAPE.H
C:\USERS\GEANA\DOCUMENTS\VISUAL STUDIO 2017\PROJECTS\FTW\FOUR-THE-WORLD1\LIBS\SDL2-2.0.9\INCLUDE\SDL_SYSTEM.H
C:\USERS\GEANA\DOCUMENTS\VISUAL STUDIO 2017\PROJECTS\FTW\FOUR-THE-WORLD1\LIBS\SDL2-2.0.9\INCLUDE\SDL_TIMER.H
C:\USERS\GEANA\DOCUMENTS\VISUAL STUDIO 2017\PROJECTS\FTW\FOUR-THE-WORLD1\LIBS\SDL2-2.0.9\INCLUDE\SDL_VERSION.H
C:\USERS\GEANA\DOCUMENTS\VISUAL STUDIO 2017\PROJECTS\FTW\FOUR-THE-WORLD1\LIBS\SDL2_IMAGE-2.0.4\INCLUDE\SDL_IMAGE.H
C:\USERS\GEANA\DOCUMENTS\VISUAL STUDIO 2017\PROJECTS\FTW\FOUR-THE-WORLD1\FTW\ENEMY.H
C:\USERS\GEANA\DOCUMENTS\VISUAL STUDIO 2017\PROJECTS\FTW\FOUR-THE-WORLD1\FTW\SPRITE.H
C:\USERS\GEANA\DOCUMENTS\VISUAL STUDIO 2017\PROJECTS\FTW\FOUR-THE-WORLD1\FTW\FLOAT2.H
C:\USERS\GEANA\DOCUMENTS\VISUAL STUDIO 2017\PROJECTS\FTW\FOUR-THE-WORLD1\FTW\AABB.H
^C:\USERS\GEANA\DOCUMENTS\VISUAL STUDIO 2017\PROJECTS\FTW\FOUR-THE-WORLD1\FTW\COLLECTOR.CPP
C:\USERS\GEANA\DOCUMENTS\VISUAL STUDIO 2017\PROJECTS\FTW\FOUR-THE-WORLD1\FTW\STDAFX.H
C:\USERS\GEANA\DOCUMENTS\VISUAL STUDIO 2017\PROJECTS\FTW\FOUR-THE-WORLD1\FTW\TARGETVER.H
C:\PROGRAM FILES (X86)\WINDOWS KITS\10\INCLUDE\10.0.14393.0\SHARED\SDKDDKVER.H
C:\PROGRAM FILES (X86)\WINDOWS KITS\10\INCLUDE\10.0.14393.0\UCRT\STDIO.H
C:\PROGRAM FILES (X86)\WINDOWS KITS\10\INCLUDE\10.0.14393.0\UCRT\CORECRT.H
C:\PROGRAM FILES (X86)\MICROSOFT VISUAL STUDIO\2017\COMMUNITY\VC\TOOLS\MSVC\14.10.25017\INCLUDE\VCRUNTIME.H
C:\PROGRAM FILES (X86)\MICROSOFT VISUAL STUDIO\2017\COMMUNITY\VC\TOOLS\MSVC\14.10.25017\INCLUDE\SAL.H
C:\PROGRAM FILES (X86)\MICROSOFT VISUAL STUDIO\2017\COMMUNITY\VC\TOOLS\MSVC\14.10.25017\INCLUDE\CONCURRENCYSAL.H
C:\PROGRAM FILES (X86)\MICROSOFT VISUAL STUDIO\2017\COMMUNITY\VC\TOOLS\MSVC\14.10.25017\INCLUDE\VADEFS.H
C:\PROGRAM FILES (X86)\WINDOWS KITS\10\INCLUDE\10.0.14393.0\UCRT\CORECRT_WSTDIO.H
C:\PROGRAM FILES (X86)\WINDOWS KITS\10\INCLUDE\10.0.14393.0\UCRT\CORECRT_STDIO_CONFIG.H
C:\PROGRAM FILES (X86)\WINDOWS KITS\10\INCLUDE\10.0.14393.0\UCRT\TCHAR.H
C:\PROGRAM FILES (X86)\WINDOWS KITS\10\INCLUDE\10.0.14393.0\UCRT\WCHAR.H
C:\PROGRAM FILES (X86)\WINDOWS KITS\10\INCLUDE\10.0.14393.0\UCRT\CORECRT_MEMCPY_S.H
C:\PROGRAM FILES (X86)\WINDOWS KITS\10\INCLUDE\10.0.14393.0\UCRT\ERRNO.H
C:\PROGRAM FILES (X86)\MICROSOFT VISUAL STUDIO\2017\COMMUNITY\VC\TOOLS\MSVC\14.10.25017\INCLUDE\VCRUNTIME_STRING.H
C:\PROGRAM FILES (X86)\WINDOWS KITS\10\INCLUDE\10.0.14393.0\UCRT\CORECRT_WCONIO.H
C:\PROGRAM FILES (X86)\WINDOWS KITS\10\INCLUDE\10.0.14393.0\UCRT\CORECRT_WCTYPE.H
C:\PROGRAM FILES (X86)\WINDOWS KITS\10\INCLUDE\10.0.14393.0\UCRT\CORECRT_WDIRECT.H
C:\PROGRAM FILES (X86)\WINDOWS KITS\10\INCLUDE\10.0.14393.0\UCRT\CORECRT_WIO.H
C:\PROGRAM FILES (X86)\WINDOWS KITS\10\INCLUDE\10.0.14393.0\UCRT\CORECRT_SHARE.H
C:\PROGRAM FILES (X86)\WINDOWS KITS\10\INCLUDE\10.0.14393.0\UCRT\CORECRT_WPROCESS.H
C:\PROGRAM FILES (X86)\WINDOWS KITS\10\INCLUDE\10.0.14393.0\UCRT\CORECRT_WSTDLIB.H
C:\PROGRAM FILES (X86)\WINDOWS KITS\10\INCLUDE\10.0.14393.0\UCRT\CORECRT_WSTRING.H
C:\PROGRAM FILES (X86)\WINDOWS KITS\10\INCLUDE\10.0.14393.0\UCRT\CORECRT_WTIME.H
C:\PROGRAM FILES (X86)\WINDOWS KITS\10\INCLUDE\10.0.14393.0\UCRT\SYS\STAT.H
C:\PROGRAM FILES (X86)\WINDOWS KITS\10\INCLUDE\10.0.14393.0\UCRT\SYS\TYPES.H
C:\USERS\GEANA\DOCUMENTS\VISUAL STUDIO 2017\PROJECTS\FTW\FOUR-THE-WORLD1\LIBS\SDL2-2.0.9\INCLUDE\SDL.H
C:\USERS\GEANA\DOCUMENTS\VISUAL STUDIO 2017\PROJECTS\FTW\FOUR-THE-WORLD1\LIBS\SDL2-2.0.9\INCLUDE\SDL_MAIN.H
C:\USERS\GEANA\DOCUMENTS\VISUAL STUDIO 2017\PROJECTS\FTW\FOUR-THE-WORLD1\LIBS\SDL2-2.0.9\INCLUDE\SDL_STDINC.H
C:\USERS\GEANA\DOCUMENTS\VISUAL STUDIO 2017\PROJECTS\FTW\FOUR-THE-WORLD1\LIBS\SDL2-2.0.9\INCLUDE\SDL_CONFIG.H
C:\USERS\GEANA\DOCUMENTS\VISUAL STUDIO 2017\PROJECTS\FTW\FOUR-THE-WORLD1\LIBS\SDL2-2.0.9\INCLUDE\SDL_PLATFORM.H
C:\PROGRAM FILES (X86)\WINDOWS KITS\10\INCLUDE\10.0.14393.0\SHARED\WINAPIFAMILY.H
C:\PROGRAM FILES (X86)\WINDOWS KITS\10\INCLUDE\10.0.14393.0\SHARED\WINPACKAGEFAMILY.H
C:\USERS\GEANA\DOCUMENTS\VISUAL STUDIO 2017\PROJECTS\FTW\FOUR-THE-WORLD1\LIBS\SDL2-2.0.9\INCLUDE\BEGIN_CODE.H
C:\USERS\GEANA\DOCUMENTS\VISUAL STUDIO 2017\PROJECTS\FTW\FOUR-THE-WORLD1\LIBS\SDL2-2.0.9\INCLUDE\CLOSE_CODE.H
C:\PROGRAM FILES (X86)\WINDOWS KITS\10\INCLUDE\10.0.14393.0\UCRT\STDDEF.H
C:\PROGRAM FILES (X86)\MICROSOFT VISUAL STUDIO\2017\COMMUNITY\VC\TOOLS\MSVC\14.10.25017\INCLUDE\STDARG.H
C:\USERS\GEANA\DOCUMENTS\VISUAL STUDIO 2017\PROJECTS\FTW\FOUR-THE-WORLD1\LIBS\SDL2-2.0.9\INCLUDE\SDL_ASSERT.H
C:\USERS\GEANA\DOCUMENTS\VISUAL STUDIO 2017\PROJECTS\FTW\FOUR-THE-WORLD1\LIBS\SDL2-2.0.9\INCLUDE\SDL_ATOMIC.H
C:\USERS\GEANA\DOCUMENTS\VISUAL STUDIO 2017\PROJECTS\FTW\FOUR-THE-WORLD1\LIBS\SDL2-2.0.9\INCLUDE\SDL_AUDIO.H
C:\USERS\GEANA\DOCUMENTS\VISUAL STUDIO 2017\PROJECTS\FTW\FOUR-THE-WORLD1\LIBS\SDL2-2.0.9\INCLUDE\SDL_ERROR.H
C:\USERS\GEANA\DOCUMENTS\VISUAL STUDIO 2017\PROJECTS\FTW\FOUR-THE-WORLD1\LIBS\SDL2-2.0.9\INCLUDE\SDL_ENDIAN.H
C:\USERS\GEANA\DOCUMENTS\VISUAL STUDIO 2017\PROJECTS\FTW\FOUR-THE-WORLD1\LIBS\SDL2-2.0.9\INCLUDE\SDL_MUTEX.H
C:\USERS\GEANA\DOCUMENTS\VISUAL STUDIO 2017\PROJECTS\FTW\FOUR-THE-WORLD1\LIBS\SDL2-2.0.9\INCLUDE\SDL_THREAD.H
C:\PROGRAM FILES (X86)\WINDOWS KITS\10\INCLUDE\10.0.14393.0\UCRT\PROCESS.H
C:\PROGRAM FILES (X86)\WINDOWS KITS\10\INCLUDE\10.0.14393.0\UCRT\CORECRT_STARTUP.H
C:\PROGRAM FILES (X86)\WINDOWS KITS\10\INCLUDE\10.0.14393.0\UCRT\MATH.H
C:\PROGRAM FILES (X86)\MICROSOFT VISUAL STUDIO\2017\COMMUNITY\VC\TOOLS\MSVC\14.10.25017\INCLUDE\VCRUNTIME_STARTUP.H
C:\USERS\GEANA\DOCUMENTS\VISUAL STUDIO 2017\PROJECTS\FTW\FOUR-THE-WORLD1\LIBS\SDL2-2.0.9\INCLUDE\SDL_RWOPS.H
C:\USERS\GEANA\DOCUMENTS\VISUAL STUDIO 2017\PROJECTS\FTW\FOUR-THE-WORLD1\LIBS\SDL2-2.0.9\INCLUDE\SDL_CLIPBOARD.H
C:\USERS\GEANA\DOCUMENTS\VISUAL STUDIO 2017\PROJECTS\FTW\FOUR-THE-WORLD1\LIBS\SDL2-2.0.9\INCLUDE\SDL_CPUINFO.H
C:\PROGRAM FILES (X86)\MICROSOFT VISUAL STUDIO\2017\COMMUNITY\VC\TOOLS\MSVC\14.10.25017\INCLUDE\INTRIN.H
C:\PROGRAM FILES (X86)\MICROSOFT VISUAL STUDIO\2017\COMMUNITY\VC\TOOLS\MSVC\14.10.25017\INCLUDE\INTRIN0.H
C:\PROGRAM FILES (X86)\MICROSOFT VISUAL STUDIO\2017\COMMUNITY\VC\TOOLS\MSVC\14.10.25017\INCLUDE\SETJMP.H
C:\PROGRAM FILES (X86)\MICROSOFT VISUAL STUDIO\2017\COMMUNITY\VC\TOOLS\MSVC\14.10.25017\INCLUDE\IMMINTRIN.H
C:\PROGRAM FILES (X86)\MICROSOFT VISUAL STUDIO\2017\COMMUNITY\VC\TOOLS\MSVC\14.10.25017\INCLUDE\WMMINTRIN.H
C:\PROGRAM FILES (X86)\MICROSOFT VISUAL STUDIO\2017\COMMUNITY\VC\TOOLS\MSVC\14.10.25017\INCLUDE\NMMINTRIN.H
C:\PROGRAM FILES (X86)\MICROSOFT VISUAL STUDIO\2017\COMMUNITY\VC\TOOLS\MSVC\14.10.25017\INCLUDE\SMMINTRIN.H
C:\PROGRAM FILES (X86)\MICROSOFT VISUAL STUDIO\2017\COMMUNITY\VC\TOOLS\MSVC\14.10.25017\INCLUDE\TMMINTRIN.H
C:\PROGRAM FILES (X86)\MICROSOFT VISUAL STUDIO\2017\COMMUNITY\VC\TOOLS\MSVC\14.10.25017\INCLUDE\PMMINTRIN.H
C:\PROGRAM FILES (X86)\MICROSOFT VISUAL STUDIO\2017\COMMUNITY\VC\TOOLS\MSVC\14.10.25017\INCLUDE\EMMINTRIN.H
C:\PROGRAM FILES (X86)\MICROSOFT VISUAL STUDIO\2017\COMMUNITY\VC\TOOLS\MSVC\14.10.25017\INCLUDE\XMMINTRIN.H
C:\PROGRAM FILES (X86)\MICROSOFT VISUAL STUDIO\2017\COMMUNITY\VC\TOOLS\MSVC\14.10.25017\INCLUDE\MMINTRIN.H
C:\PROGRAM FILES (X86)\WINDOWS KITS\10\INCLUDE\10.0.14393.0\UCRT\MALLOC.H
C:\PROGRAM FILES (X86)\WINDOWS KITS\10\INCLUDE\10.0.14393.0\UCRT\CORECRT_MALLOC.H
C:\PROGRAM FILES (X86)\MICROSOFT VISUAL STUDIO\2017\COMMUNITY\VC\TOOLS\MSVC\14.10.25017\INCLUDE\ZMMINTRIN.H
C:\PROGRAM FILES (X86)\MICROSOFT VISUAL STUDIO\2017\COMMUNITY\VC\TOOLS\MSVC\14.10.25017\INCLUDE\AMMINTRIN.H
C:\PROGRAM FILES (X86)\MICROSOFT VISUAL STUDIO\2017\COMMUNITY\VC\TOOLS\MSVC\14.10.25017\INCLUDE\MM3DNOW.H
C:\USERS\GEANA\DOCUMENTS\VISUAL STUDIO 2017\PROJECTS\FTW\FOUR-THE-WORLD1\LIBS\SDL2-2.0.9\INCLUDE\SDL_EVENTS.H
C:\USERS\GEANA\DOCUMENTS\VISUAL STUDIO 2017\PROJECTS\FTW\FOUR-THE-WORLD1\LIBS\SDL2-2.0.9\INCLUDE\SDL_VIDEO.H
C:\USERS\GEANA\DOCUMENTS\VISUAL STUDIO 2017\PROJECTS\FTW\FOUR-THE-WORLD1\LIBS\SDL2-2.0.9\INCLUDE\SDL_PIXELS.H
C:\USERS\GEANA\DOCUMENTS\VISUAL STUDIO 2017\PROJECTS\FTW\FOUR-THE-WORLD1\LIBS\SDL2-2.0.9\INCLUDE\SDL_RECT.H
C:\USERS\GEANA\DOCUMENTS\VISUAL STUDIO 2017\PROJECTS\FTW\FOUR-THE-WORLD1\LIBS\SDL2-2.0.9\INCLUDE\SDL_SURFACE.H
C:\USERS\GEANA\DOCUMENTS\VISUAL STUDIO 2017\PROJECTS\FTW\FOUR-THE-WORLD1\LIBS\SDL2-2.0.9\INCLUDE\SDL_BLENDMODE.H
C:\USERS\GEANA\DOCUMENTS\VISUAL STUDIO 2017\PROJECTS\FTW\FOUR-THE-WORLD1\LIBS\SDL2-2.0.9\INCLUDE\SDL_KEYBOARD.H
C:\USERS\GEANA\DOCUMENTS\VISUAL STUDIO 2017\PROJECTS\FTW\FOUR-THE-WORLD1\LIBS\SDL2-2.0.9\INCLUDE\SDL_KEYCODE.H
C:\USERS\GEANA\DOCUMENTS\VISUAL STUDIO 2017\PROJECTS\FTW\FOUR-THE-WORLD1\LIBS\SDL2-2.0.9\INCLUDE\SDL_SCANCODE.H
C:\USERS\GEANA\DOCUMENTS\VISUAL STUDIO 2017\PROJECTS\FTW\FOUR-THE-WORLD1\LIBS\SDL2-2.0.9\INCLUDE\SDL_MOUSE.H
C:\USERS\GEANA\DOCUMENTS\VISUAL STUDIO 2017\PROJECTS\FTW\FOUR-THE-WORLD1\LIBS\SDL2-2.0.9\INCLUDE\SDL_JOYSTICK.H
C:\USERS\GEANA\DOCUMENTS\VISUAL STUDIO 2017\PROJECTS\FTW\FOUR-THE-WORLD1\LIBS\SDL2-2.0.9\INCLUDE\SDL_GAMECONTROLLER.H
C:\USERS\GEANA\DOCUMENTS\VISUAL STUDIO 2017\PROJECTS\FTW\FOUR-THE-WORLD1\LIBS\SDL2-2.0.9\INCLUDE\SDL_QUIT.H
C:\USERS\GEANA\DOCUMENTS\VISUAL STUDIO 2017\PROJECTS\FTW\FOUR-THE-WORLD1\LIBS\SDL2-2.0.9\INCLUDE\SDL_GESTURE.H
C:\USERS\GEANA\DOCUMENTS\VISUAL STUDIO 2017\PROJECTS\FTW\FOUR-THE-WORLD1\LIBS\SDL2-2.0.9\INCLUDE\SDL_TOUCH.H
C:\USERS\GEANA\DOCUMENTS\VISUAL STUDIO 2017\PROJECTS\FTW\FOUR-THE-WORLD1\LIBS\SDL2-2.0.9\INCLUDE\SDL_FILESYSTEM.H
C:\USERS\GEANA\DOCUMENTS\VISUAL STUDIO 2017\PROJECTS\FTW\FOUR-THE-WORLD1\LIBS\SDL2-2.0.9\INCLUDE\SDL_HAPTIC.H
C:\USERS\GEANA\DOCUMENTS\VISUAL STUDIO 2017\PROJECTS\FTW\FOUR-THE-WORLD1\LIBS\SDL2-2.0.9\INCLUDE\SDL_HINTS.H
C:\USERS\GEANA\DOCUMENTS\VISUAL STUDIO 2017\PROJECTS\FTW\FOUR-THE-WORLD1\LIBS\SDL2-2.0.9\INCLUDE\SDL_LOADSO.H
C:\USERS\GEANA\DOCUMENTS\VISUAL STUDIO 2017\PROJECTS\FTW\FOUR-THE-WORLD1\LIBS\SDL2-2.0.9\INCLUDE\SDL_LOG.H
C:\USERS\GEANA\DOCUMENTS\VISUAL STUDIO 2017\PROJECTS\FTW\FOUR-THE-WORLD1\LIBS\SDL2-2.0.9\INCLUDE\SDL_MESSAGEBOX.H
C:\USERS\GEANA\DOCUMENTS\VISUAL STUDIO 2017\PROJECTS\FTW\FOUR-THE-WORLD1\LIBS\SDL2-2.0.9\INCLUDE\SDL_POWER.H
C:\USERS\GEANA\DOCUMENTS\VISUAL STUDIO 2017\PROJECTS\FTW\FOUR-THE-WORLD1\LIBS\SDL2-2.0.9\INCLUDE\SDL_RENDER.H
C:\USERS\GEANA\DOCUMENTS\VISUAL STUDIO 2017\PROJECTS\FTW\FOUR-THE-WORLD1\LIBS\SDL2-2.0.9\INCLUDE\SDL_SENSOR.H
C:\USERS\GEANA\DOCUMENTS\VISUAL STUDIO 2017\PROJECTS\FTW\FOUR-THE-WORLD1\LIBS\SDL2-2.0.9\INCLUDE\SDL_SHAPE.H
C:\USERS\GEANA\DOCUMENTS\VISUAL STUDIO 2017\PROJECTS\FTW\FOUR-THE-WORLD1\LIBS\SDL2-2.0.9\INCLUDE\SDL_SYSTEM.H
C:\USERS\GEANA\DOCUMENTS\VISUAL STUDIO 2017\PROJECTS\FTW\FOUR-THE-WORLD1\LIBS\SDL2-2.0.9\INCLUDE\SDL_TIMER.H
C:\USERS\GEANA\DOCUMENTS\VISUAL STUDIO 2017\PROJECTS\FTW\FOUR-THE-WORLD1\LIBS\SDL2-2.0.9\INCLUDE\SDL_VERSION.H
C:\USERS\GEANA\DOCUMENTS\VISUAL STUDIO 2017\PROJECTS\FTW\FOUR-THE-WORLD1\LIBS\SDL2_IMAGE-2.0.4\INCLUDE\SDL_IMAGE.H
C:\USERS\GEANA\DOCUMENTS\VISUAL STUDIO 2017\PROJECTS\FTW\FOUR-THE-WORLD1\FTW\COLLECTOR.H
^C:\USERS\GEANA\DOCUMENTS\VISUAL STUDIO 2017\PROJECTS\FTW\FOUR-THE-WORLD1\FTW\BULLETINSTANCE.CPP
C:\USERS\GEANA\DOCUMENTS\VISUAL STUDIO 2017\PROJECTS\FTW\FOUR-THE-WORLD1\FTW\STDAFX.H
C:\USERS\GEANA\DOCUMENTS\VISUAL STUDIO 2017\PROJECTS\FTW\FOUR-THE-WORLD1\FTW\TARGETVER.H
C:\PROGRAM FILES (X86)\WINDOWS KITS\10\INCLUDE\10.0.14393.0\SHARED\SDKDDKVER.H
C:\PROGRAM FILES (X86)\WINDOWS KITS\10\INCLUDE\10.0.14393.0\UCRT\STDIO.H
C:\PROGRAM FILES (X86)\WINDOWS KITS\10\INCLUDE\10.0.14393.0\UCRT\CORECRT.H
C:\PROGRAM FILES (X86)\MICROSOFT VISUAL STUDIO\2017\COMMUNITY\VC\TOOLS\MSVC\14.10.25017\INCLUDE\VCRUNTIME.H
C:\PROGRAM FILES (X86)\MICROSOFT VISUAL STUDIO\2017\COMMUNITY\VC\TOOLS\MSVC\14.10.25017\INCLUDE\SAL.H
C:\PROGRAM FILES (X86)\MICROSOFT VISUAL STUDIO\2017\COMMUNITY\VC\TOOLS\MSVC\14.10.25017\INCLUDE\CONCURRENCYSAL.H
C:\PROGRAM FILES (X86)\MICROSOFT VISUAL STUDIO\2017\COMMUNITY\VC\TOOLS\MSVC\14.10.25017\INCLUDE\VADEFS.H
C:\PROGRAM FILES (X86)\WINDOWS KITS\10\INCLUDE\10.0.14393.0\UCRT\CORECRT_WSTDIO.H
C:\PROGRAM FILES (X86)\WINDOWS KITS\10\INCLUDE\10.0.14393.0\UCRT\CORECRT_STDIO_CONFIG.H
C:\PROGRAM FILES (X86)\WINDOWS KITS\10\INCLUDE\10.0.14393.0\UCRT\TCHAR.H
C:\PROGRAM FILES (X86)\WINDOWS KITS\10\INCLUDE\10.0.14393.0\UCRT\WCHAR.H
C:\PROGRAM FILES (X86)\WINDOWS KITS\10\INCLUDE\10.0.14393.0\UCRT\CORECRT_MEMCPY_S.H
C:\PROGRAM FILES (X86)\WINDOWS KITS\10\INCLUDE\10.0.14393.0\UCRT\ERRNO.H
C:\PROGRAM FILES (X86)\MICROSOFT VISUAL STUDIO\2017\COMMUNITY\VC\TOOLS\MSVC\14.10.25017\INCLUDE\VCRUNTIME_STRING.H
C:\PROGRAM FILES (X86)\WINDOWS KITS\10\INCLUDE\10.0.14393.0\UCRT\CORECRT_WCONIO.H
C:\PROGRAM FILES (X86)\WINDOWS KITS\10\INCLUDE\10.0.14393.0\UCRT\CORECRT_WCTYPE.H
C:\PROGRAM FILES (X86)\WINDOWS KITS\10\INCLUDE\10.0.14393.0\UCRT\CORECRT_WDIRECT.H
C:\PROGRAM FILES (X86)\WINDOWS KITS\10\INCLUDE\10.0.14393.0\UCRT\CORECRT_WIO.H
C:\PROGRAM FILES (X86)\WINDOWS KITS\10\INCLUDE\10.0.14393.0\UCRT\CORECRT_SHARE.H
C:\PROGRAM FILES (X86)\WINDOWS KITS\10\INCLUDE\10.0.14393.0\UCRT\CORECRT_WPROCESS.H
C:\PROGRAM FILES (X86)\WINDOWS KITS\10\INCLUDE\10.0.14393.0\UCRT\CORECRT_WSTDLIB.H
C:\PROGRAM FILES (X86)\WINDOWS KITS\10\INCLUDE\10.0.14393.0\UCRT\CORECRT_WSTRING.H
C:\PROGRAM FILES (X86)\WINDOWS KITS\10\INCLUDE\10.0.14393.0\UCRT\CORECRT_WTIME.H
C:\PROGRAM FILES (X86)\WINDOWS KITS\10\INCLUDE\10.0.14393.0\UCRT\SYS\STAT.H
C:\PROGRAM FILES (X86)\WINDOWS KITS\10\INCLUDE\10.0.14393.0\UCRT\SYS\TYPES.H
C:\USERS\GEANA\DOCUMENTS\VISUAL STUDIO 2017\PROJECTS\FTW\FOUR-THE-WORLD1\LIBS\SDL2-2.0.9\INCLUDE\SDL.H
C:\USERS\GEANA\DOCUMENTS\VISUAL STUDIO 2017\PROJECTS\FTW\FOUR-THE-WORLD1\LIBS\SDL2-2.0.9\INCLUDE\SDL_MAIN.H
C:\USERS\GEANA\DOCUMENTS\VISUAL STUDIO 2017\PROJECTS\FTW\FOUR-THE-WORLD1\LIBS\SDL2-2.0.9\INCLUDE\SDL_STDINC.H
C:\USERS\GEANA\DOCUMENTS\VISUAL STUDIO 2017\PROJECTS\FTW\FOUR-THE-WORLD1\LIBS\SDL2-2.0.9\INCLUDE\SDL_CONFIG.H
C:\USERS\GEANA\DOCUMENTS\VISUAL STUDIO 2017\PROJECTS\FTW\FOUR-THE-WORLD1\LIBS\SDL2-2.0.9\INCLUDE\SDL_PLATFORM.H
C:\PROGRAM FILES (X86)\WINDOWS KITS\10\INCLUDE\10.0.14393.0\SHARED\WINAPIFAMILY.H
C:\PROGRAM FILES (X86)\WINDOWS KITS\10\INCLUDE\10.0.14393.0\SHARED\WINPACKAGEFAMILY.H
C:\USERS\GEANA\DOCUMENTS\VISUAL STUDIO 2017\PROJECTS\FTW\FOUR-THE-WORLD1\LIBS\SDL2-2.0.9\INCLUDE\BEGIN_CODE.H
C:\USERS\GEANA\DOCUMENTS\VISUAL STUDIO 2017\PROJECTS\FTW\FOUR-THE-WORLD1\LIBS\SDL2-2.0.9\INCLUDE\CLOSE_CODE.H
C:\PROGRAM FILES (X86)\WINDOWS KITS\10\INCLUDE\10.0.14393.0\UCRT\STDDEF.H
C:\PROGRAM FILES (X86)\MICROSOFT VISUAL STUDIO\2017\COMMUNITY\VC\TOOLS\MSVC\14.10.25017\INCLUDE\STDARG.H
C:\USERS\GEANA\DOCUMENTS\VISUAL STUDIO 2017\PROJECTS\FTW\FOUR-THE-WORLD1\LIBS\SDL2-2.0.9\INCLUDE\SDL_ASSERT.H
C:\USERS\GEANA\DOCUMENTS\VISUAL STUDIO 2017\PROJECTS\FTW\FOUR-THE-WORLD1\LIBS\SDL2-2.0.9\INCLUDE\SDL_ATOMIC.H
C:\USERS\GEANA\DOCUMENTS\VISUAL STUDIO 2017\PROJECTS\FTW\FOUR-THE-WORLD1\LIBS\SDL2-2.0.9\INCLUDE\SDL_AUDIO.H
C:\USERS\GEANA\DOCUMENTS\VISUAL STUDIO 2017\PROJECTS\FTW\FOUR-THE-WORLD1\LIBS\SDL2-2.0.9\INCLUDE\SDL_ERROR.H
C:\USERS\GEANA\DOCUMENTS\VISUAL STUDIO 2017\PROJECTS\FTW\FOUR-THE-WORLD1\LIBS\SDL2-2.0.9\INCLUDE\SDL_ENDIAN.H
C:\USERS\GEANA\DOCUMENTS\VISUAL STUDIO 2017\PROJECTS\FTW\FOUR-THE-WORLD1\LIBS\SDL2-2.0.9\INCLUDE\SDL_MUTEX.H
C:\USERS\GEANA\DOCUMENTS\VISUAL STUDIO 2017\PROJECTS\FTW\FOUR-THE-WORLD1\LIBS\SDL2-2.0.9\INCLUDE\SDL_THREAD.H
C:\PROGRAM FILES (X86)\WINDOWS KITS\10\INCLUDE\10.0.14393.0\UCRT\PROCESS.H
C:\PROGRAM FILES (X86)\WINDOWS KITS\10\INCLUDE\10.0.14393.0\UCRT\CORECRT_STARTUP.H
C:\PROGRAM FILES (X86)\WINDOWS KITS\10\INCLUDE\10.0.14393.0\UCRT\MATH.H
C:\PROGRAM FILES (X86)\MICROSOFT VISUAL STUDIO\2017\COMMUNITY\VC\TOOLS\MSVC\14.10.25017\INCLUDE\VCRUNTIME_STARTUP.H
C:\USERS\GEANA\DOCUMENTS\VISUAL STUDIO 2017\PROJECTS\FTW\FOUR-THE-WORLD1\LIBS\SDL2-2.0.9\INCLUDE\SDL_RWOPS.H
C:\USERS\GEANA\DOCUMENTS\VISUAL STUDIO 2017\PROJECTS\FTW\FOUR-THE-WORLD1\LIBS\SDL2-2.0.9\INCLUDE\SDL_CLIPBOARD.H
C:\USERS\GEANA\DOCUMENTS\VISUAL STUDIO 2017\PROJECTS\FTW\FOUR-THE-WORLD1\LIBS\SDL2-2.0.9\INCLUDE\SDL_CPUINFO.H
C:\PROGRAM FILES (X86)\MICROSOFT VISUAL STUDIO\2017\COMMUNITY\VC\TOOLS\MSVC\14.10.25017\INCLUDE\INTRIN.H
C:\PROGRAM FILES (X86)\MICROSOFT VISUAL STUDIO\2017\COMMUNITY\VC\TOOLS\MSVC\14.10.25017\INCLUDE\INTRIN0.H
C:\PROGRAM FILES (X86)\MICROSOFT VISUAL STUDIO\2017\COMMUNITY\VC\TOOLS\MSVC\14.10.25017\INCLUDE\SETJMP.H
C:\PROGRAM FILES (X86)\MICROSOFT VISUAL STUDIO\2017\COMMUNITY\VC\TOOLS\MSVC\14.10.25017\INCLUDE\IMMINTRIN.H
C:\PROGRAM FILES (X86)\MICROSOFT VISUAL STUDIO\2017\COMMUNITY\VC\TOOLS\MSVC\14.10.25017\INCLUDE\WMMINTRIN.H
C:\PROGRAM FILES (X86)\MICROSOFT VISUAL STUDIO\2017\COMMUNITY\VC\TOOLS\MSVC\14.10.25017\INCLUDE\NMMINTRIN.H
C:\PROGRAM FILES (X86)\MICROSOFT VISUAL STUDIO\2017\COMMUNITY\VC\TOOLS\MSVC\14.10.25017\INCLUDE\SMMINTRIN.H
C:\PROGRAM FILES (X86)\MICROSOFT VISUAL STUDIO\2017\COMMUNITY\VC\TOOLS\MSVC\14.10.25017\INCLUDE\TMMINTRIN.H
C:\PROGRAM FILES (X86)\MICROSOFT VISUAL STUDIO\2017\COMMUNITY\VC\TOOLS\MSVC\14.10.25017\INCLUDE\PMMINTRIN.H
C:\PROGRAM FILES (X86)\MICROSOFT VISUAL STUDIO\2017\COMMUNITY\VC\TOOLS\MSVC\14.10.25017\INCLUDE\EMMINTRIN.H
C:\PROGRAM FILES (X86)\MICROSOFT VISUAL STUDIO\2017\COMMUNITY\VC\TOOLS\MSVC\14.10.25017\INCLUDE\XMMINTRIN.H
C:\PROGRAM FILES (X86)\MICROSOFT VISUAL STUDIO\2017\COMMUNITY\VC\TOOLS\MSVC\14.10.25017\INCLUDE\MMINTRIN.H
C:\PROGRAM FILES (X86)\WINDOWS KITS\10\INCLUDE\10.0.14393.0\UCRT\MALLOC.H
C:\PROGRAM FILES (X86)\WINDOWS KITS\10\INCLUDE\10.0.14393.0\UCRT\CORECRT_MALLOC.H
C:\PROGRAM FILES (X86)\MICROSOFT VISUAL STUDIO\2017\COMMUNITY\VC\TOOLS\MSVC\14.10.25017\INCLUDE\ZMMINTRIN.H
C:\PROGRAM FILES (X86)\MICROSOFT VISUAL STUDIO\2017\COMMUNITY\VC\TOOLS\MSVC\14.10.25017\INCLUDE\AMMINTRIN.H
C:\PROGRAM FILES (X86)\MICROSOFT VISUAL STUDIO\2017\COMMUNITY\VC\TOOLS\MSVC\14.10.25017\INCLUDE\MM3DNOW.H
C:\USERS\GEANA\DOCUMENTS\VISUAL STUDIO 2017\PROJECTS\FTW\FOUR-THE-WORLD1\LIBS\SDL2-2.0.9\INCLUDE\SDL_EVENTS.H
C:\USERS\GEANA\DOCUMENTS\VISUAL STUDIO 2017\PROJECTS\FTW\FOUR-THE-WORLD1\LIBS\SDL2-2.0.9\INCLUDE\SDL_VIDEO.H
C:\USERS\GEANA\DOCUMENTS\VISUAL STUDIO 2017\PROJECTS\FTW\FOUR-THE-WORLD1\LIBS\SDL2-2.0.9\INCLUDE\SDL_PIXELS.H
C:\USERS\GEANA\DOCUMENTS\VISUAL STUDIO 2017\PROJECTS\FTW\FOUR-THE-WORLD1\LIBS\SDL2-2.0.9\INCLUDE\SDL_RECT.H
C:\USERS\GEANA\DOCUMENTS\VISUAL STUDIO 2017\PROJECTS\FTW\FOUR-THE-WORLD1\LIBS\SDL2-2.0.9\INCLUDE\SDL_SURFACE.H
C:\USERS\GEANA\DOCUMENTS\VISUAL STUDIO 2017\PROJECTS\FTW\FOUR-THE-WORLD1\LIBS\SDL2-2.0.9\INCLUDE\SDL_BLENDMODE.H
C:\USERS\GEANA\DOCUMENTS\VISUAL STUDIO 2017\PROJECTS\FTW\FOUR-THE-WORLD1\LIBS\SDL2-2.0.9\INCLUDE\SDL_KEYBOARD.H
C:\USERS\GEANA\DOCUMENTS\VISUAL STUDIO 2017\PROJECTS\FTW\FOUR-THE-WORLD1\LIBS\SDL2-2.0.9\INCLUDE\SDL_KEYCODE.H
C:\USERS\GEANA\DOCUMENTS\VISUAL STUDIO 2017\PROJECTS\FTW\FOUR-THE-WORLD1\LIBS\SDL2-2.0.9\INCLUDE\SDL_SCANCODE.H
C:\USERS\GEANA\DOCUMENTS\VISUAL STUDIO 2017\PROJECTS\FTW\FOUR-THE-WORLD1\LIBS\SDL2-2.0.9\INCLUDE\SDL_MOUSE.H
C:\USERS\GEANA\DOCUMENTS\VISUAL STUDIO 2017\PROJECTS\FTW\FOUR-THE-WORLD1\LIBS\SDL2-2.0.9\INCLUDE\SDL_JOYSTICK.H
C:\USERS\GEANA\DOCUMENTS\VISUAL STUDIO 2017\PROJECTS\FTW\FOUR-THE-WORLD1\LIBS\SDL2-2.0.9\INCLUDE\SDL_GAMECONTROLLER.H
C:\USERS\GEANA\DOCUMENTS\VISUAL STUDIO 2017\PROJECTS\FTW\FOUR-THE-WORLD1\LIBS\SDL2-2.0.9\INCLUDE\SDL_QUIT.H
C:\USERS\GEANA\DOCUMENTS\VISUAL STUDIO 2017\PROJECTS\FTW\FOUR-THE-WORLD1\LIBS\SDL2-2.0.9\INCLUDE\SDL_GESTURE.H
C:\USERS\GEANA\DOCUMENTS\VISUAL STUDIO 2017\PROJECTS\FTW\FOUR-THE-WORLD1\LIBS\SDL2-2.0.9\INCLUDE\SDL_TOUCH.H
C:\USERS\GEANA\DOCUMENTS\VISUAL STUDIO 2017\PROJECTS\FTW\FOUR-THE-WORLD1\LIBS\SDL2-2.0.9\INCLUDE\SDL_FILESYSTEM.H
C:\USERS\GEANA\DOCUMENTS\VISUAL STUDIO 2017\PROJECTS\FTW\FOUR-THE-WORLD1\LIBS\SDL2-2.0.9\INCLUDE\SDL_HAPTIC.H
C:\USERS\GEANA\DOCUMENTS\VISUAL STUDIO 2017\PROJECTS\FTW\FOUR-THE-WORLD1\LIBS\SDL2-2.0.9\INCLUDE\SDL_HINTS.H
C:\USERS\GEANA\DOCUMENTS\VISUAL STUDIO 2017\PROJECTS\FTW\FOUR-THE-WORLD1\LIBS\SDL2-2.0.9\INCLUDE\SDL_LOADSO.H
C:\USERS\GEANA\DOCUMENTS\VISUAL STUDIO 2017\PROJECTS\FTW\FOUR-THE-WORLD1\LIBS\SDL2-2.0.9\INCLUDE\SDL_LOG.H
C:\USERS\GEANA\DOCUMENTS\VISUAL STUDIO 2017\PROJECTS\FTW\FOUR-THE-WORLD1\LIBS\SDL2-2.0.9\INCLUDE\SDL_MESSAGEBOX.H
C:\USERS\GEANA\DOCUMENTS\VISUAL STUDIO 2017\PROJECTS\FTW\FOUR-THE-WORLD1\LIBS\SDL2-2.0.9\INCLUDE\SDL_POWER.H
C:\USERS\GEANA\DOCUMENTS\VISUAL STUDIO 2017\PROJECTS\FTW\FOUR-THE-WORLD1\LIBS\SDL2-2.0.9\INCLUDE\SDL_RENDER.H
C:\USERS\GEANA\DOCUMENTS\VISUAL STUDIO 2017\PROJECTS\FTW\FOUR-THE-WORLD1\LIBS\SDL2-2.0.9\INCLUDE\SDL_SENSOR.H
C:\USERS\GEANA\DOCUMENTS\VISUAL STUDIO 2017\PROJECTS\FTW\FOUR-THE-WORLD1\LIBS\SDL2-2.0.9\INCLUDE\SDL_SHAPE.H
C:\USERS\GEANA\DOCUMENTS\VISUAL STUDIO 2017\PROJECTS\FTW\FOUR-THE-WORLD1\LIBS\SDL2-2.0.9\INCLUDE\SDL_SYSTEM.H
C:\USERS\GEANA\DOCUMENTS\VISUAL STUDIO 2017\PROJECTS\FTW\FOUR-THE-WORLD1\LIBS\SDL2-2.0.9\INCLUDE\SDL_TIMER.H
C:\USERS\GEANA\DOCUMENTS\VISUAL STUDIO 2017\PROJECTS\FTW\FOUR-THE-WORLD1\LIBS\SDL2-2.0.9\INCLUDE\SDL_VERSION.H
C:\USERS\GEANA\DOCUMENTS\VISUAL STUDIO 2017\PROJECTS\FTW\FOUR-THE-WORLD1\LIBS\SDL2_IMAGE-2.0.4\INCLUDE\SDL_IMAGE.H
C:\USERS\GEANA\DOCUMENTS\VISUAL STUDIO 2017\PROJECTS\FTW\FOUR-THE-WORLD1\FTW\BULLETINSTANCE.H
C:\USERS\GEANA\DOCUMENTS\VISUAL STUDIO 2017\PROJECTS\FTW\FOUR-THE-WORLD1\FTW\PROJECTILETYPE.H
C:\USERS\GEANA\DOCUMENTS\VISUAL STUDIO 2017\PROJECTS\FTW\FOUR-THE-WORLD1\FTW\SPRITE.H
C:\USERS\GEANA\DOCUMENTS\VISUAL STUDIO 2017\PROJECTS\FTW\FOUR-THE-WORLD1\FTW\AABB.H
C:\USERS\GEANA\DOCUMENTS\VISUAL STUDIO 2017\PROJECTS\FTW\FOUR-THE-WORLD1\FTW\FLOAT2.H
C:\USERS\GEANA\DOCUMENTS\VISUAL STUDIO 2017\PROJECTS\FTW\FOUR-THE-WORLD1\FTW\ENEMY.H
C:\USERS\GEANA\DOCUMENTS\VISUAL STUDIO 2017\PROJECTS\FTW\FOUR-THE-WORLD1\FTW\PLAYER.H
