^C:\USERS\GEANA\DOCUMENTS\VISUAL STUDIO 2017\PROJECTS\FTW\FOUR-THE-WORLD1\FTW\STDAFX.CPP
C:\USERS\GEANA\DOCUMENTS\VISUAL STUDIO 2017\PROJECTS\FTW\FOUR-THE-WORLD1\FTW\DEBUG\FTW.PCH
C:\USERS\GEANA\DOCUMENTS\VISUAL STUDIO 2017\PROJECTS\FTW\FOUR-THE-WORLD1\FTW\DEBUG\VC141.PDB
C:\USERS\GEANA\DOCUMENTS\VISUAL STUDIO 2017\PROJECTS\FTW\FOUR-THE-WORLD1\FTW\DEBUG\VC141.IDB
C:\USERS\GEANA\DOCUMENTS\VISUAL STUDIO 2017\PROJECTS\FTW\FOUR-THE-WORLD1\FTW\DEBUG\STDAFX.OBJ
^C:\USERS\GEANA\DOCUMENTS\VISUAL STUDIO 2017\PROJECTS\FTW\FOUR-THE-WORLD1\FTW\BULLETINSTANCE.CPP|C:\USERS\GEANA\DOCUMENTS\VISUAL STUDIO 2017\PROJECTS\FTW\FOUR-THE-WORLD1\FTW\COLLECTOR.CPP|C:\USERS\GEANA\DOCUMENTS\VISUAL STUDIO 2017\PROJECTS\FTW\FOUR-THE-WORLD1\FTW\ENEMY.CPP|C:\USERS\GEANA\DOCUMENTS\VISUAL STUDIO 2017\PROJECTS\FTW\FOUR-THE-WORLD1\FTW\FTWGAME.CPP|C:\USERS\GEANA\DOCUMENTS\VISUAL STUDIO 2017\PROJECTS\FTW\FOUR-THE-WORLD1\FTW\MAIN.CPP|C:\USERS\GEANA\DOCUMENTS\VISUAL STUDIO 2017\PROJECTS\FTW\FOUR-THE-WORLD1\FTW\PLAYER.CPP|C:\USERS\GEANA\DOCUMENTS\VISUAL STUDIO 2017\PROJECTS\FTW\FOUR-THE-WORLD1\FTW\PROJECTILETYPE.CPP|C:\USERS\GEANA\DOCUMENTS\VISUAL STUDIO 2017\PROJECTS\FTW\FOUR-THE-WORLD1\FTW\SPRITE.CPP
C:\USERS\GEANA\DOCUMENTS\VISUAL STUDIO 2017\PROJECTS\FTW\FOUR-THE-WORLD1\FTW\DEBUG\VC141.PDB
C:\USERS\GEANA\DOCUMENTS\VISUAL STUDIO 2017\PROJECTS\FTW\FOUR-THE-WORLD1\FTW\DEBUG\VC141.IDB
C:\USERS\GEANA\DOCUMENTS\VISUAL STUDIO 2017\PROJECTS\FTW\FOUR-THE-WORLD1\FTW\DEBUG\BULLETINSTANCE.OBJ
C:\USERS\GEANA\DOCUMENTS\VISUAL STUDIO 2017\PROJECTS\FTW\FOUR-THE-WORLD1\FTW\DEBUG\COLLECTOR.OBJ
C:\USERS\GEANA\DOCUMENTS\VISUAL STUDIO 2017\PROJECTS\FTW\FOUR-THE-WORLD1\FTW\DEBUG\ENEMY.OBJ
C:\USERS\GEANA\DOCUMENTS\VISUAL STUDIO 2017\PROJECTS\FTW\FOUR-THE-WORLD1\FTW\DEBUG\FTWGAME.OBJ
C:\USERS\GEANA\DOCUMENTS\VISUAL STUDIO 2017\PROJECTS\FTW\FOUR-THE-WORLD1\FTW\DEBUG\MAIN.OBJ
C:\USERS\GEANA\DOCUMENTS\VISUAL STUDIO 2017\PROJECTS\FTW\FOUR-THE-WORLD1\FTW\DEBUG\PLAYER.OBJ
C:\USERS\GEANA\DOCUMENTS\VISUAL STUDIO 2017\PROJECTS\FTW\FOUR-THE-WORLD1\FTW\DEBUG\PROJECTILETYPE.OBJ
C:\USERS\GEANA\DOCUMENTS\VISUAL STUDIO 2017\PROJECTS\FTW\FOUR-THE-WORLD1\FTW\DEBUG\SPRITE.OBJ
^C:\USERS\GEANA\DOCUMENTS\VISUAL STUDIO 2017\PROJECTS\FTW\FOUR-THE-WORLD1\FTW\BULLETINSTANCE.CPP
C:\USERS\GEANA\DOCUMENTS\VISUAL STUDIO 2017\PROJECTS\FTW\FOUR-THE-WORLD1\FTW\DEBUG\VC141.PDB
^C:\USERS\GEANA\DOCUMENTS\VISUAL STUDIO 2017\PROJECTS\FTW\FOUR-THE-WORLD1\FTW\COLLECTOR.CPP
C:\USERS\GEANA\DOCUMENTS\VISUAL STUDIO 2017\PROJECTS\FTW\FOUR-THE-WORLD1\FTW\DEBUG\VC141.PDB
^C:\USERS\GEANA\DOCUMENTS\VISUAL STUDIO 2017\PROJECTS\FTW\FOUR-THE-WORLD1\FTW\ENEMY.CPP
C:\USERS\GEANA\DOCUMENTS\VISUAL STUDIO 2017\PROJECTS\FTW\FOUR-THE-WORLD1\FTW\DEBUG\VC141.PDB
^C:\USERS\GEANA\DOCUMENTS\VISUAL STUDIO 2017\PROJECTS\FTW\FOUR-THE-WORLD1\FTW\FTWGAME.CPP
C:\USERS\GEANA\DOCUMENTS\VISUAL STUDIO 2017\PROJECTS\FTW\FOUR-THE-WORLD1\FTW\DEBUG\VC141.PDB
^C:\USERS\GEANA\DOCUMENTS\VISUAL STUDIO 2017\PROJECTS\FTW\FOUR-THE-WORLD1\FTW\MAIN.CPP
C:\USERS\GEANA\DOCUMENTS\VISUAL STUDIO 2017\PROJECTS\FTW\FOUR-THE-WORLD1\FTW\DEBUG\VC141.PDB
^C:\USERS\GEANA\DOCUMENTS\VISUAL STUDIO 2017\PROJECTS\FTW\FOUR-THE-WORLD1\FTW\PLAYER.CPP
C:\USERS\GEANA\DOCUMENTS\VISUAL STUDIO 2017\PROJECTS\FTW\FOUR-THE-WORLD1\FTW\DEBUG\VC141.PDB
^C:\USERS\GEANA\DOCUMENTS\VISUAL STUDIO 2017\PROJECTS\FTW\FOUR-THE-WORLD1\FTW\PROJECTILETYPE.CPP
C:\USERS\GEANA\DOCUMENTS\VISUAL STUDIO 2017\PROJECTS\FTW\FOUR-THE-WORLD1\FTW\DEBUG\VC141.PDB
^C:\USERS\GEANA\DOCUMENTS\VISUAL STUDIO 2017\PROJECTS\FTW\FOUR-THE-WORLD1\FTW\SPRITE.CPP
C:\USERS\GEANA\DOCUMENTS\VISUAL STUDIO 2017\PROJECTS\FTW\FOUR-THE-WORLD1\FTW\DEBUG\VC141.PDB
^C:\USERS\GEANA\DOCUMENTS\VISUAL STUDIO 2017\PROJECTS\FTW\FOUR-THE-WORLD1\FTW\BULLETINSTANCE.CPP|C:\USERS\GEANA\DOCUMENTS\VISUAL STUDIO 2017\PROJECTS\FTW\FOUR-THE-WORLD1\FTW\ENEMY.CPP|C:\USERS\GEANA\DOCUMENTS\VISUAL STUDIO 2017\PROJECTS\FTW\FOUR-THE-WORLD1\FTW\FTWGAME.CPP|C:\USERS\GEANA\DOCUMENTS\VISUAL STUDIO 2017\PROJECTS\FTW\FOUR-THE-WORLD1\FTW\MAIN.CPP|C:\USERS\GEANA\DOCUMENTS\VISUAL STUDIO 2017\PROJECTS\FTW\FOUR-THE-WORLD1\FTW\PROJECTILETYPE.CPP|C:\USERS\GEANA\DOCUMENTS\VISUAL STUDIO 2017\PROJECTS\FTW\FOUR-THE-WORLD1\FTW\SPRITE.CPP
C:\USERS\GEANA\DOCUMENTS\VISUAL STUDIO 2017\PROJECTS\FTW\FOUR-THE-WORLD1\FTW\DEBUG\VC141.PDB
C:\USERS\GEANA\DOCUMENTS\VISUAL STUDIO 2017\PROJECTS\FTW\FOUR-THE-WORLD1\FTW\DEBUG\VC141.IDB
C:\USERS\GEANA\DOCUMENTS\VISUAL STUDIO 2017\PROJECTS\FTW\FOUR-THE-WORLD1\FTW\DEBUG\SPRITE.OBJ
