^C:\USERS\GEANA\DOCUMENTS\VISUAL STUDIO 2017\PROJECTS\FTW\FOUR-THE-WORLD1\FTW\DEBUG\BULLETINSTANCE.OBJ|C:\USERS\GEANA\DOCUMENTS\VISUAL STUDIO 2017\PROJECTS\FTW\FOUR-THE-WORLD1\FTW\DEBUG\COLLECTOR.OBJ|C:\USERS\GEANA\DOCUMENTS\VISUAL STUDIO 2017\PROJECTS\FTW\FOUR-THE-WORLD1\FTW\DEBUG\ENEMY.OBJ|C:\USERS\GEANA\DOCUMENTS\VISUAL STUDIO 2017\PROJECTS\FTW\FOUR-THE-WORLD1\FTW\DEBUG\FTWGAME.OBJ|C:\USERS\GEANA\DOCUMENTS\VISUAL STUDIO 2017\PROJECTS\FTW\FOUR-THE-WORLD1\FTW\DEBUG\MAIN.OBJ|C:\USERS\GEANA\DOCUMENTS\VISUAL STUDIO 2017\PROJECTS\FTW\FOUR-THE-WORLD1\FTW\DEBUG\PLAYER.OBJ|C:\USERS\GEANA\DOCUMENTS\VISUAL STUDIO 2017\PROJECTS\FTW\FOUR-THE-WORLD1\FTW\DEBUG\PROJECTILETYPE.OBJ|C:\USERS\GEANA\DOCUMENTS\VISUAL STUDIO 2017\PROJECTS\FTW\FOUR-THE-WORLD1\FTW\DEBUG\SPRITE.OBJ|C:\USERS\GEANA\DOCUMENTS\VISUAL STUDIO 2017\PROJECTS\FTW\FOUR-THE-WORLD1\FTW\DEBUG\STDAFX.OBJ
C:\WINDOWS\GLOBALIZATION\SORTING\SORTDEFAULT.NLS
C:\USERS\GEANA\DOCUMENTS\VISUAL STUDIO 2017\PROJECTS\FTW\FOUR-THE-WORLD1\LIBS\SDL2-2.0.9\LIB\X86\SDL2.LIB
C:\USERS\GEANA\DOCUMENTS\VISUAL STUDIO 2017\PROJECTS\FTW\FOUR-THE-WORLD1\LIBS\SDL2-2.0.9\LIB\X86\SDL2MAIN.LIB
C:\USERS\GEANA\DOCUMENTS\VISUAL STUDIO 2017\PROJECTS\FTW\FOUR-THE-WORLD1\LIBS\SDL2_IMAGE-2.0.4\LIB\X86\SDL2_IMAGE.LIB
C:\PROGRAM FILES (X86)\WINDOWS KITS\10\LIB\10.0.14393.0\UM\X86\KERNEL32.LIB
C:\PROGRAM FILES (X86)\WINDOWS KITS\10\LIB\10.0.14393.0\UM\X86\USER32.LIB
C:\PROGRAM FILES (X86)\WINDOWS KITS\10\LIB\10.0.14393.0\UM\X86\GDI32.LIB
C:\PROGRAM FILES (X86)\WINDOWS KITS\10\LIB\10.0.14393.0\UM\X86\WINSPOOL.LIB
C:\PROGRAM FILES (X86)\WINDOWS KITS\10\LIB\10.0.14393.0\UM\X86\COMDLG32.LIB
C:\PROGRAM FILES (X86)\WINDOWS KITS\10\LIB\10.0.14393.0\UM\X86\ADVAPI32.LIB
C:\PROGRAM FILES (X86)\WINDOWS KITS\10\LIB\10.0.14393.0\UM\X86\SHELL32.LIB
C:\PROGRAM FILES (X86)\WINDOWS KITS\10\LIB\10.0.14393.0\UM\X86\OLE32.LIB
C:\PROGRAM FILES (X86)\WINDOWS KITS\10\LIB\10.0.14393.0\UM\X86\OLEAUT32.LIB
C:\PROGRAM FILES (X86)\WINDOWS KITS\10\LIB\10.0.14393.0\UM\X86\UUID.LIB
C:\PROGRAM FILES (X86)\WINDOWS KITS\10\LIB\10.0.14393.0\UM\X86\ODBC32.LIB
C:\PROGRAM FILES (X86)\WINDOWS KITS\10\LIB\10.0.14393.0\UM\X86\ODBCCP32.LIB
C:\USERS\GEANA\DOCUMENTS\VISUAL STUDIO 2017\PROJECTS\FTW\FOUR-THE-WORLD1\FTW\DEBUG\BULLETINSTANCE.OBJ
C:\USERS\GEANA\DOCUMENTS\VISUAL STUDIO 2017\PROJECTS\FTW\FOUR-THE-WORLD1\FTW\DEBUG\COLLECTOR.OBJ
C:\USERS\GEANA\DOCUMENTS\VISUAL STUDIO 2017\PROJECTS\FTW\FOUR-THE-WORLD1\FTW\DEBUG\ENEMY.OBJ
C:\USERS\GEANA\DOCUMENTS\VISUAL STUDIO 2017\PROJECTS\FTW\FOUR-THE-WORLD1\FTW\DEBUG\FTWGAME.OBJ
C:\USERS\GEANA\DOCUMENTS\VISUAL STUDIO 2017\PROJECTS\FTW\FOUR-THE-WORLD1\FTW\DEBUG\MAIN.OBJ
C:\USERS\GEANA\DOCUMENTS\VISUAL STUDIO 2017\PROJECTS\FTW\FOUR-THE-WORLD1\FTW\DEBUG\PLAYER.OBJ
C:\USERS\GEANA\DOCUMENTS\VISUAL STUDIO 2017\PROJECTS\FTW\FOUR-THE-WORLD1\FTW\DEBUG\PROJECTILETYPE.OBJ
C:\USERS\GEANA\DOCUMENTS\VISUAL STUDIO 2017\PROJECTS\FTW\FOUR-THE-WORLD1\FTW\DEBUG\SPRITE.OBJ
C:\USERS\GEANA\DOCUMENTS\VISUAL STUDIO 2017\PROJECTS\FTW\FOUR-THE-WORLD1\FTW\DEBUG\STDAFX.OBJ
C:\WINDOWS\SYSTEM32\TZRES.DLL
C:\PROGRAM FILES (X86)\MICROSOFT VISUAL STUDIO\2017\COMMUNITY\VC\TOOLS\MSVC\14.10.25017\LIB\X86\MSVCRTD.LIB
C:\PROGRAM FILES (X86)\MICROSOFT VISUAL STUDIO\2017\COMMUNITY\VC\TOOLS\MSVC\14.10.25017\LIB\X86\OLDNAMES.LIB
C:\PROGRAM FILES (X86)\MICROSOFT VISUAL STUDIO\2017\COMMUNITY\VC\TOOLS\MSVC\14.10.25017\LIB\X86\MSVCPRTD.LIB
C:\PROGRAM FILES (X86)\MICROSOFT VISUAL STUDIO\2017\COMMUNITY\VC\TOOLS\MSVC\14.10.25017\LIB\X86\VCRUNTIMED.LIB
C:\PROGRAM FILES (X86)\WINDOWS KITS\10\LIB\10.0.14393.0\UCRT\X86\UCRTD.LIB
